<?xml version="1.0" standalone="no"?>
<!DOCTYPE svg PUBLIC "-//W3C//DTD SVG 20010904//EN"
 "http://www.w3.org/TR/2001/REC-SVG-20010904/DTD/svg10.dtd">
<svg version="1.0" xmlns="http://www.w3.org/2000/svg"
 width="1600.000000pt" height="1190.000000pt" viewBox="0 0 1600.000000 1190.000000"
 preserveAspectRatio="xMidYMid meet">

<g transform="translate(0.000000,1190.000000) scale(0.100000,-0.100000)"
fill="#000000" stroke="none">
<path d="M1053 10877 l-93 -52 0 -52 c0 -29 2 -53 6 -53 3 0 47 24 98 54 l94
54 43 -25 c24 -13 68 -38 97 -55 l52 -29 0 54 0 55 -90 51 c-49 28 -96 51
-102 51 -7 -1 -55 -24 -105 -53z"/>
<path d="M10100 10785 c0 -32 2 -56 4 -54 8 7 10 98 3 105 -4 4 -7 -19 -7 -51z"/>
<path d="M10171 10801 c-1 -39 -3 -42 -18 -30 -13 11 -13 8 3 -16 l19 -29 3
32 c2 18 1 45 -1 60 -3 18 -4 13 -6 -17z"/>
<path d="M10779 10823 c0 -10 -1 -33 -2 -51 -1 -19 1 -36 5 -39 5 -2 8 21 8
51 0 31 -2 56 -5 56 -3 0 -5 -8 -6 -17z"/>
<path d="M11179 10825 c-7 -31 5 -88 19 -91 7 -1 8 0 2 3 -15 7 -13 63 3 63 8
0 9 3 1 8 -6 4 -13 14 -16 22 -3 11 -6 9 -9 -5z"/>
<path d="M11278 10823 c-2 -10 -1 -36 3 -58 l6 -40 2 38 c0 22 6 37 14 37 9 0
8 3 -2 9 -7 5 -10 14 -7 20 4 6 3 11 -2 11 -5 0 -11 -8 -14 -17z"/>
<path d="M11579 10823 c0 -10 -1 -33 -2 -51 -1 -19 1 -36 5 -39 5 -2 8 21 8
51 0 31 -2 56 -5 56 -3 0 -5 -8 -6 -17z"/>
<path d="M11863 10800 c0 -25 2 -35 4 -22 2 12 2 32 0 45 -2 12 -4 2 -4 -23z"/>
<path d="M11900 10821 c-15 -29 -12 -56 8 -74 24 -22 46 -22 63 0 13 15 12 15
-9 2 -44 -27 -84 37 -47 75 9 9 12 16 6 16 -6 0 -15 -9 -21 -19z"/>
<path d="M11955 10830 c3 -5 11 -10 16 -10 6 0 7 5 4 10 -3 6 -11 10 -16 10
-6 0 -7 -4 -4 -10z"/>
<path d="M12173 10833 c9 -2 23 -2 30 0 6 3 -1 5 -18 5 -16 0 -22 -2 -12 -5z"/>
<path d="M12263 10833 c9 -2 23 -2 30 0 6 3 -1 5 -18 5 -16 0 -22 -2 -12 -5z"/>
<path d="M12487 10819 c4 -13 8 -18 11 -10 2 7 -1 18 -6 23 -8 8 -9 4 -5 -13z"/>
<path d="M12568 10805 c4 -30 1 -35 -17 -35 -14 0 -20 4 -15 12 4 7 3 8 -4 4
-20 -12 -13 -26 13 -26 17 0 25 -6 26 -17 0 -14 2 -15 6 -3 3 8 11 18 17 22 8
5 7 8 -1 8 -8 0 -13 14 -13 35 0 19 -4 35 -8 35 -4 0 -6 -16 -4 -35z"/>
<path d="M12620 10821 c-12 -24 -13 -51 0 -71 6 -10 8 -4 4 21 -4 26 -1 40 11
52 9 9 12 17 6 17 -6 0 -15 -9 -21 -19z"/>
<path d="M12667 10830 c6 -8 13 -28 16 -45 l4 -30 2 31 c0 20 -6 37 -16 45
-16 12 -16 12 -6 -1z"/>
<path d="M12858 10823 c-2 -10 -1 -36 3 -58 l6 -40 2 38 c0 22 6 37 14 37 9 0
8 3 -2 9 -7 5 -10 14 -7 20 4 6 3 11 -2 11 -5 0 -11 -8 -14 -17z"/>
<path d="M13039 10823 c0 -10 -1 -33 -2 -51 -1 -19 1 -36 5 -39 5 -2 8 21 8
51 0 31 -2 56 -5 56 -3 0 -5 -8 -6 -17z"/>
<path d="M13127 10819 c4 -14 -4 -31 -28 -55 l-33 -34 40 1 c35 1 36 2 11 8
l-29 6 26 24 c26 25 34 55 17 65 -5 4 -7 -3 -4 -15z"/>
<path d="M13278 10805 c4 -30 1 -35 -17 -35 -14 0 -20 4 -15 12 4 7 3 8 -4 4
-20 -12 -13 -26 13 -26 17 0 25 -6 26 -17 0 -14 2 -15 6 -3 3 8 11 18 17 22 8
5 7 8 -1 8 -8 0 -13 14 -13 35 0 19 -4 35 -8 35 -4 0 -6 -16 -4 -35z"/>
<path d="M13328 10823 c-2 -10 -1 -36 3 -58 l6 -40 2 38 c0 22 6 37 14 37 9 0
8 3 -2 9 -7 5 -10 14 -7 20 4 6 3 11 -2 11 -5 0 -11 -8 -14 -17z"/>
<path d="M13670 10821 c-12 -24 -13 -51 0 -71 6 -10 8 -4 4 21 -4 26 -1 40 11
52 9 9 12 17 6 17 -6 0 -15 -9 -21 -19z"/>
<path d="M13717 10830 c6 -8 13 -28 16 -45 l4 -30 2 31 c0 20 -6 37 -16 45
-16 12 -16 12 -6 -1z"/>
<path d="M13841 10823 c0 -11 3 -13 6 -5 2 6 16 12 29 12 17 0 23 -4 18 -12
-4 -7 -3 -8 4 -4 23 14 12 26 -23 26 -27 0 -35 -4 -34 -17z"/>
<path d="M14197 10819 c4 -14 -4 -31 -28 -55 l-33 -34 40 1 c35 1 36 2 11 8
l-29 6 26 24 c26 25 34 55 17 65 -5 4 -7 -3 -4 -15z"/>
<path d="M14235 10820 c-8 -24 10 -50 34 -49 11 0 9 3 -6 9 -25 10 -30 29 -11
48 9 9 9 12 1 12 -7 0 -15 -9 -18 -20z"/>
<path d="M14286 10827 c3 -10 9 -15 12 -12 3 3 0 11 -7 18 -10 9 -11 8 -5 -6z"/>
<path d="M14469 10823 c0 -10 -1 -33 -2 -51 -1 -19 1 -36 5 -39 5 -2 8 21 8
51 0 31 -2 56 -5 56 -3 0 -5 -8 -6 -17z"/>
<path d="M14510 10821 c-12 -24 -13 -51 0 -71 6 -10 8 -4 4 21 -4 26 -1 40 11
52 9 9 12 17 6 17 -6 0 -15 -9 -21 -19z"/>
<path d="M14557 10830 c6 -8 13 -28 16 -45 l4 -30 2 31 c0 20 -6 37 -16 45
-16 12 -16 12 -6 -1z"/>
<path d="M14837 10819 c4 -13 8 -18 11 -10 2 7 -1 18 -6 23 -8 8 -9 4 -5 -13z"/>
<path d="M14871 10823 c0 -11 3 -13 6 -5 2 6 16 12 29 12 17 0 23 -4 18 -12
-4 -7 -3 -8 4 -4 23 14 12 26 -23 26 -27 0 -35 -4 -34 -17z"/>
<path d="M15017 10819 c4 -14 -4 -31 -28 -55 l-33 -34 40 1 c35 1 36 2 11 8
l-29 6 26 24 c26 25 34 55 17 65 -5 4 -7 -3 -4 -15z"/>
<path d="M13380 10820 c-13 -8 -12 -10 3 -10 9 0 17 5 17 10 0 12 -1 12 -20 0z"/>
<path d="M14090 10820 c-13 -8 -12 -10 3 -10 9 0 17 5 17 10 0 12 -1 12 -20 0z"/>
<path d="M10212 10785 c0 -16 2 -22 5 -12 2 9 2 23 0 30 -3 6 -5 -1 -5 -18z"/>
<path d="M10338 10803 c6 -2 12 -12 12 -21 0 -15 2 -15 10 -2 9 15 -4 30 -25
29 -5 0 -4 -3 3 -6z"/>
<path d="M10387 10803 c6 -4 13 -24 16 -43 4 -34 4 -33 3 4 -1 26 -6 41 -16
43 -10 3 -11 2 -3 -4z"/>
<path d="M10460 10806 c0 -2 9 -6 20 -9 11 -3 18 -1 14 4 -5 9 -34 13 -34 5z"/>
<path d="M10600 10795 c-26 -31 13 -82 44 -56 19 16 21 42 4 59 -16 16 -33 15
-48 -3z m45 -25 c0 -29 -32 -41 -41 -16 -9 24 4 48 23 44 12 -2 18 -12 18 -28z"/>
<path d="M10732 10798 c-22 -22 -7 -69 23 -68 5 0 2 5 -7 11 -10 5 -18 19 -18
29 0 10 8 24 18 29 9 6 12 11 7 11 -6 0 -16 -5 -23 -12z"/>
<path d="M10830 10806 c0 -2 9 -6 20 -9 11 -3 18 -1 14 4 -5 9 -34 13 -34 5z"/>
<path d="M10950 10795 c-15 -18 -10 -45 12 -59 12 -7 21 -7 28 0 8 8 4 10 -12
10 -18 -1 -23 4 -23 24 0 19 5 25 22 24 12 0 20 3 17 8 -8 13 -30 9 -44 -7z"/>
<path d="M11040 10806 c0 -2 9 -6 20 -9 11 -3 18 -1 14 4 -5 9 -34 13 -34 5z"/>
<path d="M11370 10795 c-15 -18 -10 -45 12 -59 12 -7 21 -7 28 0 8 8 4 10 -12
10 -18 -1 -23 4 -23 24 0 19 5 25 22 24 12 0 20 3 17 8 -8 13 -30 9 -44 -7z"/>
<path d="M11471 10804 c10 -3 17 -16 17 -30 0 -14 4 -30 9 -35 7 -7 8 3 4 28
-5 28 -11 38 -26 40 -13 1 -15 0 -4 -3z"/>
<path d="M11532 10798 c-22 -22 -7 -69 23 -68 5 0 2 5 -7 11 -10 5 -18 19 -18
29 0 10 8 24 18 29 9 6 12 11 7 11 -6 0 -16 -5 -23 -12z"/>
<path d="M11620 10795 c-26 -31 13 -82 44 -56 19 16 21 42 4 59 -16 16 -33 15
-48 -3z m45 -25 c0 -29 -32 -41 -41 -16 -9 24 4 48 23 44 12 -2 18 -12 18 -28z"/>
<path d="M12080 10795 c-15 -18 -10 -45 12 -59 12 -7 21 -7 28 0 8 8 4 10 -12
10 -18 -1 -23 4 -23 24 0 19 5 25 22 24 12 0 20 3 17 8 -8 13 -30 9 -44 -7z"/>
<path d="M12384 10799 c-3 -6 2 -18 12 -27 17 -16 17 -16 5 0 -7 9 -10 22 -6
28 3 5 4 10 1 10 -3 0 -8 -5 -12 -11z"/>
<path d="M12720 10795 c-15 -18 -10 -45 12 -59 12 -7 21 -7 28 0 8 8 4 10 -12
10 -18 -1 -23 4 -23 24 0 19 5 25 22 24 12 0 20 3 17 8 -8 13 -30 9 -44 -7z"/>
<path d="M12910 10795 c-15 -18 -10 -45 12 -59 12 -7 21 -7 28 0 8 8 4 10 -12
10 -18 -1 -23 4 -23 24 0 19 5 25 22 24 12 0 20 3 17 8 -8 13 -30 9 -44 -7z"/>
<path d="M12992 10798 c-22 -22 -7 -69 23 -68 5 0 2 5 -7 11 -10 5 -18 19 -18
29 0 10 8 24 18 29 9 6 12 11 7 11 -6 0 -16 -5 -23 -12z"/>
<path d="M13440 10795 c-15 -18 -10 -45 12 -59 12 -7 21 -7 28 0 8 8 4 10 -12
10 -18 -1 -23 4 -23 24 0 19 5 25 22 24 12 0 20 3 17 8 -8 13 -30 9 -44 -7z"/>
<path d="M13611 10804 c10 -3 17 -16 17 -30 0 -14 4 -30 9 -35 7 -7 8 3 4 28
-5 28 -11 38 -26 40 -13 1 -15 0 -4 -3z"/>
<path d="M13770 10795 c-15 -18 -10 -45 12 -59 12 -7 21 -7 28 0 8 8 4 10 -12
10 -18 -1 -23 4 -23 24 0 19 5 25 22 24 12 0 20 3 17 8 -8 13 -30 9 -44 -7z"/>
<path d="M14340 10795 c-15 -18 -10 -45 12 -59 12 -7 21 -7 28 0 8 8 4 10 -12
10 -18 -1 -23 4 -23 24 0 19 5 25 22 24 12 0 20 3 17 8 -8 13 -30 9 -44 -7z"/>
<path d="M14422 10798 c-22 -22 -7 -69 23 -68 5 0 2 5 -7 11 -10 5 -18 19 -18
29 0 10 8 24 18 29 9 6 12 11 7 11 -6 0 -16 -5 -23 -12z"/>
<path d="M14601 10792 c-1 -13 4 -32 9 -43 11 -19 44 -26 54 -10 3 4 -5 6 -18
4 -28 -6 -43 22 -24 45 8 10 9 13 1 9 -6 -4 -14 -1 -16 5 -3 7 -6 3 -6 -10z"/>
<path d="M14731 10804 c10 -3 17 -16 17 -30 0 -14 4 -30 9 -35 7 -7 8 3 4 28
-5 28 -11 38 -26 40 -13 1 -15 0 -4 -3z"/>
<path d="M12150 10789 c0 -5 5 -7 10 -4 6 3 10 8 10 11 0 2 -4 4 -10 4 -5 0
-10 -5 -10 -11z"/>
<path d="M12208 10773 c5 -21 7 -23 10 -9 2 10 0 22 -6 28 -6 6 -7 0 -4 -19z"/>
<path d="M12240 10789 c0 -5 5 -7 10 -4 6 3 10 8 10 11 0 2 -4 4 -10 4 -5 0
-10 -5 -10 -11z"/>
<path d="M12298 10773 c5 -21 7 -23 10 -9 2 10 0 22 -6 28 -6 6 -7 0 -4 -19z"/>
<path d="M12476 10790 c7 -8 14 -24 17 -35 4 -19 5 -19 6 1 0 12 -7 28 -16 35
-16 12 -17 12 -7 -1z"/>
<path d="M14052 10770 c0 -19 2 -27 5 -17 2 9 2 25 0 35 -3 9 -5 1 -5 -18z"/>
<path d="M14826 10790 c7 -8 14 -24 17 -35 4 -19 5 -19 6 1 0 12 -7 28 -16 35
-16 12 -17 12 -7 -1z"/>
<path d="M10441 10775 c-1 -25 17 -45 39 -44 10 0 9 3 -5 8 -11 4 -23 19 -26
32 -6 21 -7 21 -8 4z"/>
<path d="M10811 10775 c-1 -25 17 -45 39 -44 10 0 9 3 -5 8 -11 4 -23 19 -26
32 -6 21 -7 21 -8 4z"/>
<path d="M11021 10775 c-1 -25 17 -45 39 -44 10 0 9 3 -5 8 -11 4 -23 19 -26
32 -6 21 -7 21 -8 4z"/>
<path d="M1760 10680 l0 -100 -42 21 c-33 17 -55 20 -108 17 -84 -4 -135 -36
-175 -109 -24 -45 -27 -59 -23 -124 3 -63 8 -80 34 -117 62 -89 190 -122 277
-71 36 22 37 22 37 3 0 -17 7 -20 50 -20 l50 0 0 300 0 300 -50 0 -50 0 0
-100z m-41 -177 c61 -47 65 -141 6 -200 -28 -28 -40 -33 -80 -33 -81 0 -135
52 -135 130 0 105 124 166 209 103z"/>
<path d="M12008 10773 c6 -2 18 -2 25 0 6 3 1 5 -13 5 -14 0 -19 -2 -12 -5z"/>
<path d="M12798 10773 c6 -2 18 -2 25 0 6 3 1 5 -13 5 -14 0 -19 -2 -12 -5z"/>
<path d="M13168 10773 c6 -2 18 -2 25 0 6 3 1 5 -13 5 -14 0 -19 -2 -12 -5z"/>
<path d="M13518 10773 c6 -2 18 -2 25 0 6 3 1 5 -13 5 -14 0 -19 -2 -12 -5z"/>
<path d="M13871 10773 c-1 -6 -4 -20 -7 -30 -5 -17 -5 -17 6 0 6 10 9 23 6 30
-3 9 -5 9 -5 0z"/>
<path d="M13928 10773 c6 -2 18 -2 25 0 6 3 1 5 -13 5 -14 0 -19 -2 -12 -5z"/>
<path d="M14901 10773 c-1 -6 -4 -20 -7 -30 -5 -17 -5 -17 6 0 6 10 9 23 6 30
-3 9 -5 9 -5 0z"/>
<path d="M11445 10760 c-9 -15 4 -30 23 -29 15 1 14 2 -1 6 -11 3 -16 11 -13
19 6 16 0 19 -9 4z"/>
<path d="M12330 10764 c0 -26 51 -46 64 -25 4 5 -4 7 -15 4 -15 -4 -27 0 -35
12 -8 11 -14 14 -14 9z"/>
<path d="M13585 10760 c-9 -15 4 -30 23 -29 15 1 14 2 -1 6 -11 3 -16 11 -13
19 6 16 0 19 -9 4z"/>
<path d="M14705 10760 c-9 -15 4 -30 23 -29 15 1 14 2 -1 6 -11 3 -16 11 -13
19 6 16 0 19 -9 4z"/>
<path d="M11799 10748 c14 -19 46 -24 55 -9 4 5 -3 7 -14 4 -11 -3 -28 1 -38
8 -15 13 -16 12 -3 -3z"/>
<path d="M12162 10744 c9 -9 21 -15 27 -13 6 2 -2 10 -17 17 -25 11 -25 11
-10 -4z"/>
<path d="M12252 10744 c9 -9 21 -15 27 -13 6 2 -2 10 -17 17 -25 11 -25 11
-10 -4z"/>
<path d="M12442 10744 c9 -9 21 -15 27 -13 6 2 -2 10 -17 17 -25 11 -25 11
-10 -4z"/>
<path d="M14284 10749 c-3 -6 -15 -9 -25 -6 -11 3 -17 1 -13 -4 8 -14 30 -11
44 6 7 8 10 15 7 15 -3 0 -9 -5 -13 -11z"/>
<path d="M14792 10744 c9 -9 21 -15 27 -13 6 2 -2 10 -17 17 -25 11 -25 11
-10 -4z"/>
<path d="M10227 10739 c7 -7 15 -10 18 -7 3 3 -2 9 -12 12 -14 6 -15 5 -6 -5z"/>
<path d="M12655 10740 c-16 -7 -17 -9 -3 -9 9 -1 20 4 23 9 7 11 7 11 -20 0z"/>
<path d="M13705 10740 c-16 -7 -17 -9 -3 -9 9 -1 20 4 23 9 7 11 7 11 -20 0z"/>
<path d="M14545 10740 c-16 -7 -17 -9 -3 -9 9 -1 20 4 23 9 7 11 7 11 -20 0z"/>
<path d="M2085 10621 c-126 -33 -193 -147 -164 -282 23 -108 133 -180 252
-165 56 8 113 34 140 64 17 19 17 20 -18 41 l-36 21 -39 -20 c-47 -24 -100
-26 -140 -5 -33 17 -60 52 -60 77 0 17 14 18 165 18 l165 0 0 50 c0 75 -46
151 -111 185 -33 18 -115 26 -154 16z m138 -121 c15 -16 27 -35 27 -40 0 -6
-46 -10 -115 -10 -63 0 -115 3 -115 8 0 18 35 55 64 68 48 22 106 11 139 -26z"/>
<path d="M2543 10601 c-27 -17 -33 -18 -33 -6 0 11 -13 15 -55 15 l-55 0 2
-212 3 -213 53 -3 52 -3 0 149 c0 144 1 150 25 176 13 14 35 26 49 26 73 0 86
-32 86 -210 l0 -140 49 0 50 0 3 149 c3 142 4 151 27 175 34 36 82 35 110 0
19 -24 21 -40 21 -175 l0 -149 56 0 56 0 -4 168 c-5 186 -13 217 -71 252 -48
30 -134 27 -181 -5 -45 -30 -44 -30 -73 -3 -34 32 -126 37 -170 9z"/>
<path d="M960 10468 c0 -168 9 -206 55 -247 90 -79 251 -62 313 32 26 39 27
47 31 199 l3 158 -56 0 -56 0 0 -145 c0 -142 -1 -147 -25 -170 -33 -34 -93
-34 -132 -1 -28 24 -28 24 -31 170 l-4 146 -49 0 -49 0 0 -142z"/>
<path d="M3053 10598 c3 -7 41 -103 86 -213 89 -216 91 -230 44 -285 -17 -21
-34 -30 -54 -30 -28 0 -29 -2 -29 -45 l0 -45 43 0 c52 0 97 26 126 73 16 26
165 367 238 545 4 9 -9 12 -48 12 l-54 0 -59 -145 c-32 -80 -62 -147 -66 -150
-4 -2 -34 63 -66 145 l-59 150 -54 0 c-38 0 -52 -3 -48 -12z"/>
<path d="M9963 10510 c0 -25 2 -35 4 -22 2 12 2 32 0 45 -2 12 -4 2 -4 -23z"/>
<path d="M10189 10533 c0 -10 -1 -33 -2 -51 -1 -19 1 -36 5 -39 5 -2 8 21 8
51 0 31 -2 56 -5 56 -3 0 -5 -8 -6 -17z"/>
<path d="M10629 10535 c-7 -31 5 -88 19 -91 7 -1 8 0 2 3 -15 7 -13 63 3 63 8
0 9 3 1 8 -6 4 -13 14 -16 22 -3 11 -6 9 -9 -5z"/>
<path d="M10728 10533 c-2 -10 -1 -36 3 -58 l6 -40 2 38 c0 22 6 37 14 37 9 0
8 3 -2 9 -7 5 -10 14 -7 20 4 6 3 11 -2 11 -5 0 -11 -8 -14 -17z"/>
<path d="M11029 10533 c0 -10 -1 -33 -2 -51 -1 -19 1 -36 5 -39 5 -2 8 21 8
51 0 31 -2 56 -5 56 -3 0 -5 -8 -6 -17z"/>
<path d="M11339 10533 c0 -10 -1 -33 -2 -51 -1 -19 1 -36 5 -39 5 -2 8 21 8
51 0 31 -2 56 -5 56 -3 0 -5 -8 -6 -17z"/>
<path d="M11863 10510 c0 -25 2 -35 4 -22 2 12 2 32 0 45 -2 12 -4 2 -4 -23z"/>
<path d="M11900 10531 c-15 -29 -12 -56 8 -74 24 -22 46 -22 63 0 13 15 12 15
-9 2 -44 -27 -84 37 -47 75 9 9 12 16 6 16 -6 0 -15 -9 -21 -19z"/>
<path d="M11955 10540 c3 -5 11 -10 16 -10 6 0 7 5 4 10 -3 6 -11 10 -16 10
-6 0 -7 -4 -4 -10z"/>
<path d="M12173 10543 c9 -2 23 -2 30 0 6 3 -1 5 -18 5 -16 0 -22 -2 -12 -5z"/>
<path d="M12263 10543 c9 -2 23 -2 30 0 6 3 -1 5 -18 5 -16 0 -22 -2 -12 -5z"/>
<path d="M12487 10529 c4 -13 8 -18 11 -10 2 7 -1 18 -6 23 -8 8 -9 4 -5 -13z"/>
<path d="M12568 10515 c4 -30 1 -35 -17 -35 -14 0 -20 4 -15 12 4 7 3 8 -4 4
-20 -12 -13 -26 13 -26 17 0 25 -6 26 -17 0 -14 2 -15 6 -3 3 8 11 18 17 22 8
5 7 8 -1 8 -8 0 -13 14 -13 35 0 19 -4 35 -8 35 -4 0 -6 -16 -4 -35z"/>
<path d="M12620 10531 c-12 -24 -13 -51 0 -71 6 -10 8 -4 4 21 -4 26 -1 40 11
52 9 9 12 17 6 17 -6 0 -15 -9 -21 -19z"/>
<path d="M12667 10540 c6 -8 13 -28 16 -45 l4 -30 2 31 c0 20 -6 37 -16 45
-16 12 -16 12 -6 -1z"/>
<path d="M12858 10533 c-2 -10 -1 -36 3 -58 l6 -40 2 38 c0 22 6 37 14 37 9 0
8 3 -2 9 -7 5 -10 14 -7 20 4 6 3 11 -2 11 -5 0 -11 -8 -14 -17z"/>
<path d="M13039 10533 c0 -10 -1 -33 -2 -51 -1 -19 1 -36 5 -39 5 -2 8 21 8
51 0 31 -2 56 -5 56 -3 0 -5 -8 -6 -17z"/>
<path d="M13127 10529 c4 -14 -4 -31 -28 -55 l-33 -34 40 1 c35 1 36 2 11 8
l-29 6 26 24 c26 25 34 55 17 65 -5 4 -7 -3 -4 -15z"/>
<path d="M13278 10515 c4 -30 1 -35 -17 -35 -14 0 -20 4 -15 12 4 7 3 8 -4 4
-20 -12 -13 -26 13 -26 17 0 25 -6 26 -17 0 -14 2 -15 6 -3 3 8 11 18 17 22 8
5 7 8 -1 8 -8 0 -13 14 -13 35 0 19 -4 35 -8 35 -4 0 -6 -16 -4 -35z"/>
<path d="M13328 10533 c-2 -10 -1 -36 3 -58 l6 -40 2 38 c0 22 6 37 14 37 9 0
8 3 -2 9 -7 5 -10 14 -7 20 4 6 3 11 -2 11 -5 0 -11 -8 -14 -17z"/>
<path d="M13670 10531 c-12 -24 -13 -51 0 -71 6 -10 8 -4 4 21 -4 26 -1 40 11
52 9 9 12 17 6 17 -6 0 -15 -9 -21 -19z"/>
<path d="M13717 10540 c6 -8 13 -28 16 -45 l4 -30 2 31 c0 20 -6 37 -16 45
-16 12 -16 12 -6 -1z"/>
<path d="M13841 10533 c0 -11 3 -13 6 -5 2 6 16 12 29 12 17 0 23 -4 18 -12
-4 -7 -3 -8 4 -4 23 14 12 26 -23 26 -27 0 -35 -4 -34 -17z"/>
<path d="M14197 10529 c4 -14 -4 -31 -28 -55 l-33 -34 40 1 c35 1 36 2 11 8
l-29 6 26 24 c26 25 34 55 17 65 -5 4 -7 -3 -4 -15z"/>
<path d="M14235 10530 c-8 -24 10 -50 34 -49 11 0 9 3 -6 9 -25 10 -30 29 -11
48 9 9 9 12 1 12 -7 0 -15 -9 -18 -20z"/>
<path d="M14286 10537 c3 -10 9 -15 12 -12 3 3 0 11 -7 18 -10 9 -11 8 -5 -6z"/>
<path d="M14469 10533 c0 -10 -1 -33 -2 -51 -1 -19 1 -36 5 -39 5 -2 8 21 8
51 0 31 -2 56 -5 56 -3 0 -5 -8 -6 -17z"/>
<path d="M14510 10531 c-12 -24 -13 -51 0 -71 6 -10 8 -4 4 21 -4 26 -1 40 11
52 9 9 12 17 6 17 -6 0 -15 -9 -21 -19z"/>
<path d="M14557 10540 c6 -8 13 -28 16 -45 l4 -30 2 31 c0 20 -6 37 -16 45
-16 12 -16 12 -6 -1z"/>
<path d="M14837 10529 c4 -13 8 -18 11 -10 2 7 -1 18 -6 23 -8 8 -9 4 -5 -13z"/>
<path d="M14871 10533 c0 -11 3 -13 6 -5 2 6 16 12 29 12 17 0 23 -4 18 -12
-4 -7 -3 -8 4 -4 23 14 12 26 -23 26 -27 0 -35 -4 -34 -17z"/>
<path d="M15017 10529 c4 -14 -4 -31 -28 -55 l-33 -34 40 1 c35 1 36 2 11 8
l-29 6 26 24 c26 25 34 55 17 65 -5 4 -7 -3 -4 -15z"/>
<path d="M13380 10530 c-13 -8 -12 -10 3 -10 9 0 17 5 17 10 0 12 -1 12 -20 0z"/>
<path d="M14090 10530 c-13 -8 -12 -10 3 -10 9 0 17 5 17 10 0 12 -1 12 -20 0z"/>
<path d="M10142 10508 c-22 -22 -7 -69 23 -68 5 0 2 5 -7 11 -10 5 -18 19 -18
29 0 10 8 24 18 29 9 6 12 11 7 11 -6 0 -16 -5 -23 -12z"/>
<path d="M10240 10516 c0 -2 9 -6 20 -9 11 -3 18 -1 14 4 -5 9 -34 13 -34 5z"/>
<path d="M10400 10505 c-15 -18 -10 -45 12 -59 12 -7 21 -7 28 0 8 8 4 10 -12
10 -18 -1 -23 4 -23 24 0 19 5 25 22 24 12 0 20 3 17 8 -8 13 -30 9 -44 -7z"/>
<path d="M10490 10516 c0 -2 9 -6 20 -9 11 -3 18 -1 14 4 -5 9 -34 13 -34 5z"/>
<path d="M10820 10505 c-15 -18 -10 -45 12 -59 12 -7 21 -7 28 0 8 8 4 10 -12
10 -18 -1 -23 4 -23 24 0 19 5 25 22 24 12 0 20 3 17 8 -8 13 -30 9 -44 -7z"/>
<path d="M10921 10514 c10 -3 17 -16 17 -30 0 -14 4 -30 9 -35 7 -7 8 3 4 28
-5 28 -11 38 -26 40 -13 1 -15 0 -4 -3z"/>
<path d="M10982 10508 c-22 -22 -7 -69 23 -68 5 0 2 5 -7 11 -10 5 -18 19 -18
29 0 10 8 24 18 29 9 6 12 11 7 11 -6 0 -16 -5 -23 -12z"/>
<path d="M11070 10505 c-26 -31 13 -82 44 -56 19 16 21 42 4 59 -16 16 -33 15
-48 -3z m45 -25 c0 -29 -32 -41 -41 -16 -9 24 4 48 23 44 12 -2 18 -12 18 -28z"/>
<path d="M11192 10495 c0 -16 2 -22 5 -12 2 9 2 23 0 30 -3 6 -5 -1 -5 -18z"/>
<path d="M11292 10508 c-22 -22 -7 -69 23 -68 5 0 2 5 -7 11 -10 5 -18 19 -18
29 0 10 8 24 18 29 9 6 12 11 7 11 -6 0 -16 -5 -23 -12z"/>
<path d="M11390 10516 c0 -2 9 -6 20 -9 11 -3 18 -1 14 4 -5 9 -34 13 -34 5z"/>
<path d="M11538 10513 c6 -2 12 -12 12 -21 0 -15 2 -15 10 -2 9 15 -4 30 -25
29 -5 0 -4 -3 3 -6z"/>
<path d="M11587 10513 c6 -4 13 -24 16 -43 4 -34 4 -33 3 4 -1 26 -6 41 -16
43 -10 3 -11 2 -3 -4z"/>
<path d="M12080 10505 c-15 -18 -10 -45 12 -59 12 -7 21 -7 28 0 8 8 4 10 -12
10 -18 -1 -23 4 -23 24 0 19 5 25 22 24 12 0 20 3 17 8 -8 13 -30 9 -44 -7z"/>
<path d="M12384 10509 c-3 -6 2 -18 12 -27 17 -16 17 -16 5 0 -7 9 -10 22 -6
28 3 5 4 10 1 10 -3 0 -8 -5 -12 -11z"/>
<path d="M12720 10505 c-15 -18 -10 -45 12 -59 12 -7 21 -7 28 0 8 8 4 10 -12
10 -18 -1 -23 4 -23 24 0 19 5 25 22 24 12 0 20 3 17 8 -8 13 -30 9 -44 -7z"/>
<path d="M12910 10505 c-15 -18 -10 -45 12 -59 12 -7 21 -7 28 0 8 8 4 10 -12
10 -18 -1 -23 4 -23 24 0 19 5 25 22 24 12 0 20 3 17 8 -8 13 -30 9 -44 -7z"/>
<path d="M12992 10508 c-22 -22 -7 -69 23 -68 5 0 2 5 -7 11 -10 5 -18 19 -18
29 0 10 8 24 18 29 9 6 12 11 7 11 -6 0 -16 -5 -23 -12z"/>
<path d="M13440 10505 c-15 -18 -10 -45 12 -59 12 -7 21 -7 28 0 8 8 4 10 -12
10 -18 -1 -23 4 -23 24 0 19 5 25 22 24 12 0 20 3 17 8 -8 13 -30 9 -44 -7z"/>
<path d="M13611 10514 c10 -3 17 -16 17 -30 0 -14 4 -30 9 -35 7 -7 8 3 4 28
-5 28 -11 38 -26 40 -13 1 -15 0 -4 -3z"/>
<path d="M13770 10505 c-15 -18 -10 -45 12 -59 12 -7 21 -7 28 0 8 8 4 10 -12
10 -18 -1 -23 4 -23 24 0 19 5 25 22 24 12 0 20 3 17 8 -8 13 -30 9 -44 -7z"/>
<path d="M14340 10505 c-15 -18 -10 -45 12 -59 12 -7 21 -7 28 0 8 8 4 10 -12
10 -18 -1 -23 4 -23 24 0 19 5 25 22 24 12 0 20 3 17 8 -8 13 -30 9 -44 -7z"/>
<path d="M14422 10508 c-22 -22 -7 -69 23 -68 5 0 2 5 -7 11 -10 5 -18 19 -18
29 0 10 8 24 18 29 9 6 12 11 7 11 -6 0 -16 -5 -23 -12z"/>
<path d="M14601 10502 c-1 -13 4 -32 9 -43 11 -19 44 -26 54 -10 3 4 -5 6 -18
4 -28 -6 -43 22 -24 45 8 10 9 13 1 9 -6 -4 -14 -1 -16 5 -3 7 -6 3 -6 -10z"/>
<path d="M14731 10514 c10 -3 17 -16 17 -30 0 -14 4 -30 9 -35 7 -7 8 3 4 28
-5 28 -11 38 -26 40 -13 1 -15 0 -4 -3z"/>
<path d="M12150 10499 c0 -5 5 -7 10 -4 6 3 10 8 10 11 0 2 -4 4 -10 4 -5 0
-10 -5 -10 -11z"/>
<path d="M12208 10483 c5 -21 7 -23 10 -9 2 10 0 22 -6 28 -6 6 -7 0 -4 -19z"/>
<path d="M12240 10499 c0 -5 5 -7 10 -4 6 3 10 8 10 11 0 2 -4 4 -10 4 -5 0
-10 -5 -10 -11z"/>
<path d="M12298 10483 c5 -21 7 -23 10 -9 2 10 0 22 -6 28 -6 6 -7 0 -4 -19z"/>
<path d="M12476 10500 c7 -8 14 -24 17 -35 4 -19 5 -19 6 1 0 12 -7 28 -16 35
-16 12 -17 12 -7 -1z"/>
<path d="M14052 10480 c0 -19 2 -27 5 -17 2 9 2 25 0 35 -3 9 -5 1 -5 -18z"/>
<path d="M14826 10500 c7 -8 14 -24 17 -35 4 -19 5 -19 6 1 0 12 -7 28 -16 35
-16 12 -17 12 -7 -1z"/>
<path d="M10221 10485 c-1 -25 17 -45 39 -44 10 0 9 3 -5 8 -11 4 -23 19 -26
32 -6 21 -7 21 -8 4z"/>
<path d="M10471 10485 c-1 -25 17 -45 39 -44 10 0 9 3 -5 8 -11 4 -23 19 -26
32 -6 21 -7 21 -8 4z"/>
<path d="M11371 10485 c-1 -25 17 -45 39 -44 10 0 9 3 -5 8 -11 4 -23 19 -26
32 -6 21 -7 21 -8 4z"/>
<path d="M12008 10483 c6 -2 18 -2 25 0 6 3 1 5 -13 5 -14 0 -19 -2 -12 -5z"/>
<path d="M12798 10483 c6 -2 18 -2 25 0 6 3 1 5 -13 5 -14 0 -19 -2 -12 -5z"/>
<path d="M13168 10483 c6 -2 18 -2 25 0 6 3 1 5 -13 5 -14 0 -19 -2 -12 -5z"/>
<path d="M13518 10483 c6 -2 18 -2 25 0 6 3 1 5 -13 5 -14 0 -19 -2 -12 -5z"/>
<path d="M13871 10483 c-1 -6 -4 -20 -7 -30 -5 -17 -5 -17 6 0 6 10 9 23 6 30
-3 9 -5 9 -5 0z"/>
<path d="M13928 10483 c6 -2 18 -2 25 0 6 3 1 5 -13 5 -14 0 -19 -2 -12 -5z"/>
<path d="M14901 10483 c-1 -6 -4 -20 -7 -30 -5 -17 -5 -17 6 0 6 10 9 23 6 30
-3 9 -5 9 -5 0z"/>
<path d="M10895 10470 c-9 -15 4 -30 23 -29 15 1 14 2 -1 6 -11 3 -16 11 -13
19 6 16 0 19 -9 4z"/>
<path d="M12330 10474 c0 -26 51 -46 64 -25 4 5 -4 7 -15 4 -15 -4 -27 0 -35
12 -8 11 -14 14 -14 9z"/>
<path d="M13585 10470 c-9 -15 4 -30 23 -29 15 1 14 2 -1 6 -11 3 -16 11 -13
19 6 16 0 19 -9 4z"/>
<path d="M14705 10470 c-9 -15 4 -30 23 -29 15 1 14 2 -1 6 -11 3 -16 11 -13
19 6 16 0 19 -9 4z"/>
<path d="M9899 10458 c14 -19 46 -24 55 -9 4 5 -3 7 -14 4 -11 -3 -28 1 -38 8
-15 13 -16 12 -3 -3z"/>
<path d="M11799 10458 c14 -19 46 -24 55 -9 4 5 -3 7 -14 4 -11 -3 -28 1 -38
8 -15 13 -16 12 -3 -3z"/>
<path d="M12162 10454 c9 -9 21 -15 27 -13 6 2 -2 10 -17 17 -25 11 -25 11
-10 -4z"/>
<path d="M12252 10454 c9 -9 21 -15 27 -13 6 2 -2 10 -17 17 -25 11 -25 11
-10 -4z"/>
<path d="M12442 10454 c9 -9 21 -15 27 -13 6 2 -2 10 -17 17 -25 11 -25 11
-10 -4z"/>
<path d="M14284 10459 c-3 -6 -15 -9 -25 -6 -11 3 -17 1 -13 -4 8 -14 30 -11
44 6 7 8 10 15 7 15 -3 0 -9 -5 -13 -11z"/>
<path d="M14792 10454 c9 -9 21 -15 27 -13 6 2 -2 10 -17 17 -25 11 -25 11
-10 -4z"/>
<path d="M11207 10449 c7 -7 15 -10 18 -7 3 3 -2 9 -12 12 -14 6 -15 5 -6 -5z"/>
<path d="M11650 10441 c0 -11 -5 -22 -10 -24 -6 -3 -5 -4 1 -3 15 3 32 46 19
46 -6 0 -10 -9 -10 -19z"/>
<path d="M12655 10450 c-16 -7 -17 -9 -3 -9 9 -1 20 4 23 9 7 11 7 11 -20 0z"/>
<path d="M13705 10450 c-16 -7 -17 -9 -3 -9 9 -1 20 4 23 9 7 11 7 11 -20 0z"/>
<path d="M14545 10450 c-16 -7 -17 -9 -3 -9 9 -1 20 4 23 9 7 11 7 11 -20 0z"/>
<path d="M13010 10195 c0 -32 2 -56 4 -54 8 7 10 98 3 105 -4 4 -7 -19 -7 -51z"/>
<path d="M13081 10211 c-1 -39 -3 -42 -18 -30 -13 11 -13 8 3 -16 l19 -29 3
32 c2 18 1 45 -1 60 -3 18 -4 13 -6 -17z"/>
<path d="M13689 10233 c0 -10 -1 -33 -2 -51 -1 -19 1 -36 5 -39 5 -2 8 21 8
51 0 31 -2 56 -5 56 -3 0 -5 -8 -6 -17z"/>
<path d="M14008 10233 c-2 -10 -1 -36 3 -58 l6 -40 2 38 c0 22 6 37 14 37 9 0
8 3 -2 9 -7 5 -10 14 -7 20 4 6 3 11 -2 11 -5 0 -11 -8 -14 -17z"/>
<path d="M14670 10231 c-12 -24 -13 -51 0 -71 6 -10 8 -4 4 21 -4 26 -1 40 11
52 9 9 12 17 6 17 -6 0 -15 -9 -21 -19z"/>
<path d="M14717 10240 c6 -8 13 -28 16 -45 l4 -30 2 31 c0 20 -6 37 -16 45
-16 12 -16 12 -6 -1z"/>
<path d="M14770 10231 c-12 -24 -13 -51 0 -71 6 -10 8 -4 4 21 -4 26 -1 40 11
52 9 9 12 17 6 17 -6 0 -15 -9 -21 -19z"/>
<path d="M14817 10240 c6 -8 13 -28 16 -45 l4 -30 2 31 c0 20 -6 37 -16 45
-16 12 -16 12 -6 -1z"/>
<path d="M14870 10231 c-12 -24 -13 -51 0 -71 6 -10 8 -4 4 21 -4 26 -1 40 11
52 9 9 12 17 6 17 -6 0 -15 -9 -21 -19z"/>
<path d="M14917 10240 c6 -8 13 -28 16 -45 l4 -30 2 31 c0 20 -6 37 -16 45
-16 12 -16 12 -6 -1z"/>
<path d="M15008 10215 c4 -30 1 -35 -17 -35 -14 0 -20 4 -15 12 4 7 3 8 -4 4
-20 -12 -13 -26 13 -26 17 0 25 -6 26 -17 0 -14 2 -15 6 -3 3 8 11 18 17 22 8
5 7 8 -1 8 -8 0 -13 14 -13 35 0 19 -4 35 -8 35 -4 0 -6 -16 -4 -35z"/>
<path d="M13122 10195 c0 -16 2 -22 5 -12 2 9 2 23 0 30 -3 6 -5 -1 -5 -18z"/>
<path d="M13248 10213 c6 -2 12 -12 12 -21 0 -15 2 -15 10 -2 9 15 -4 30 -25
29 -5 0 -4 -3 3 -6z"/>
<path d="M13297 10213 c6 -4 13 -24 16 -43 4 -34 4 -33 3 4 -1 26 -6 41 -16
43 -10 3 -11 2 -3 -4z"/>
<path d="M13370 10216 c0 -2 9 -6 20 -9 11 -3 18 -1 14 4 -5 9 -34 13 -34 5z"/>
<path d="M13510 10205 c-26 -31 13 -82 44 -56 19 16 21 42 4 59 -16 16 -33 15
-48 -3z m45 -25 c0 -16 -6 -26 -18 -28 -19 -4 -32 20 -23 44 9 25 41 13 41
-16z"/>
<path d="M13642 10208 c-22 -22 -7 -69 23 -68 5 0 2 5 -7 11 -10 5 -18 19 -18
29 0 10 8 24 18 29 9 6 12 11 7 11 -6 0 -16 -5 -23 -12z"/>
<path d="M13740 10216 c0 -2 9 -6 20 -9 11 -3 18 -1 14 4 -5 9 -34 13 -34 5z"/>
<path d="M13930 10216 c0 -2 9 -6 20 -9 11 -3 18 -1 14 4 -5 9 -34 13 -34 5z"/>
<path d="M14070 10216 c0 -2 9 -6 20 -9 11 -3 18 -1 14 4 -5 9 -34 13 -34 5z"/>
<path d="M14220 10216 c0 -2 9 -6 20 -9 11 -3 18 -1 14 4 -5 9 -34 13 -34 5z"/>
<path d="M14320 10216 c0 -2 7 -7 16 -10 8 -3 12 -2 9 4 -6 10 -25 14 -25 6z"/>
<path d="M14390 10205 c-15 -18 -10 -45 12 -59 12 -7 21 -7 28 0 8 8 4 10 -12
10 -18 -1 -23 4 -23 24 0 19 5 25 22 24 12 0 20 3 17 8 -8 13 -30 9 -44 -7z"/>
<path d="M14531 10214 c10 -3 17 -16 17 -30 0 -14 4 -30 9 -35 7 -7 8 3 4 28
-5 28 -11 38 -26 40 -13 1 -15 0 -4 -3z"/>
<path d="M13351 10185 c-1 -25 17 -45 39 -44 10 0 9 3 -5 8 -11 4 -23 19 -26
32 -6 21 -7 21 -8 4z"/>
<path d="M13721 10185 c-1 -25 17 -45 39 -44 10 0 9 3 -5 8 -11 4 -23 19 -26
32 -6 21 -7 21 -8 4z"/>
<path d="M13911 10185 c-1 -25 17 -45 39 -44 10 0 9 3 -5 8 -11 4 -23 19 -26
32 -6 21 -7 21 -8 4z"/>
<path d="M14051 10185 c-1 -25 17 -45 39 -44 10 0 9 3 -5 8 -11 4 -23 19 -26
32 -6 21 -7 21 -8 4z"/>
<path d="M14201 10185 c-1 -25 17 -45 39 -44 10 0 9 3 -5 8 -11 4 -23 19 -26
32 -6 21 -7 21 -8 4z"/>
<path d="M14505 10170 c-9 -15 4 -30 23 -29 15 1 14 2 -1 6 -11 3 -16 11 -13
19 6 16 0 19 -9 4z"/>
<path d="M13137 10149 c7 -7 15 -10 18 -7 3 3 -2 9 -12 12 -14 6 -15 5 -6 -5z"/>
<path d="M14805 10150 c-16 -7 -17 -9 -3 -9 9 -1 20 4 23 9 7 11 7 11 -20 0z"/>
<path d="M14905 10150 c-16 -7 -17 -9 -3 -9 9 -1 20 4 23 9 7 11 7 11 -20 0z"/>
<path d="M5087 8843 c-12 -11 -8 -23 7 -23 8 0 16 7 20 15 5 15 -14 21 -27 8z"/>
<path d="M1000 8780 c-27 -27 -35 -65 -20 -101 14 -33 37 -49 72 -49 34 0 66
25 52 40 -8 8 -14 9 -18 1 -4 -6 -21 -11 -37 -11 -22 0 -32 6 -39 26 -22 57
20 110 64 81 32 -21 56 -5 25 17 -32 22 -75 20 -99 -4z"/>
<path d="M1180 8715 l0 -85 60 0 c47 0 60 3 60 15 0 11 -12 15 -45 15 -38 0
-45 3 -45 20 0 17 7 20 40 20 29 0 40 4 40 15 0 11 -11 15 -40 15 -33 0 -40 3
-40 20 0 17 7 20 40 20 29 0 40 4 40 15 0 12 -13 15 -55 15 l-55 0 0 -85z"/>
<path d="M1360 8716 c0 -68 3 -86 14 -86 9 0 16 12 18 32 4 44 24 46 49 4 13
-22 29 -36 41 -36 19 0 19 1 -2 31 -20 28 -21 31 -6 48 18 19 20 48 7 70 -5 8
-32 16 -65 19 l-56 4 0 -86z m95 29 c0 -15 -8 -21 -32 -23 -30 -3 -33 -1 -33
23 0 24 3 26 33 23 24 -2 32 -8 32 -23z"/>
<path d="M1540 8786 c0 -8 10 -16 23 -18 20 -3 22 -9 25 -70 2 -52 6 -68 17
-68 12 0 15 15 15 70 0 63 2 70 20 70 11 0 20 7 20 15 0 12 -13 15 -60 15 -45
0 -60 -3 -60 -14z"/>
<path d="M1720 8715 c0 -69 3 -85 15 -85 12 0 15 16 15 85 0 69 -3 85 -15 85
-12 0 -15 -16 -15 -85z"/>
<path d="M1810 8715 c0 -69 3 -85 15 -85 10 0 15 11 15 35 0 33 2 35 35 35 24
0 35 5 35 15 0 10 -11 15 -35 15 -28 0 -35 4 -35 20 0 17 7 20 40 20 29 0 40
4 40 15 0 12 -13 15 -55 15 l-55 0 0 -85z"/>
<path d="M1980 8715 c0 -69 3 -85 15 -85 12 0 15 16 15 85 0 69 -3 85 -15 85
-12 0 -15 -16 -15 -85z"/>
<path d="M2100 8780 c-27 -27 -35 -65 -20 -101 14 -33 37 -49 72 -49 34 0 66
25 52 40 -8 8 -14 9 -18 1 -4 -6 -21 -11 -37 -11 -22 0 -32 6 -39 26 -22 57
20 110 64 81 32 -21 56 -5 25 17 -32 22 -75 20 -99 -4z"/>
<path d="M2296 8723 c-14 -43 -26 -81 -26 -86 0 -16 28 -6 33 13 4 15 14 20
37 20 23 0 33 -5 37 -20 3 -11 13 -20 23 -20 17 0 17 6 -9 83 -22 64 -32 83
-48 85 -18 3 -25 -8 -47 -75z m58 15 c10 -38 7 -48 -14 -48 -11 0 -20 6 -20
13 0 23 12 57 20 57 4 0 10 -10 14 -22z"/>
<path d="M2470 8714 l0 -87 52 5 c63 6 88 32 88 88 0 51 -35 80 -96 80 l-44 0
0 -86z m94 40 c35 -34 9 -94 -40 -94 -22 0 -24 3 -24 55 0 52 2 55 24 55 14 0
32 -7 40 -16z"/>
<path d="M2700 8780 c-27 -27 -35 -65 -20 -101 34 -82 150 -54 150 36 0 70
-83 112 -130 65z m78 -16 c43 -30 22 -104 -29 -104 -23 0 -32 6 -39 26 -12 31
-3 71 19 84 21 13 23 12 49 -6z"/>
<path d="M2970 8714 l0 -87 52 5 c63 6 88 32 88 88 0 51 -35 80 -96 80 l-44 0
0 -86z m94 40 c35 -34 9 -94 -40 -94 -22 0 -24 3 -24 55 0 52 2 55 24 55 14 0
32 -7 40 -16z"/>
<path d="M3170 8715 l0 -85 60 0 c47 0 60 3 60 15 0 11 -12 15 -45 15 -38 0
-45 3 -45 20 0 17 7 20 40 20 29 0 40 4 40 15 0 11 -11 15 -40 15 -33 0 -40 3
-40 20 0 17 7 20 40 20 29 0 40 4 40 15 0 12 -13 15 -55 15 l-55 0 0 -85z"/>
<path d="M3430 8715 c0 -69 3 -85 15 -85 10 0 15 11 15 35 0 33 2 35 35 35 24
0 35 5 35 15 0 10 -11 15 -35 15 -28 0 -35 4 -35 20 0 17 7 20 40 20 29 0 40
4 40 15 0 12 -13 15 -55 15 l-55 0 0 -85z"/>
<path d="M3600 8715 c0 -69 3 -85 15 -85 12 0 15 16 15 85 0 69 -3 85 -15 85
-12 0 -15 -16 -15 -85z"/>
<path d="M3700 8715 c0 -68 3 -85 15 -85 10 0 15 15 17 58 l3 57 35 -57 c21
-36 42 -58 52 -58 16 0 18 10 18 85 0 68 -3 85 -15 85 -10 0 -15 -15 -17 -57
l-3 -58 -35 57 c-21 34 -42 58 -52 58 -16 0 -18 -11 -18 -85z"/>
<path d="M3926 8723 c-14 -43 -26 -81 -26 -86 0 -16 28 -6 33 13 4 15 14 20
37 20 23 0 33 -5 37 -20 3 -11 13 -20 23 -20 17 0 17 6 -9 83 -22 64 -32 83
-48 85 -18 3 -25 -8 -47 -75z m58 15 c10 -38 7 -48 -14 -48 -11 0 -20 6 -20
13 0 23 12 57 20 57 4 0 10 -10 14 -22z"/>
<path d="M4100 8715 l0 -85 50 0 c38 0 50 4 50 15 0 10 -11 15 -35 15 l-35 0
0 70 c0 56 -3 70 -15 70 -12 0 -15 -16 -15 -85z"/>
<path d="M4260 8715 c0 -69 3 -85 15 -85 12 0 15 16 15 85 0 69 -3 85 -15 85
-12 0 -15 -16 -15 -85z"/>
<path d="M4340 8786 c0 -10 13 -16 41 -18 l40 -3 -40 -54 c-56 -75 -54 -81 24
-81 51 0 65 3 65 15 0 11 -11 15 -40 15 -22 0 -40 3 -40 6 0 4 16 28 35 54 51
70 48 80 -25 80 -46 0 -60 -3 -60 -14z"/>
<path d="M4546 8723 c-14 -43 -26 -81 -26 -86 0 -16 28 -6 33 13 4 15 14 20
37 20 23 0 33 -5 37 -20 3 -11 13 -20 23 -20 17 0 17 6 -9 83 -22 64 -32 83
-48 85 -18 3 -25 -8 -47 -75z m58 15 c10 -38 7 -48 -14 -48 -11 0 -20 6 -20
13 0 23 12 57 20 57 4 0 10 -10 14 -22z"/>
<path d="M4740 8780 c-27 -27 -35 -65 -20 -101 14 -33 37 -49 72 -49 34 0 66
25 52 40 -8 8 -14 9 -18 1 -4 -6 -21 -11 -37 -11 -22 0 -32 6 -39 26 -22 57
20 110 64 81 32 -21 56 -5 25 17 -32 22 -75 20 -99 -4z"/>
<path d="M4920 8715 c0 -69 3 -85 15 -85 12 0 15 16 15 85 0 69 -3 85 -15 85
-12 0 -15 -16 -15 -85z"/>
<path d="M5040 8780 c-27 -27 -35 -65 -20 -101 34 -82 150 -54 150 36 0 70
-83 112 -130 65z m78 -16 c43 -30 22 -104 -29 -104 -23 0 -32 6 -39 26 -12 31
-3 71 19 84 21 13 23 12 49 -6z"/>
<path d="M5230 8715 c0 -68 3 -85 15 -85 10 0 15 15 17 58 l3 57 35 -57 c21
-36 42 -58 52 -58 16 0 18 10 18 85 0 68 -3 85 -15 85 -10 0 -15 -15 -17 -57
l-3 -58 -35 57 c-21 34 -42 58 -52 58 -16 0 -18 -11 -18 -85z"/>
<path d="M7560 8174 c-109 -35 -109 -35 -79 -46 15 -5 30 -19 33 -31 10 -36 7
-544 -3 -570 -5 -13 -20 -28 -33 -33 -28 -9 74 -17 179 -12 68 3 68 3 38 18
l-30 15 -3 343 c-2 264 -5 342 -15 341 -6 -1 -46 -12 -87 -25z"/>
<path d="M10440 8174 c-109 -35 -109 -35 -79 -46 15 -5 30 -19 33 -31 10 -36
7 -544 -3 -570 -5 -13 -20 -28 -33 -33 -28 -9 74 -17 179 -12 68 3 68 3 38 18
l-30 15 -3 343 c-2 264 -5 342 -15 341 -6 -1 -46 -12 -87 -25z"/>
<path d="M1293 8127 l-42 -21 -97 -250 c-100 -258 -138 -346 -152 -346 -5 0
-17 -7 -28 -15 -17 -13 -8 -14 94 -15 73 0 111 4 107 10 -3 6 -15 10 -25 10
-36 0 -53 29 -47 84 2 28 9 63 15 79 l12 27 114 0 114 0 26 -65 c33 -84 34
-113 1 -125 -14 -5 -25 -12 -25 -15 0 -3 65 -5 145 -5 80 0 145 4 145 9 0 5
-9 11 -19 14 -10 2 -26 15 -35 29 -8 13 -68 158 -132 321 -64 163 -120 296
-123 295 -3 0 -25 -10 -48 -21z m1 -271 c25 -65 46 -120 46 -122 0 -2 -43 -4
-96 -4 -87 0 -96 2 -90 18 36 97 90 232 92 230 1 -2 23 -56 48 -122z"/>
<path d="M5053 8127 l-42 -21 -97 -250 c-100 -258 -138 -346 -152 -346 -5 0
-17 -7 -28 -15 -17 -13 -8 -14 94 -15 73 0 111 4 107 10 -3 6 -15 10 -25 10
-36 0 -53 29 -47 84 2 28 9 63 15 79 l12 27 114 0 114 0 26 -65 c33 -84 34
-113 1 -125 -14 -5 -25 -12 -25 -15 0 -3 65 -5 145 -5 80 0 145 4 145 9 0 5
-9 11 -19 14 -10 2 -26 15 -35 29 -8 13 -68 158 -132 321 -64 163 -120 296
-123 295 -3 0 -25 -10 -48 -21z m1 -271 c25 -65 46 -120 46 -122 0 -2 -43 -4
-96 -4 -87 0 -96 2 -90 18 36 97 90 232 92 230 1 -2 23 -56 48 -122z"/>
<path d="M6367 8125 c-61 -20 -123 -81 -133 -129 -18 -96 38 -172 178 -242 48
-24 103 -58 122 -75 31 -26 36 -37 36 -73 0 -119 -181 -143 -260 -34 -15 21
-36 65 -46 98 -10 33 -21 60 -26 60 -4 0 -8 -49 -8 -108 l0 -108 49 -18 c75
-27 186 -32 254 -12 112 33 185 137 158 227 -20 65 -71 112 -191 174 -60 30
-118 67 -129 81 -59 75 17 162 117 135 59 -16 87 -43 118 -116 16 -36 32 -65
36 -65 5 0 8 42 8 93 l0 94 -42 13 c-68 20 -186 22 -241 5z"/>
<path d="M5290 8111 c0 -5 11 -12 25 -15 13 -3 30 -16 37 -29 6 -12 48 -148
93 -302 l82 -280 65 -3 66 -3 42 178 c23 98 45 181 49 186 6 6 30 -71 103
-330 9 -33 9 -33 73 -33 52 0 65 3 69 18 3 9 32 127 65 263 33 135 67 262 77
282 11 22 31 43 53 54 l36 18 -57 3 c-32 2 -84 2 -115 0 -57 -3 -58 -3 -28
-16 37 -17 45 -28 45 -71 0 -36 -78 -381 -89 -393 -3 -4 -35 103 -70 237 l-64
245 -84 0 c-45 0 -83 -3 -83 -7 0 -5 11 -44 24 -87 l23 -80 -32 -130 c-18 -72
-36 -144 -40 -161 -7 -28 -8 -29 -15 -9 -5 12 -32 112 -60 223 -43 163 -50
204 -40 216 7 8 19 15 26 15 8 0 14 5 14 10 0 6 -55 10 -145 10 -80 0 -145 -4
-145 -9z"/>
<path d="M11253 8057 c-47 -40 -62 -58 -62 -79 -1 -26 -4 -28 -41 -28 -33 0
-40 -3 -40 -19 0 -16 8 -20 38 -23 l37 -3 5 -188 5 -189 33 -29 c24 -22 42
-29 73 -29 50 0 103 24 129 58 28 35 25 43 -12 25 -28 -14 -35 -14 -57 -2
l-26 15 -3 172 -2 172 55 0 c48 0 55 2 55 20 0 18 -7 20 -55 20 l-55 0 0 80
c0 44 -3 80 -7 79 -5 0 -36 -23 -70 -52z"/>
<path d="M1763 7929 c-90 -29 -118 -49 -69 -49 13 0 27 -7 30 -16 10 -27 7
-324 -4 -345 -6 -10 -17 -19 -25 -19 -7 0 -17 -4 -20 -10 -4 -6 39 -10 121
-10 l127 0 -27 25 -26 25 2 162 3 163 38 9 c34 9 40 7 65 -17 25 -26 27 -33
30 -137 5 -141 -3 -201 -29 -207 -51 -14 -7 -23 108 -23 125 0 134 2 91 24
-22 11 -23 18 -28 171 -5 147 -3 161 14 178 26 24 63 21 91 -8 24 -23 25 -28
25 -169 0 -151 -4 -176 -25 -176 -8 0 -17 -4 -20 -10 -4 -6 38 -10 119 -10 71
0 126 4 126 9 0 5 -10 11 -22 13 -31 4 -36 30 -37 201 -1 168 -11 205 -63 237
-61 37 -141 20 -193 -41 -19 -23 -30 -30 -33 -20 -2 7 -17 28 -32 45 -26 28
-34 31 -89 31 -56 0 -62 -2 -101 -40 l-40 -39 0 42 c0 23 -3 42 -7 41 -5 0
-50 -14 -100 -30z"/>
<path d="M2634 7937 c-52 -25 -97 -73 -107 -114 -5 -22 -2 -23 54 -23 l59 0 0
31 c0 32 15 69 34 81 6 4 25 8 43 8 43 0 63 -30 63 -97 0 -45 -3 -53 -22 -59
-57 -17 -188 -88 -214 -115 -49 -51 -30 -130 41 -163 61 -29 112 -19 167 32
15 14 29 24 30 21 2 -2 8 -13 14 -24 28 -51 108 -56 164 -9 31 27 32 51 1 35
-40 -22 -46 -1 -46 167 0 134 -3 162 -18 185 -29 44 -62 60 -140 64 -61 3 -80
0 -123 -20z m144 -284 c-3 -84 -4 -88 -30 -100 -38 -19 -75 -2 -94 42 -20 49
-3 82 61 117 28 15 54 28 58 28 4 0 6 -39 5 -87z"/>
<path d="M3621 7946 c-84 -30 -161 -136 -161 -222 0 -97 53 -189 132 -230 43
-22 129 -29 182 -14 94 26 176 133 176 231 0 172 -169 293 -329 235z m111 -27
c52 -28 88 -230 59 -337 -31 -113 -128 -106 -163 12 -14 46 -17 226 -5 269 16
57 62 81 109 56z"/>
<path d="M4093 7929 c-90 -29 -118 -49 -69 -49 13 0 27 -7 30 -16 10 -27 7
-324 -4 -345 -6 -10 -17 -19 -25 -19 -7 0 -17 -4 -20 -10 -4 -6 39 -10 121
-10 l127 0 -27 25 -26 25 2 162 3 163 38 9 c34 9 40 7 65 -17 25 -26 27 -33
30 -137 5 -141 -3 -201 -29 -207 -51 -14 -7 -23 108 -23 125 0 134 2 91 24
-22 11 -23 17 -29 181 -6 180 -11 205 -54 245 -22 21 -37 25 -85 25 -55 0 -62
-3 -100 -40 l-40 -39 0 42 c0 23 -3 42 -7 41 -5 0 -50 -14 -100 -30z"/>
<path d="M7064 7937 c-52 -25 -97 -73 -107 -114 -5 -22 -2 -23 54 -23 l59 0 0
31 c0 32 15 69 34 81 6 4 25 8 43 8 43 0 63 -30 63 -97 0 -45 -3 -53 -22 -59
-57 -17 -188 -88 -214 -115 -49 -51 -30 -130 41 -163 61 -29 112 -19 167 32
15 14 29 24 30 21 2 -2 8 -13 14 -24 28 -51 108 -56 164 -9 31 27 32 51 1 35
-40 -22 -46 -1 -46 167 0 134 -3 162 -18 185 -29 44 -62 60 -140 64 -61 3 -80
0 -123 -20z m144 -284 c-3 -84 -4 -88 -30 -100 -38 -19 -75 -2 -94 42 -20 49
-3 82 61 117 28 15 54 28 58 28 4 0 6 -39 5 -87z"/>
<path d="M8122 7947 c-19 -6 -55 -30 -82 -54 -164 -147 -85 -423 120 -423 59
0 100 21 148 75 36 41 50 65 39 65 -1 0 -20 -9 -42 -20 -106 -54 -214 13 -223
140 -6 80 4 123 35 160 38 46 70 38 102 -24 33 -63 49 -73 89 -57 38 16 48 42
32 81 -24 57 -131 85 -218 57z"/>
<path d="M8561 7946 c-84 -30 -161 -136 -161 -222 0 -97 53 -189 132 -230 43
-22 129 -29 182 -14 94 26 176 133 176 231 0 172 -169 293 -329 235z m111 -27
c52 -28 88 -230 59 -337 -31 -113 -128 -106 -163 12 -14 46 -17 226 -5 269 16
57 62 81 109 56z"/>
<path d="M9033 7929 c-90 -29 -118 -49 -69 -49 13 0 27 -7 30 -16 10 -27 7
-324 -4 -345 -6 -10 -17 -19 -25 -19 -7 0 -17 -4 -20 -10 -4 -6 39 -10 121
-10 l127 0 -27 25 -26 25 2 162 3 163 38 9 c34 9 40 7 65 -17 25 -26 27 -33
30 -137 5 -141 -3 -201 -29 -207 -51 -14 -7 -23 108 -23 125 0 134 2 91 24
-22 11 -23 18 -28 171 -5 147 -3 161 14 178 26 24 63 21 91 -8 24 -23 25 -28
25 -169 0 -151 -4 -176 -25 -176 -8 0 -17 -4 -20 -10 -4 -6 38 -10 119 -10 71
0 126 4 126 9 0 5 -10 11 -22 13 -31 4 -36 30 -37 201 -1 168 -11 205 -63 237
-61 37 -141 20 -193 -41 -19 -23 -30 -30 -33 -20 -2 7 -17 28 -32 45 -26 28
-34 31 -89 31 -56 0 -62 -2 -101 -40 l-40 -39 0 42 c0 23 -3 42 -7 41 -5 0
-50 -14 -100 -30z"/>
<path d="M9871 7929 c-104 -32 -112 -36 -87 -44 9 -3 23 -7 31 -10 13 -4 15
-41 13 -277 -3 -272 -3 -272 -26 -284 -12 -6 -25 -14 -29 -18 -3 -3 60 -6 141
-6 96 0 145 4 141 10 -3 6 -15 10 -25 10 -37 0 -50 27 -50 107 0 67 2 74 18
68 133 -51 275 54 289 215 19 211 -161 340 -287 205 l-25 -27 -5 40 -5 40 -94
-29z m211 -79 c51 -40 81 -174 58 -259 -21 -79 -83 -114 -138 -75 -21 15 -22
21 -22 179 0 121 3 165 13 168 27 12 66 6 89 -13z"/>
<path d="M10812 7947 c-52 -19 -100 -64 -129 -120 -36 -70 -39 -181 -6 -243
28 -52 72 -90 121 -104 94 -26 174 0 243 78 41 47 40 66 -3 38 -13 -8 -40 -18
-60 -21 -104 -19 -184 41 -203 153 l-7 42 157 0 158 0 -6 40 c-15 111 -148
179 -265 137z m118 -59 c11 -18 20 -43 20 -55 0 -22 -3 -23 -86 -23 l-86 0 6
32 c10 49 42 78 88 78 32 0 41 -5 58 -32z"/>
<path d="M11661 7946 c-84 -30 -161 -136 -161 -222 0 -97 53 -189 132 -230 43
-22 129 -29 182 -14 94 26 176 133 176 231 0 172 -169 293 -329 235z m111 -27
c52 -28 88 -230 59 -337 -31 -113 -128 -106 -163 12 -14 46 -17 226 -5 269 16
57 62 81 109 56z"/>
<path d="M3060 7871 c0 -81 13 -114 24 -63 21 88 51 112 141 112 30 0 55 -3
55 -6 0 -3 -54 -95 -119 -203 -66 -108 -123 -204 -126 -213 -7 -17 7 -18 199
-18 l206 0 0 85 c0 50 -4 85 -10 85 -5 0 -10 -7 -10 -15 0 -8 -7 -33 -17 -56
-20 -52 -58 -69 -148 -69 -36 0 -65 2 -65 4 0 3 58 102 130 220 l129 216 -194
0 -195 0 0 -79z"/>
<path d="M980 6845 c0 -50 4 -85 10 -85 6 0 10 35 10 85 0 50 -4 85 -10 85 -6
0 -10 -35 -10 -85z"/>
<path d="M1298 6924 c-5 -4 -8 -16 -8 -26 0 -10 -7 -18 -17 -18 -17 -1 -17 -1
-1 -13 10 -8 18 -31 20 -58 3 -39 6 -44 28 -47 22 -2 23 -1 8 8 -12 7 -18 23
-18 47 0 22 7 41 18 49 16 12 16 13 0 14 -10 0 -18 10 -20 26 -2 14 -6 22 -10
18z"/>
<path d="M1728 6924 c-5 -4 -8 -16 -8 -26 0 -10 -7 -18 -17 -18 -17 -1 -17 -1
-1 -13 10 -8 18 -31 20 -58 3 -39 6 -44 28 -47 22 -2 23 -1 8 8 -12 7 -18 23
-18 47 0 22 7 41 18 49 16 12 16 13 0 14 -10 0 -18 10 -20 26 -2 14 -6 22 -10
18z"/>
<path d="M2445 6918 c-3 -7 -16 -46 -29 -85 -23 -69 -24 -73 -6 -73 10 0 20 7
24 15 3 9 18 15 36 15 18 0 33 -6 36 -15 4 -8 15 -15 26 -15 12 0 18 5 15 13
-2 6 -15 45 -28 85 -20 62 -26 72 -46 72 -13 0 -26 -6 -28 -12z m39 -60 c9
-35 8 -38 -14 -38 -11 0 -20 3 -20 8 0 19 13 52 20 52 4 0 10 -10 14 -22z"/>
<path d="M3137 6923 c-4 -3 -7 -15 -7 -25 0 -10 -4 -18 -10 -18 -5 0 -10 -7
-10 -15 0 -8 5 -15 10 -15 6 0 10 -20 10 -45 0 -33 4 -45 15 -45 11 0 15 12
15 44 0 34 4 45 19 49 29 7 39 -4 43 -48 3 -35 6 -40 31 -43 28 -3 38 15 12
24 -9 4 -15 19 -15 35 0 19 5 29 15 29 8 0 15 7 15 15 0 8 -7 15 -15 15 -9 0
-15 9 -15 25 0 18 -4 23 -15 19 -8 -4 -15 -15 -15 -25 0 -14 -7 -19 -30 -19
-31 0 -41 16 -15 26 8 4 15 10 15 15 0 10 -43 12 -53 2z"/>
<path d="M3350 6915 c0 -8 9 -15 20 -15 18 0 20 -7 20 -70 0 -63 2 -70 20 -70
18 0 20 7 20 70 0 68 1 70 25 70 16 0 25 6 25 15 0 12 -14 15 -65 15 -51 0
-65 -3 -65 -15z"/>
<path d="M3700 6915 c0 -8 7 -15 15 -15 8 0 15 7 15 15 0 8 -7 15 -15 15 -8 0
-15 -7 -15 -15z"/>
<path d="M3910 6915 c0 -8 7 -15 15 -15 8 0 15 7 15 15 0 8 -7 15 -15 15 -8 0
-15 -7 -15 -15z"/>
<path d="M1040 6818 c0 -32 4 -58 10 -58 6 0 10 20 10 45 0 33 5 47 18 54 27
15 42 -5 42 -56 0 -24 5 -43 10 -43 13 0 13 76 0 101 -8 14 -20 18 -50 17
l-40 -1 0 -59z"/>
<path d="M1171 6866 c-17 -20 -2 -46 30 -53 36 -7 43 -17 25 -33 -11 -9 -20
-9 -36 0 -25 13 -42 4 -20 -10 23 -15 66 -12 80 5 18 22 5 45 -30 51 -17 4
-33 11 -36 16 -10 15 18 28 37 17 18 -9 34 2 22 15 -12 11 -60 6 -72 -8z"/>
<path d="M1370 6818 c0 -32 4 -58 10 -58 6 0 10 21 10 46 0 37 4 47 20 51 30
8 24 22 -10 21 -30 -1 -30 -1 -30 -60z"/>
<path d="M1462 6823 l3 -58 43 -1 42 -2 0 59 c0 33 -4 59 -10 59 -5 0 -10 -22
-10 -49 0 -48 -10 -63 -37 -54 -8 3 -13 23 -13 54 0 28 -5 49 -10 49 -7 0 -10
-22 -8 -57z"/>
<path d="M1596 6858 c-21 -30 -20 -61 2 -81 21 -19 49 -22 72 -7 21 13 5 23
-18 11 -16 -9 -24 -7 -36 5 -34 33 -4 94 36 73 23 -12 39 -2 18 11 -26 16 -58
11 -74 -12z"/>
<path d="M1796 6858 c-33 -46 -7 -98 47 -98 29 0 47 24 47 64 0 53 -65 76 -94
34z m74 -38 c0 -38 -31 -57 -54 -34 -33 33 -4 94 35 74 12 -7 19 -21 19 -40z"/>
<path d="M1920 6818 c0 -32 4 -58 10 -58 6 0 10 21 10 46 0 37 4 47 20 51 30
8 24 22 -10 21 -30 -1 -30 -1 -30 -60z"/>
<path d="M2006 6858 c-21 -30 -20 -61 2 -81 23 -21 65 -22 82 -2 10 12 6 13
-25 8 -26 -4 -40 -2 -46 8 -15 25 -10 29 36 29 49 0 59 15 29 44 -22 23 -60
20 -78 -6z m62 0 c20 -20 14 -28 -23 -28 -38 0 -46 13 -17 29 22 13 26 13 40
-1z"/>
<path d="M2131 6866 c-17 -20 -2 -46 30 -53 36 -7 43 -17 25 -33 -11 -9 -20
-9 -36 0 -25 13 -42 4 -20 -10 23 -15 66 -12 80 5 18 22 5 45 -30 51 -17 4
-33 11 -36 16 -10 15 18 28 37 17 18 -9 34 2 22 15 -12 11 -60 6 -72 -8z"/>
<path d="M2570 6794 c0 -68 3 -84 15 -84 10 0 15 10 15 28 0 26 3 28 28 24 36
-5 62 19 62 58 0 42 -23 59 -75 58 l-45 -1 0 -83z m84 41 c8 -23 -4 -45 -25
-45 -22 0 -34 22 -25 45 3 8 14 15 25 15 10 0 21 -7 25 -15z"/>
<path d="M2720 6860 c-9 -17 -8 -20 10 -20 11 0 20 5 20 10 0 6 7 10 16 10 23
0 11 -24 -16 -30 -28 -7 -45 -32 -37 -53 5 -13 19 -16 57 -16 l50 2 0 46 c0
26 -5 52 -12 59 -20 20 -76 15 -88 -8z m60 -65 c0 -8 -6 -15 -14 -15 -17 0
-28 14 -19 24 12 12 33 6 33 -9z"/>
<path d="M2850 6865 c-14 -17 -7 -43 15 -50 8 -3 22 -7 31 -10 8 -3 12 -9 9
-15 -4 -7 -13 -6 -27 1 -15 8 -23 8 -31 0 -16 -16 8 -31 49 -31 61 0 71 52 14
71 -39 14 -39 30 0 23 18 -4 30 -2 30 4 0 24 -71 30 -90 7z"/>
<path d="M2987 6862 c-50 -55 16 -128 84 -92 24 13 26 72 3 94 -21 22 -67 20
-87 -2z m71 -46 c-2 -13 -12 -22 -25 -24 -20 -3 -23 1 -23 26 0 17 6 32 13 35
19 7 38 -14 35 -37z"/>
<path d="M3480 6819 c0 -46 3 -59 15 -59 10 0 15 10 15 29 0 39 9 61 26 61 8
0 14 6 14 14 0 9 -12 14 -35 14 l-35 0 0 -59z"/>
<path d="M3574 6863 c-17 -17 -17 -18 1 -22 11 -2 21 2 23 8 2 6 10 11 19 11
23 0 10 -24 -17 -30 -28 -7 -45 -32 -37 -53 5 -13 19 -16 57 -16 l50 2 0 46
c0 26 -5 52 -12 59 -18 18 -64 15 -84 -5z m56 -68 c0 -8 -6 -15 -14 -15 -17 0
-28 14 -19 24 12 12 33 6 33 -9z"/>
<path d="M3700 6820 c0 -47 3 -60 15 -60 12 0 15 13 15 60 0 47 -3 60 -15 60
-12 0 -15 -13 -15 -60z"/>
<path d="M3770 6819 c0 -45 3 -59 14 -59 10 0 16 14 18 42 2 31 8 44 21 46 14
3 17 -4 17 -42 0 -39 3 -46 20 -46 17 0 20 7 20 49 0 58 -12 70 -68 69 l-42 0
0 -59z"/>
<path d="M3910 6820 c0 -47 3 -60 15 -60 12 0 15 13 15 60 0 47 -3 60 -15 60
-12 0 -15 -13 -15 -60z"/>
<path d="M3980 6819 c0 -45 3 -59 14 -59 10 0 16 14 18 42 2 31 8 44 21 46 14
3 17 -4 17 -42 0 -39 3 -46 20 -46 17 0 20 7 20 49 0 58 -12 70 -68 69 l-42 0
0 -59z"/>
<path d="M4125 6864 c-8 -9 -15 -29 -15 -44 0 -35 38 -65 70 -55 12 4 20 2 20
-5 0 -17 -31 -24 -50 -12 -26 16 -46 -1 -25 -22 19 -18 57 -21 86 -6 16 9 19
22 19 84 l0 73 -45 1 c-27 1 -50 -5 -60 -14z m70 -44 c0 -38 -39 -35 -43 3 -3
25 0 28 20 25 17 -2 23 -9 23 -28z"/>
<path d="M1090 2112 c0 -202 -6 -217 -76 -209 l-44 5 0 -43 c0 -40 2 -44 30
-50 39 -8 108 2 138 22 44 27 52 68 52 263 l0 180 -50 0 -50 0 0 -168z"/>
<path d="M2944 2261 c-75 -34 -114 -107 -115 -212 -1 -124 54 -207 153 -229
53 -12 72 -9 151 25 12 5 17 3 17 -9 0 -12 10 -16 40 -16 l40 0 0 130 0 130
-105 0 -105 0 0 -45 0 -45 64 0 c61 0 64 -1 59 -22 -23 -92 -156 -101 -197
-13 -23 47 -24 141 -2 183 25 48 58 65 113 59 36 -4 53 -12 69 -32 23 -29 50
-30 88 -2 18 13 17 15 -15 52 -19 21 -48 44 -66 51 -47 20 -140 17 -189 -5z"/>
<path d="M3670 2050 l0 -230 49 0 c27 0 51 5 53 11 2 6 14 5 33 -5 65 -34 150
-4 184 66 71 147 -51 308 -181 240 l-38 -20 0 84 0 84 -50 0 -50 0 0 -230z
m224 -2 c23 -33 21 -113 -4 -138 -20 -20 -65 -26 -86 -12 -19 12 -34 49 -34
82 0 33 15 70 34 82 24 16 75 8 90 -14z"/>
<path d="M4320 2230 l0 -50 50 0 50 0 0 50 0 50 -50 0 -50 0 0 -50z"/>
<path d="M4870 2050 l0 -230 50 0 50 0 0 230 0 230 -50 0 -50 0 0 -230z"/>
<path d="M5200 2050 l0 -230 45 0 45 0 1 178 1 177 34 -140 c59 -239 47 -215
103 -215 l48 0 48 168 c26 92 48 168 49 169 0 1 -1 -75 -3 -168 l-3 -169 51 0
51 0 -2 228 -3 227 -71 3 -71 3 -31 -113 c-17 -62 -37 -138 -45 -168 l-13 -55
-23 90 c-12 50 -31 125 -43 168 l-20 77 -74 0 -74 0 0 -230z"/>
<path d="M6750 2230 l0 -50 50 0 50 0 0 50 0 50 -50 0 -50 0 0 -50z"/>
<path d="M8290 2262 c-43 -21 -80 -75 -80 -116 0 -40 31 -91 67 -109 15 -8 55
-20 88 -26 96 -19 115 -29 115 -62 0 -35 -23 -49 -80 -49 -41 0 -90 19 -122
47 -15 14 -20 13 -47 -7 -17 -12 -31 -28 -31 -36 0 -22 85 -72 146 -85 126
-28 244 40 244 140 0 75 -42 110 -165 136 -44 10 -86 22 -92 28 -21 15 -15 55
8 68 30 16 105 5 139 -19 l27 -21 32 33 c36 37 34 42 -40 75 -57 27 -160 28
-209 3z"/>
<path d="M1357 2136 c-50 -19 -67 -34 -88 -81 -24 -51 -23 -99 1 -152 44 -98
186 -121 272 -44 l31 27 -34 21 c-32 21 -33 21 -57 2 -45 -35 -132 -15 -132
32 0 18 8 19 110 19 l110 0 0 35 c0 48 -34 111 -69 130 -44 22 -101 27 -144
11z m103 -76 c33 -33 24 -40 -45 -40 -71 0 -85 15 -43 44 31 22 64 20 88 -4z"/>
<path d="M1703 2139 c-70 -20 -97 -108 -47 -154 15 -14 52 -30 91 -39 73 -16
86 -25 73 -46 -13 -21 -74 -16 -117 10 l-36 21 -25 -24 c-29 -30 -24 -40 31
-69 58 -30 154 -31 194 -2 62 46 67 120 10 155 -18 10 -58 24 -90 30 -63 13
-75 22 -57 44 16 19 44 19 87 -2 34 -16 35 -16 60 9 l25 26 -26 17 c-48 31
-115 41 -173 24z"/>
<path d="M2423 2139 c-70 -20 -97 -108 -47 -154 15 -14 52 -30 91 -39 73 -16
86 -25 73 -46 -13 -21 -74 -16 -117 10 l-36 21 -25 -24 c-29 -30 -24 -40 31
-69 58 -30 154 -31 194 -2 62 46 67 120 10 155 -18 10 -58 24 -90 30 -63 13
-75 22 -57 44 16 19 44 19 87 -2 34 -16 35 -16 60 9 l25 26 -26 17 c-48 31
-115 41 -173 24z"/>
<path d="M3391 2137 c-44 -12 -73 -40 -86 -84 -6 -21 -3 -23 38 -23 37 0 46 4
55 26 10 21 18 25 50 22 30 -2 38 -7 40 -26 4 -25 1 -26 -82 -43 -106 -20
-147 -91 -91 -158 33 -38 95 -50 148 -27 33 13 40 13 67 0 46 -24 66 -15 62
26 -2 19 -6 84 -10 143 -6 100 -9 110 -32 127 -14 11 -32 20 -41 20 -9 0 -29
2 -45 5 -16 2 -49 -1 -73 -8z m97 -209 c-4 -38 -38 -61 -72 -49 -41 16 -29 62
19 74 49 12 56 8 53 -25z"/>
<path d="M4227 2140 c-16 -5 -35 -14 -43 -21 -11 -9 -14 -8 -14 5 0 13 -11 16
-50 16 l-50 0 0 -160 0 -160 50 0 50 0 0 95 c0 90 2 98 26 122 17 17 33 24 50
20 23 -4 24 -2 24 44 0 27 -3 49 -7 48 -5 0 -21 -5 -36 -9z"/>
<path d="M4587 2136 c-50 -19 -67 -34 -88 -81 -24 -51 -23 -99 1 -152 44 -98
186 -121 272 -44 l31 27 -34 21 c-32 21 -33 21 -57 2 -45 -35 -132 -15 -132
32 0 18 8 19 110 19 l110 0 0 35 c0 48 -34 111 -69 130 -44 22 -101 27 -144
11z m103 -76 c33 -33 24 -40 -45 -40 -71 0 -85 15 -43 44 31 22 64 20 88 -4z"/>
<path d="M5831 2137 c-44 -12 -73 -40 -86 -84 -6 -21 -3 -23 38 -23 37 0 46 4
55 26 10 21 18 25 50 22 30 -2 38 -7 40 -26 4 -25 1 -26 -82 -43 -106 -20
-147 -91 -91 -158 33 -38 95 -50 148 -27 33 13 40 13 67 0 46 -24 66 -15 62
26 -2 19 -6 84 -10 143 -6 100 -9 110 -32 127 -14 11 -32 20 -41 20 -9 0 -29
2 -45 5 -16 2 -49 -1 -73 -8z m97 -209 c-4 -38 -38 -61 -72 -49 -41 16 -29 62
19 74 49 12 56 8 53 -25z"/>
<path d="M6247 2131 c-29 -15 -37 -16 -37 -5 0 10 -14 14 -50 14 l-50 0 0
-160 0 -160 50 0 50 0 0 98 c0 113 12 142 60 142 42 0 50 -23 50 -139 l0 -101
51 0 51 0 -4 128 c-5 142 -13 167 -63 188 -45 19 -63 18 -108 -5z"/>
<path d="M6657 2140 c-16 -5 -35 -14 -43 -21 -11 -9 -14 -8 -14 5 0 13 -11 16
-50 16 l-50 0 0 -160 0 -160 50 0 50 0 0 95 c0 90 2 98 26 122 17 17 33 24 50
20 23 -4 24 -2 24 44 0 27 -3 49 -7 48 -5 0 -21 -5 -36 -9z"/>
<path d="M7016 2140 c-39 -12 -66 -38 -87 -85 -33 -72 -18 -157 38 -205 41
-37 87 -46 140 -27 l42 14 3 -71 3 -71 48 -3 47 -3 0 225 0 226 -50 0 c-27 0
-50 -4 -50 -9 0 -6 -16 -3 -35 5 -38 16 -56 16 -99 4z m121 -97 c40 -61 10
-153 -50 -153 -38 0 -50 7 -66 37 -17 34 -13 87 10 117 29 37 82 36 106 -1z"/>
<path d="M7797 2136 c-50 -19 -67 -34 -88 -81 -24 -51 -23 -99 1 -152 44 -98
186 -121 272 -44 l31 27 -34 21 c-32 21 -33 21 -57 2 -45 -35 -132 -15 -132
32 0 18 8 19 110 19 l110 0 0 35 c0 48 -34 111 -69 130 -44 22 -101 27 -144
11z m103 -76 c33 -33 24 -40 -45 -40 -71 0 -85 15 -43 44 31 22 64 20 88 -4z"/>
<path d="M8737 2136 c-50 -19 -67 -34 -88 -81 -24 -51 -23 -99 1 -152 44 -98
186 -121 272 -44 l31 27 -34 21 c-32 21 -33 21 -57 2 -45 -35 -132 -15 -132
32 0 18 8 19 110 19 l110 0 0 35 c0 48 -34 111 -69 130 -44 22 -101 27 -144
11z m103 -76 c33 -33 24 -40 -45 -40 -71 0 -85 15 -43 44 31 22 64 20 88 -4z"/>
<path d="M9177 2140 c-16 -5 -35 -14 -43 -21 -11 -9 -14 -8 -14 5 0 13 -11 16
-50 16 l-50 0 0 -160 0 -160 50 0 50 0 0 95 c0 90 2 98 26 122 17 17 33 24 50
20 23 -4 24 -2 24 44 0 27 -3 49 -7 48 -5 0 -21 -5 -36 -9z"/>
<path d="M9427 2140 c-16 -5 -35 -14 -43 -21 -11 -9 -14 -8 -14 5 0 13 -11 16
-50 16 l-50 0 0 -160 0 -160 50 0 50 0 0 95 c0 90 2 98 26 122 17 17 33 24 50
20 23 -4 24 -2 24 44 0 27 -3 49 -7 48 -5 0 -21 -5 -36 -9z"/>
<path d="M9591 2137 c-44 -12 -73 -40 -86 -84 -6 -21 -3 -23 38 -23 37 0 46 4
55 26 10 21 18 25 50 22 30 -2 38 -7 40 -26 4 -25 1 -26 -82 -43 -106 -20
-147 -91 -91 -158 33 -38 95 -50 148 -27 33 13 40 13 67 0 46 -24 66 -15 62
26 -2 19 -6 84 -10 143 -6 100 -9 110 -32 127 -14 11 -32 20 -41 20 -9 0 -29
2 -45 5 -16 2 -49 -1 -73 -8z m97 -209 c-4 -38 -38 -61 -72 -49 -41 16 -29 62
19 74 49 12 56 8 53 -25z"/>
<path d="M10007 2131 c-29 -15 -37 -16 -37 -5 0 10 -14 14 -50 14 l-50 0 0
-160 0 -160 50 0 50 0 0 98 c0 113 12 142 60 142 42 0 50 -23 50 -139 l0 -101
51 0 51 0 -4 128 c-5 142 -13 167 -63 188 -45 19 -63 18 -108 -5z"/>
<path d="M10345 2135 c-48 -17 -80 -52 -94 -103 -15 -53 -13 -81 9 -129 46
-102 204 -123 280 -37 34 39 45 86 35 151 -8 57 -53 106 -110 122 -51 14 -71
13 -120 -4z m119 -87 c23 -33 21 -113 -4 -138 -20 -20 -65 -26 -86 -12 -19 12
-34 49 -34 82 0 33 15 70 34 82 24 16 75 8 90 -14z"/>
<path d="M1980 2011 c0 -124 1 -131 26 -160 34 -41 81 -49 134 -23 31 15 40
16 40 6 0 -10 14 -14 50 -14 l50 0 0 160 0 160 -50 0 -50 0 0 -103 c0 -121 -9
-140 -60 -135 l-35 3 -3 118 -3 117 -49 0 -50 0 0 -129z"/>
<path d="M4320 1980 l0 -160 50 0 50 0 0 160 0 160 -50 0 -50 0 0 -160z"/>
<path d="M6750 1980 l0 -160 50 0 50 0 0 160 0 160 -50 0 -50 0 0 -160z"/>
<path d="M7330 2011 c0 -124 1 -131 26 -160 34 -41 81 -49 134 -23 31 15 40
16 40 6 0 -10 14 -14 50 -14 l50 0 0 160 0 160 -50 0 -50 0 0 -103 c0 -121 -9
-140 -60 -135 l-35 3 -3 118 -3 117 -49 0 -50 0 0 -129z"/>
<path d="M980 1275 c0 -50 4 -85 10 -85 6 0 10 18 10 40 l0 40 40 0 c22 0 40
5 40 10 0 6 -18 10 -40 10 -36 0 -40 3 -40 25 0 23 4 25 45 25 25 0 45 5 45
10 0 6 -25 10 -55 10 l-55 0 0 -85z"/>
<path d="M1370 1275 c0 -50 4 -85 10 -85 6 0 10 20 10 45 0 33 5 47 18 54 27
15 42 -5 42 -56 0 -24 5 -43 10 -43 15 0 12 83 -3 105 -10 12 -22 16 -40 13
-24 -5 -27 -2 -27 23 0 16 -4 29 -10 29 -6 0 -10 -35 -10 -85z"/>
<path d="M1823 1347 c-4 -8 -16 -16 -25 -20 -24 -9 -23 -27 2 -27 18 0 20 -7
20 -55 0 -48 2 -55 20 -55 18 0 20 7 20 85 0 68 -3 85 -15 85 -7 0 -18 -6 -22
-13z"/>
<path d="M1916 1344 c-22 -21 -29 -57 -22 -98 8 -44 27 -58 68 -54 72 7 70
108 -3 108 -20 0 -29 4 -27 13 6 17 39 21 49 6 6 -11 11 -11 20 -2 9 9 9 16
-1 28 -16 20 -64 19 -84 -1z m62 -96 c-2 -15 -10 -23 -23 -23 -13 0 -21 8 -23
23 -3 18 1 22 23 22 22 0 26 -4 23 -22z"/>
<path d="M2180 1332 c0 -26 -3 -28 -28 -24 -36 5 -62 -19 -62 -58 0 -42 23
-59 80 -58 l50 0 0 84 c0 77 -2 84 -20 84 -15 0 -20 -7 -20 -28z m-2 -75 c5
-23 -15 -47 -34 -40 -8 3 -14 18 -14 35 0 25 4 29 22 26 13 -2 24 -11 26 -21z"/>
<path d="M2475 1348 c-3 -7 -16 -46 -29 -85 -23 -69 -24 -73 -6 -73 10 0 20 7
24 15 3 9 18 15 36 15 18 0 33 -6 36 -15 4 -8 15 -15 26 -15 12 0 18 5 15 13
-2 6 -15 45 -28 85 -20 62 -26 72 -46 72 -13 0 -26 -6 -28 -12z m39 -60 c9
-35 8 -38 -14 -38 -11 0 -20 3 -20 8 0 19 13 52 20 52 4 0 10 -10 14 -22z"/>
<path d="M2600 1276 l0 -83 45 -1 c52 -1 75 16 75 58 0 39 -26 63 -62 58 -25
-4 -28 -2 -28 24 0 18 -5 28 -15 28 -12 0 -15 -16 -15 -84z m84 -11 c8 -23 -4
-45 -25 -45 -11 0 -22 7 -25 15 -9 23 3 45 25 45 10 0 21 -7 25 -15z"/>
<path d="M2840 1345 c0 -8 7 -15 15 -15 8 0 15 7 15 15 0 8 -7 15 -15 15 -8 0
-15 -7 -15 -15z"/>
<path d="M2910 1275 c0 -69 3 -85 15 -85 12 0 15 16 15 85 0 69 -3 85 -15 85
-12 0 -15 -16 -15 -85z"/>
<path d="M3110 1332 c0 -26 -3 -28 -28 -24 -36 5 -62 -19 -62 -58 0 -42 23
-59 80 -58 l50 0 0 84 c0 77 -2 84 -20 84 -15 0 -20 -7 -20 -28z m-2 -75 c5
-23 -15 -47 -34 -40 -8 3 -14 18 -14 35 0 25 4 29 22 26 13 -2 24 -11 26 -21z"/>
<path d="M3375 1344 c-20 -20 -16 -48 8 -52 12 -2 17 3 17 17 0 14 6 21 20 21
36 0 25 -44 -20 -83 -55 -47 -52 -57 20 -57 47 0 60 3 60 15 0 10 -10 15 -31
15 l-31 0 31 31 c33 32 41 75 19 97 -17 17 -74 15 -93 -4z"/>
<path d="M3521 1347 c-28 -34 -26 -111 5 -141 19 -20 68 -21 84 -1 21 25 24
89 6 123 -14 26 -23 32 -50 32 -18 0 -39 -6 -45 -13z m67 -62 c3 -47 -9 -70
-32 -62 -11 5 -16 19 -16 50 0 48 6 59 30 55 10 -2 16 -16 18 -43z"/>
<path d="M3665 1344 c-20 -20 -16 -48 8 -52 12 -2 17 3 17 17 0 14 6 21 20 21
36 0 25 -44 -20 -83 -55 -47 -52 -57 20 -57 47 0 60 3 60 15 0 10 -10 15 -31
15 l-31 0 31 31 c33 32 41 75 19 97 -17 17 -74 15 -93 -4z"/>
<path d="M3806 1344 c-12 -12 -14 -20 -7 -27 8 -8 15 -7 23 1 17 17 48 15 48
-4 0 -9 -9 -18 -20 -21 -27 -7 -25 -17 5 -31 14 -6 25 -16 25 -22 0 -17 -31
-24 -51 -12 -37 23 -53 8 -23 -22 18 -19 75 -21 92 -4 14 14 16 64 2 73 -6 4
-5 13 3 25 18 29 -2 54 -45 58 -23 2 -41 -3 -52 -14z"/>
<path d="M1126 1288 c-21 -30 -20 -61 2 -81 23 -21 65 -22 82 -2 10 12 6 13
-25 8 -26 -4 -40 -2 -46 8 -15 25 -10 29 36 29 49 0 59 15 29 44 -22 23 -60
20 -78 -6z m62 0 c20 -20 14 -28 -23 -28 -38 0 -46 13 -17 29 22 13 26 13 40
-1z"/>
<path d="M1256 1288 c-21 -30 -20 -61 2 -81 21 -19 49 -22 72 -7 21 13 5 23
-18 11 -16 -9 -24 -7 -36 5 -34 33 -4 94 36 73 23 -12 39 -2 18 11 -26 16 -58
11 -74 -12z"/>
<path d="M1507 1303 c-4 -3 -7 -13 -7 -21 0 -13 3 -12 19 2 10 9 25 14 35 10
25 -10 15 -25 -24 -38 -28 -9 -35 -16 -35 -36 0 -23 4 -25 50 -27 l50 -1 -4
46 c-2 26 -8 53 -13 60 -11 13 -60 17 -71 5z m63 -67 c0 -20 -25 -37 -44 -30
-21 8 -20 20 2 33 24 15 42 13 42 -3z"/>
<path d="M2257 1292 c-49 -53 21 -132 82 -93 21 14 5 28 -27 23 -16 -2 -33 1
-36 7 -5 7 8 11 38 11 50 0 57 10 30 48 -19 27 -64 29 -87 4z m61 -20 c2 -7
-6 -12 -17 -12 -21 0 -27 11 -14 24 9 9 26 2 31 -12z"/>
<path d="M2750 1249 c0 -46 3 -59 15 -59 10 0 15 10 15 29 0 39 9 61 26 61 8
0 14 6 14 14 0 9 -12 14 -35 14 l-35 0 0 -59z"/>
<path d="M2840 1250 c0 -47 3 -60 15 -60 12 0 15 13 15 60 0 47 -3 60 -15 60
-12 0 -15 -13 -15 -60z"/>
<path d="M3187 1292 c-49 -53 21 -132 82 -93 21 14 5 28 -27 23 -16 -2 -33 1
-36 7 -5 7 8 11 38 11 50 0 57 10 30 48 -19 27 -64 29 -87 4z m61 -20 c2 -7
-6 -12 -17 -12 -21 0 -27 11 -14 24 9 9 26 2 31 -12z"/>
<path d="M980 905 l0 -85 44 0 c63 0 91 25 91 83 0 63 -24 87 -87 87 l-48 0 0
-85z m100 50 c6 -8 12 -30 12 -50 0 -46 -17 -65 -58 -65 l-34 0 0 65 0 65 34
0 c18 0 39 -7 46 -15z"/>
<path d="M1610 980 c0 -5 5 -10 10 -10 6 0 10 5 10 10 0 6 -4 10 -10 10 -5 0
-10 -4 -10 -10z"/>
<path d="M1715 979 c-4 -6 -5 -13 -2 -16 7 -7 27 6 27 18 0 12 -17 12 -25 -2z"/>
<path d="M2116 941 c-47 -63 -47 -81 -1 -81 28 0 35 -4 35 -20 0 -13 7 -20 20
-20 13 0 20 7 20 20 0 11 5 20 10 20 6 0 10 7 10 15 0 8 -4 15 -10 15 -5 0
-10 23 -10 50 0 43 -3 50 -19 50 -12 0 -34 -20 -55 -49z m34 -26 c0 -16 -6
-25 -15 -25 -18 0 -19 4 -3 30 16 26 18 25 18 -5z"/>
<path d="M2256 974 c-22 -21 -29 -57 -22 -98 8 -44 27 -58 68 -54 72 7 70 108
-3 108 -20 0 -29 4 -27 13 6 17 39 21 49 6 6 -11 11 -11 20 -2 9 9 9 16 -1 28
-16 20 -64 19 -84 -1z m62 -96 c-2 -15 -10 -23 -23 -23 -13 0 -21 8 -23 23 -3
18 1 22 23 22 22 0 26 -4 23 -22z"/>
<path d="M2440 905 c0 -67 3 -85 14 -85 10 0 16 14 18 42 2 31 8 44 21 46 14
3 17 -4 17 -42 0 -39 3 -46 20 -46 17 0 20 7 20 49 0 55 -16 76 -55 69 -22 -5
-25 -2 -25 23 0 19 -5 29 -15 29 -12 0 -15 -16 -15 -85z"/>
<path d="M3473 983 c-7 -3 -13 -13 -13 -24 0 -10 -7 -19 -15 -19 -19 0 -19
-16 -1 -27 8 -4 16 -26 18 -48 3 -35 6 -40 31 -43 28 -3 38 15 12 24 -9 4 -15
19 -15 35 0 19 5 29 15 29 8 0 15 7 15 15 0 8 -6 15 -14 15 -8 0 -16 11 -18
23 -2 14 -8 22 -15 20z"/>
<path d="M3713 983 c-7 -3 -13 -13 -13 -24 0 -10 -7 -19 -15 -19 -19 0 -19
-16 -1 -27 8 -4 16 -26 18 -48 3 -35 6 -40 31 -43 28 -3 38 15 12 24 -9 4 -15
19 -15 35 0 19 5 29 15 29 8 0 15 7 15 15 0 8 -6 15 -14 15 -8 0 -16 11 -18
23 -2 14 -8 22 -15 20z"/>
<path d="M3920 905 c0 -69 3 -85 15 -85 12 0 15 16 15 85 0 69 -3 85 -15 85
-12 0 -15 -16 -15 -85z"/>
<path d="M1152 883 l3 -58 43 -1 42 -2 0 59 c0 33 -4 59 -10 59 -5 0 -10 -22
-10 -49 0 -48 -10 -63 -37 -54 -8 3 -13 23 -13 54 0 28 -5 49 -10 49 -7 0 -10
-22 -8 -57z"/>
<path d="M1280 878 c0 -32 4 -58 10 -58 6 0 10 21 10 46 0 37 4 47 20 51 30 8
24 22 -10 21 -30 -1 -30 -1 -30 -60z"/>
<path d="M1367 933 c-4 -3 -7 -13 -7 -21 0 -13 3 -12 19 2 10 9 25 14 35 10
25 -10 15 -25 -24 -38 -28 -9 -35 -16 -35 -36 0 -23 4 -25 50 -27 l50 -1 -4
46 c-2 26 -8 53 -13 60 -11 13 -60 17 -71 5z m63 -67 c0 -20 -25 -37 -44 -30
-21 8 -20 20 2 33 24 15 42 13 42 -3z"/>
<path d="M1496 918 c-21 -30 -20 -61 2 -81 21 -19 49 -22 72 -7 21 13 5 23
-18 11 -16 -9 -24 -7 -36 5 -34 33 -4 94 36 73 23 -12 39 -2 18 11 -26 16 -58
11 -74 -12z"/>
<path d="M1610 880 c0 -33 4 -60 10 -60 6 0 10 27 10 60 0 33 -4 60 -10 60 -6
0 -10 -27 -10 -60z"/>
<path d="M1676 918 c-33 -46 -7 -98 47 -98 29 0 47 24 47 64 0 53 -65 76 -94
34z m74 -38 c0 -38 -31 -57 -54 -34 -33 33 -4 94 35 74 12 -7 19 -21 19 -40z"/>
<path d="M1800 878 c0 -32 4 -58 10 -58 6 0 10 20 10 45 0 33 5 47 18 54 27
15 42 -5 42 -56 0 -24 5 -43 10 -43 13 0 13 76 0 101 -8 14 -20 18 -50 17
l-40 -1 0 -59z"/>
<path d="M2587 922 c-50 -55 16 -128 84 -92 24 13 26 72 3 94 -21 22 -67 20
-87 -2z m71 -46 c-2 -13 -12 -22 -25 -24 -20 -3 -23 1 -23 26 0 17 6 32 13 35
19 7 38 -14 35 -37z"/>
<path d="M2720 879 c0 -46 3 -59 15 -59 10 0 15 10 15 29 0 39 9 61 26 61 8 0
14 6 14 14 0 9 -12 14 -35 14 l-35 0 0 -59z"/>
<path d="M2810 920 c-9 -17 -8 -20 10 -20 11 0 20 5 20 10 0 6 7 10 16 10 23
0 11 -24 -16 -30 -28 -7 -45 -32 -37 -53 5 -13 19 -16 57 -16 l50 2 0 46 c0
26 -5 52 -12 59 -20 20 -76 15 -88 -8z m60 -65 c0 -8 -6 -15 -14 -15 -17 0
-28 14 -19 24 12 12 33 6 33 -9z"/>
<path d="M2940 925 c-14 -17 -7 -43 15 -50 8 -3 22 -7 31 -10 8 -3 12 -9 9
-15 -4 -7 -13 -6 -27 1 -15 8 -23 8 -31 0 -16 -16 8 -31 49 -31 61 0 71 52 14
71 -39 14 -39 30 0 23 18 -4 30 -2 30 4 0 24 -71 30 -90 7z"/>
<path d="M3127 922 c-49 -53 21 -132 82 -93 21 14 5 28 -27 23 -16 -2 -33 1
-36 7 -5 7 8 11 38 11 50 0 57 10 30 48 -19 27 -64 29 -87 4z m61 -20 c2 -7
-6 -12 -17 -12 -21 0 -27 11 -14 24 9 9 26 2 31 -12z"/>
<path d="M3260 879 c0 -45 3 -59 14 -59 10 0 16 14 18 42 2 31 8 44 21 46 14
3 17 -4 17 -42 0 -39 3 -46 20 -46 17 0 20 7 20 49 0 58 -12 70 -68 69 l-42 0
0 -59z"/>
<path d="M3557 922 c-50 -55 16 -128 84 -92 24 13 26 72 3 94 -21 22 -67 20
-87 -2z m71 -46 c-2 -13 -12 -22 -25 -24 -20 -3 -23 1 -23 26 0 17 6 32 13 35
19 7 38 -14 35 -37z"/>
<path d="M3790 920 c-9 -17 -8 -20 10 -20 11 0 20 5 20 10 0 6 7 10 16 10 23
0 11 -24 -16 -30 -28 -7 -45 -32 -37 -53 5 -13 19 -16 57 -16 l50 2 0 46 c0
26 -5 52 -12 59 -20 20 -76 15 -88 -8z m60 -65 c0 -8 -6 -15 -14 -15 -17 0
-28 14 -19 24 12 12 33 6 33 -9z"/>
</g>
</svg>
