<?xml version="1.0" standalone="no"?>
<!DOCTYPE svg PUBLIC "-//W3C//DTD SVG 20010904//EN"
 "http://www.w3.org/TR/2001/REC-SVG-20010904/DTD/svg10.dtd">
<svg version="1.0" xmlns="http://www.w3.org/2000/svg"
 width="1600.000000pt" height="1190.000000pt" viewBox="0 0 1600.000000 1190.000000"
 preserveAspectRatio="xMidYMid meet">

<g transform="translate(0.000000,1190.000000) scale(0.100000,-0.100000)"
fill="#000000" stroke="none">
<path d="M1053 10877 l-93 -52 0 -52 c0 -29 2 -53 6 -53 3 0 47 24 98 54 l94
54 43 -25 c24 -13 68 -38 97 -55 l52 -29 0 54 0 55 -90 51 c-49 28 -96 51
-102 51 -7 -1 -55 -24 -105 -53z"/>
<path d="M9980 10785 c0 -32 2 -56 4 -54 8 7 10 98 3 105 -4 4 -7 -19 -7 -51z"/>
<path d="M10051 10801 c-1 -39 -3 -42 -18 -30 -13 11 -13 8 3 -16 l19 -29 3
32 c2 18 1 45 -1 60 -3 18 -4 13 -6 -17z"/>
<path d="M10639 10823 c0 -10 -1 -33 -2 -51 -1 -19 1 -36 5 -39 5 -2 8 21 8
51 0 31 -2 56 -5 56 -3 0 -5 -8 -6 -17z"/>
<path d="M11039 10825 c-7 -31 5 -88 19 -91 7 -1 8 0 2 3 -15 7 -13 63 3 63 8
0 9 3 1 8 -6 4 -13 14 -16 22 -3 11 -6 9 -9 -5z"/>
<path d="M11142 10823 c-4 -10 -5 -36 -1 -58 l6 -40 2 38 c0 22 6 37 14 37 9
0 8 3 -2 9 -7 5 -10 14 -7 20 4 6 5 11 2 11 -3 0 -9 -8 -14 -17z"/>
<path d="M11439 10823 c0 -10 -1 -33 -2 -51 -1 -19 1 -36 5 -39 5 -2 8 21 8
51 0 31 -2 56 -5 56 -3 0 -5 -8 -6 -17z"/>
<path d="M11723 10800 c0 -25 2 -35 4 -22 2 12 2 32 0 45 -2 12 -4 2 -4 -23z"/>
<path d="M11770 10821 c-15 -29 -12 -56 8 -74 24 -22 46 -22 63 0 13 15 12 15
-9 2 -44 -27 -84 37 -47 75 9 9 12 16 6 16 -6 0 -15 -9 -21 -19z"/>
<path d="M11820 10836 c0 -2 7 -7 16 -10 8 -3 12 -2 9 4 -6 10 -25 14 -25 6z"/>
<path d="M11931 10823 c0 -11 3 -13 6 -5 2 6 16 12 29 12 17 0 23 -4 18 -12
-4 -7 -3 -8 4 -4 23 14 12 26 -23 26 -27 0 -35 -4 -34 -17z"/>
<path d="M12032 10823 c-4 -10 -5 -36 -1 -58 l6 -40 2 38 c0 22 6 37 14 37 9
0 8 3 -2 9 -7 5 -10 14 -7 20 4 6 5 11 2 11 -3 0 -9 -8 -14 -17z"/>
<path d="M12307 10819 c4 -14 -4 -31 -28 -55 l-33 -34 40 1 c35 1 36 2 11 8
l-29 6 26 24 c26 25 34 55 17 65 -5 4 -7 -3 -4 -15z"/>
<path d="M12748 10805 c4 -30 1 -35 -17 -35 -14 0 -20 4 -15 12 4 7 3 8 -4 4
-20 -12 -13 -26 13 -26 17 0 25 -6 26 -17 0 -14 2 -15 6 -3 3 8 11 18 17 22 8
5 7 8 -1 8 -8 0 -13 14 -13 35 0 19 -4 35 -8 35 -4 0 -6 -16 -4 -35z"/>
<path d="M12873 10833 c9 -2 23 -2 30 0 6 3 -1 5 -18 5 -16 0 -22 -2 -12 -5z"/>
<path d="M13158 10805 c4 -30 1 -35 -17 -35 -14 0 -20 4 -15 12 4 7 3 8 -4 4
-20 -12 -13 -26 13 -26 17 0 25 -6 26 -17 0 -14 2 -15 6 -3 3 8 11 18 17 22 8
5 7 8 -1 8 -8 0 -13 14 -13 35 0 19 -4 35 -8 35 -4 0 -6 -16 -4 -35z"/>
<path d="M13653 10833 c9 -2 23 -2 30 0 6 3 -1 5 -18 5 -16 0 -22 -2 -12 -5z"/>
<path d="M13840 10821 c-12 -24 -13 -51 0 -71 6 -10 8 -4 4 21 -4 26 -1 40 11
52 9 9 12 17 6 17 -6 0 -15 -9 -21 -19z"/>
<path d="M13887 10830 c6 -8 13 -28 16 -45 l4 -30 2 31 c0 20 -6 37 -16 45
-16 12 -16 12 -6 -1z"/>
<path d="M14051 10823 c0 -11 3 -13 6 -5 2 6 16 12 29 12 17 0 23 -4 18 -12
-4 -7 -3 -8 4 -4 23 14 12 26 -23 26 -27 0 -35 -4 -34 -17z"/>
<path d="M14150 10821 c-12 -24 -13 -51 0 -71 6 -10 8 -4 4 21 -4 26 -1 40 11
52 9 9 12 17 6 17 -6 0 -15 -9 -21 -19z"/>
<path d="M14197 10830 c6 -8 13 -28 16 -45 l4 -30 2 31 c0 20 -6 37 -16 45
-16 12 -16 12 -6 -1z"/>
<path d="M14397 10819 c4 -14 -4 -31 -28 -55 l-33 -34 40 1 c35 1 36 2 11 8
l-29 6 26 24 c26 25 34 55 17 65 -5 4 -7 -3 -4 -15z"/>
<path d="M14431 10823 c0 -11 3 -13 6 -5 2 6 16 12 29 12 17 0 23 -4 18 -12
-4 -7 -3 -8 4 -4 23 14 12 26 -23 26 -27 0 -35 -4 -34 -17z"/>
<path d="M14529 10824 c-16 -19 -1 -48 27 -51 15 -2 14 -1 -3 7 -25 10 -29 30
-11 48 7 7 9 12 6 12 -3 0 -11 -7 -19 -16z"/>
<path d="M14576 10827 c3 -10 9 -15 12 -12 3 3 0 11 -7 18 -10 9 -11 8 -5 -6z"/>
<path d="M14625 10820 c-8 -24 10 -50 34 -49 11 0 9 3 -6 9 -25 10 -30 29 -11
48 9 9 9 12 1 12 -7 0 -15 -9 -18 -20z"/>
<path d="M14676 10827 c3 -10 9 -15 12 -12 3 3 0 11 -7 18 -10 9 -11 8 -5 -6z"/>
<path d="M14738 10833 c6 -2 18 -2 25 0 6 3 1 5 -13 5 -14 0 -19 -2 -12 -5z"/>
<path d="M14867 10819 c4 -13 8 -18 11 -10 2 7 -1 18 -6 23 -8 8 -9 4 -5 -13z"/>
<path d="M14923 10833 c9 -2 23 -2 30 0 6 3 -1 5 -18 5 -16 0 -22 -2 -12 -5z"/>
<path d="M15012 10823 c-4 -10 -5 -36 -1 -58 l6 -40 2 38 c0 22 6 37 14 37 9
0 8 3 -2 9 -7 5 -10 14 -7 20 4 6 5 11 2 11 -3 0 -9 -8 -14 -17z"/>
<path d="M12800 10820 c-13 -8 -12 -10 3 -10 9 0 17 5 17 10 0 12 -1 12 -20 0z"/>
<path d="M14000 10820 c-13 -8 -12 -10 3 -10 9 0 17 5 17 10 0 12 -1 12 -20 0z"/>
<path d="M10092 10785 c0 -16 2 -22 5 -12 2 9 2 23 0 30 -3 6 -5 -1 -5 -18z"/>
<path d="M10218 10803 c6 -2 12 -12 12 -21 0 -15 2 -15 10 -2 9 15 -4 30 -25
29 -5 0 -4 -3 3 -6z"/>
<path d="M10267 10803 c6 -4 13 -24 16 -43 4 -34 4 -33 3 4 -1 26 -6 41 -16
43 -10 3 -11 2 -3 -4z"/>
<path d="M10330 10806 c0 -2 9 -6 20 -9 11 -3 18 -1 14 4 -5 9 -34 13 -34 5z"/>
<path d="M10470 10795 c-26 -31 13 -82 44 -56 19 16 21 42 4 59 -16 16 -33 15
-48 -3z m45 -25 c0 -16 -6 -26 -18 -28 -19 -4 -32 20 -23 44 9 25 41 13 41
-16z"/>
<path d="M10592 10798 c-22 -22 -7 -69 23 -68 5 0 2 5 -7 11 -10 5 -18 19 -18
29 0 10 8 24 18 29 9 6 12 11 7 11 -6 0 -16 -5 -23 -12z"/>
<path d="M10700 10806 c0 -2 9 -6 20 -9 11 -3 18 -1 14 4 -5 9 -34 13 -34 5z"/>
<path d="M10810 10795 c-15 -18 -10 -45 12 -59 12 -7 21 -7 28 0 8 8 4 10 -12
10 -18 -1 -23 4 -23 24 0 19 5 25 22 24 12 0 20 3 17 8 -8 13 -30 9 -44 -7z"/>
<path d="M10910 10806 c0 -2 9 -6 20 -9 11 -3 18 -1 14 4 -5 9 -34 13 -34 5z"/>
<path d="M11230 10795 c-15 -18 -10 -45 12 -59 12 -7 21 -7 28 0 8 8 4 10 -12
10 -18 -1 -23 4 -23 24 0 19 5 25 22 24 12 0 20 3 17 8 -8 13 -30 9 -44 -7z"/>
<path d="M11331 10804 c10 -3 17 -16 17 -30 0 -14 4 -30 9 -35 7 -7 8 3 4 28
-5 28 -11 38 -26 40 -13 1 -15 0 -4 -3z"/>
<path d="M11392 10798 c-22 -22 -7 -69 23 -68 5 0 2 5 -7 11 -10 5 -18 19 -18
29 0 10 8 24 18 29 9 6 12 11 7 11 -6 0 -16 -5 -23 -12z"/>
<path d="M11490 10795 c-26 -31 13 -82 44 -56 19 16 21 42 4 59 -16 16 -33 15
-48 -3z m45 -25 c0 -16 -6 -26 -18 -28 -19 -4 -32 20 -23 44 9 25 41 13 41
-16z"/>
<path d="M12090 10806 c0 -2 9 -6 20 -9 11 -3 18 -1 14 4 -5 9 -34 13 -34 5z"/>
<path d="M12341 10792 c-1 -13 4 -32 9 -43 11 -19 44 -26 54 -10 3 4 -5 6 -18
4 -28 -6 -43 22 -24 45 8 10 9 13 1 9 -6 -4 -14 -1 -16 5 -3 7 -6 3 -6 -10z"/>
<path d="M12441 10792 c-1 -13 4 -32 9 -43 11 -19 44 -26 54 -10 3 4 -5 6 -18
4 -28 -6 -43 22 -24 45 8 10 9 13 1 9 -6 -4 -14 -1 -16 5 -3 7 -6 3 -6 -10z"/>
<path d="M12594 10799 c-3 -6 2 -18 12 -27 17 -16 17 -16 5 0 -7 9 -10 22 -6
28 3 5 4 10 1 10 -3 0 -8 -5 -12 -11z"/>
<path d="M13004 10799 c-3 -6 2 -18 12 -27 17 -16 17 -16 5 0 -7 9 -10 22 -6
28 3 5 4 10 1 10 -3 0 -8 -5 -12 -11z"/>
<path d="M13220 10795 c-15 -18 -10 -45 12 -59 12 -7 21 -7 28 0 8 8 4 10 -12
10 -18 -1 -23 4 -23 24 0 19 5 25 22 24 12 0 20 3 17 8 -8 13 -30 9 -44 -7z"/>
<path d="M13310 10806 c0 -2 9 -6 20 -9 11 -3 18 -1 14 4 -5 9 -34 13 -34 5z"/>
<path d="M13594 10799 c-3 -6 2 -18 12 -27 17 -16 17 -16 5 0 -7 9 -10 22 -6
28 3 5 4 10 1 10 -3 0 -8 -5 -12 -11z"/>
<path d="M13784 10799 c-3 -6 2 -18 12 -27 17 -16 17 -16 5 0 -7 9 -10 22 -6
28 3 5 4 10 1 10 -3 0 -8 -5 -12 -11z"/>
<path d="M14294 10799 c-3 -6 2 -18 12 -27 17 -16 17 -16 5 0 -7 9 -10 22 -6
28 3 5 4 10 1 10 -3 0 -8 -5 -12 -11z"/>
<path d="M12222 10770 c0 -19 2 -27 5 -17 2 9 2 25 0 35 -3 9 -5 1 -5 -18z"/>
<path d="M12850 10789 c0 -5 5 -7 10 -4 6 3 10 8 10 11 0 2 -4 4 -10 4 -5 0
-10 -5 -10 -11z"/>
<path d="M12908 10773 c5 -21 7 -23 10 -9 2 10 0 22 -6 28 -6 6 -7 0 -4 -19z"/>
<path d="M13442 10770 c0 -19 2 -27 5 -17 2 9 2 25 0 35 -3 9 -5 1 -5 -18z"/>
<path d="M13630 10789 c0 -5 5 -7 10 -4 6 3 10 8 10 11 0 2 -4 4 -10 4 -5 0
-10 -5 -10 -11z"/>
<path d="M13688 10773 c5 -21 7 -23 10 -9 2 10 0 22 -6 28 -6 6 -7 0 -4 -19z"/>
<path d="M14720 10789 c0 -5 5 -7 10 -4 6 3 10 8 10 11 0 2 -4 4 -10 4 -5 0
-10 -5 -10 -11z"/>
<path d="M14778 10773 c5 -21 7 -23 10 -9 2 10 0 22 -6 28 -6 6 -7 0 -4 -19z"/>
<path d="M14900 10789 c0 -5 5 -7 10 -4 6 3 10 8 10 11 0 2 -4 4 -10 4 -5 0
-10 -5 -10 -11z"/>
<path d="M14958 10773 c5 -21 7 -23 10 -9 2 10 0 22 -6 28 -6 6 -7 0 -4 -19z"/>
<path d="M10311 10775 c-1 -25 17 -45 39 -44 10 0 9 3 -5 8 -11 4 -23 19 -26
32 -6 21 -7 21 -8 4z"/>
<path d="M10681 10775 c-1 -25 17 -45 39 -44 10 0 9 3 -5 8 -11 4 -23 19 -26
32 -6 21 -7 21 -8 4z"/>
<path d="M10891 10775 c-1 -25 17 -45 39 -44 10 0 9 3 -5 8 -11 4 -23 19 -26
32 -6 21 -7 21 -8 4z"/>
<path d="M12071 10775 c-1 -25 17 -45 39 -44 10 0 9 3 -5 8 -11 4 -23 19 -26
32 -6 21 -7 21 -8 4z"/>
<path d="M13291 10775 c-1 -25 17 -45 39 -44 10 0 9 3 -5 8 -11 4 -23 19 -26
32 -6 21 -7 21 -8 4z"/>
<path d="M14868 10763 c5 -21 7 -23 10 -9 2 10 0 22 -6 28 -6 6 -7 0 -4 -19z"/>
<path d="M1760 10680 l0 -100 -42 21 c-33 17 -55 20 -108 17 -84 -4 -135 -36
-175 -109 -24 -45 -27 -59 -23 -124 3 -63 8 -80 34 -117 62 -89 190 -122 277
-71 36 22 37 22 37 3 0 -17 7 -20 50 -20 l50 0 0 300 0 300 -50 0 -50 0 0
-100z m-41 -177 c61 -47 65 -141 6 -200 -28 -28 -40 -33 -80 -33 -81 0 -135
52 -135 130 0 105 124 166 209 103z"/>
<path d="M11868 10773 c6 -2 18 -2 25 0 6 3 1 5 -13 5 -14 0 -19 -2 -12 -5z"/>
<path d="M11961 10773 c-1 -6 -4 -20 -7 -30 -5 -17 -5 -17 6 0 6 10 9 23 6 30
-3 9 -5 9 -5 0z"/>
<path d="M12648 10773 c6 -2 18 -2 25 0 6 3 1 5 -13 5 -14 0 -19 -2 -12 -5z"/>
<path d="M13058 10773 c6 -2 18 -2 25 0 6 3 1 5 -13 5 -14 0 -19 -2 -12 -5z"/>
<path d="M13478 10773 c6 -2 18 -2 25 0 6 3 1 5 -13 5 -14 0 -19 -2 -12 -5z"/>
<path d="M13938 10773 c6 -2 18 -2 25 0 6 3 1 5 -13 5 -14 0 -19 -2 -12 -5z"/>
<path d="M14081 10773 c-1 -6 -4 -20 -7 -30 -5 -17 -5 -17 6 0 6 10 9 23 6 30
-3 9 -5 9 -5 0z"/>
<path d="M14461 10773 c-1 -6 -4 -20 -7 -30 -5 -17 -5 -17 6 0 6 10 9 23 6 30
-3 9 -5 9 -5 0z"/>
<path d="M11305 10760 c-9 -15 4 -30 23 -29 15 1 14 2 -1 6 -11 3 -16 11 -13
19 6 16 0 19 -9 4z"/>
<path d="M11651 10754 c0 -11 3 -14 6 -6 3 7 2 16 -1 19 -3 4 -6 -2 -5 -13z"/>
<path d="M12540 10764 c0 -26 51 -46 64 -25 4 5 -4 7 -15 4 -15 -4 -27 0 -35
12 -8 11 -14 14 -14 9z"/>
<path d="M12950 10764 c0 -26 51 -46 64 -25 4 5 -4 7 -15 4 -15 -4 -27 0 -35
12 -8 11 -14 14 -14 9z"/>
<path d="M13540 10764 c0 -26 51 -46 64 -25 4 5 -4 7 -15 4 -15 -4 -27 0 -35
12 -8 11 -14 14 -14 9z"/>
<path d="M13730 10764 c0 -26 51 -46 64 -25 4 5 -4 7 -15 4 -15 -4 -27 0 -35
12 -8 11 -14 14 -14 9z"/>
<path d="M14240 10764 c0 -26 51 -46 64 -25 4 5 -4 7 -15 4 -15 -4 -27 0 -35
12 -8 11 -14 14 -14 9z"/>
<path d="M12862 10744 c9 -9 21 -15 27 -13 6 2 -2 10 -17 17 -25 11 -25 11
-10 -4z"/>
<path d="M13642 10744 c9 -9 21 -15 27 -13 6 2 -2 10 -17 17 -25 11 -25 11
-10 -4z"/>
<path d="M14574 10749 c-3 -6 -15 -9 -25 -6 -11 3 -17 1 -13 -4 8 -14 30 -11
44 6 7 8 10 15 7 15 -3 0 -9 -5 -13 -11z"/>
<path d="M14674 10749 c-3 -6 -15 -9 -25 -6 -11 3 -17 1 -13 -4 8 -14 30 -11
44 6 7 8 10 15 7 15 -3 0 -9 -5 -13 -11z"/>
<path d="M14732 10744 c9 -9 21 -15 27 -13 6 2 -2 10 -17 17 -25 11 -25 11
-10 -4z"/>
<path d="M14822 10744 c9 -9 21 -15 27 -13 6 2 -2 10 -17 17 -25 11 -25 11
-10 -4z"/>
<path d="M14912 10744 c9 -9 21 -15 27 -13 6 2 -2 10 -17 17 -25 11 -25 11
-10 -4z"/>
<path d="M10107 10739 c7 -7 15 -10 18 -7 3 3 -2 9 -12 12 -14 6 -15 5 -6 -5z"/>
<path d="M11690 10740 c-23 -7 -23 -8 -3 -9 12 -1 25 4 28 9 3 6 5 10 3 9 -2
-1 -14 -5 -28 -9z"/>
<path d="M13875 10740 c-16 -7 -17 -9 -3 -9 9 -1 20 4 23 9 7 11 7 11 -20 0z"/>
<path d="M14185 10740 c-16 -7 -17 -9 -3 -9 9 -1 20 4 23 9 7 11 7 11 -20 0z"/>
<path d="M2085 10621 c-126 -33 -193 -147 -164 -282 23 -108 133 -180 252
-165 56 8 113 34 140 64 17 19 17 20 -18 41 l-36 21 -39 -20 c-47 -24 -100
-26 -140 -5 -33 17 -60 52 -60 77 0 17 14 18 165 18 l165 0 0 50 c0 75 -46
151 -111 185 -33 18 -115 26 -154 16z m138 -121 c15 -16 27 -35 27 -40 0 -6
-46 -10 -115 -10 -63 0 -115 3 -115 8 0 18 35 55 64 68 48 22 106 11 139 -26z"/>
<path d="M2543 10601 c-27 -17 -33 -18 -33 -6 0 11 -13 15 -55 15 l-55 0 2
-212 3 -213 53 -3 52 -3 0 149 c0 144 1 150 25 176 13 14 35 26 49 26 73 0 86
-32 86 -210 l0 -140 49 0 50 0 3 149 c3 142 4 151 27 175 34 36 82 35 110 0
19 -24 21 -40 21 -175 l0 -149 56 0 56 0 -4 168 c-5 186 -13 217 -71 252 -48
30 -134 27 -181 -5 -45 -30 -44 -30 -73 -3 -34 32 -126 37 -170 9z"/>
<path d="M960 10468 c0 -168 9 -206 55 -247 90 -79 251 -62 313 32 26 39 27
47 31 199 l3 158 -56 0 -56 0 0 -145 c0 -142 -1 -147 -25 -170 -33 -34 -93
-34 -132 -1 -28 24 -28 24 -31 170 l-4 146 -49 0 -49 0 0 -142z"/>
<path d="M3053 10598 c3 -7 41 -103 86 -213 89 -216 91 -230 44 -285 -17 -21
-34 -30 -54 -30 -28 0 -29 -2 -29 -45 l0 -45 43 0 c52 0 97 26 126 73 16 26
165 367 238 545 4 9 -9 12 -48 12 l-54 0 -59 -145 c-32 -80 -62 -147 -66 -150
-4 -2 -34 63 -66 145 l-59 150 -54 0 c-38 0 -52 -3 -48 -12z"/>
<path d="M9833 10510 c0 -25 2 -35 4 -22 2 12 2 32 0 45 -2 12 -4 2 -4 -23z"/>
<path d="M10049 10533 c0 -10 -1 -33 -2 -51 -1 -19 1 -36 5 -39 5 -2 8 21 8
51 0 31 -2 56 -5 56 -3 0 -5 -8 -6 -17z"/>
<path d="M10489 10535 c-7 -31 5 -88 19 -91 7 -1 8 0 2 3 -15 7 -13 63 3 63 8
0 9 3 1 8 -6 4 -13 14 -16 22 -3 11 -6 9 -9 -5z"/>
<path d="M10582 10533 c-4 -10 -5 -36 -1 -58 l6 -40 2 38 c0 22 6 37 14 37 9
0 8 3 -2 9 -7 5 -10 14 -7 20 4 6 5 11 2 11 -3 0 -9 -8 -14 -17z"/>
<path d="M10889 10533 c0 -10 -1 -33 -2 -51 -1 -19 1 -36 5 -39 5 -2 8 21 8
51 0 31 -2 56 -5 56 -3 0 -5 -8 -6 -17z"/>
<path d="M11199 10533 c0 -10 -1 -33 -2 -51 -1 -19 1 -36 5 -39 5 -2 8 21 8
51 0 31 -2 56 -5 56 -3 0 -5 -8 -6 -17z"/>
<path d="M11723 10510 c0 -25 2 -35 4 -22 2 12 2 32 0 45 -2 12 -4 2 -4 -23z"/>
<path d="M11770 10531 c-15 -29 -12 -56 8 -74 24 -22 46 -22 63 0 13 15 12 15
-9 2 -44 -27 -84 37 -47 75 9 9 12 16 6 16 -6 0 -15 -9 -21 -19z"/>
<path d="M11820 10546 c0 -2 7 -7 16 -10 8 -3 12 -2 9 4 -6 10 -25 14 -25 6z"/>
<path d="M11931 10533 c0 -11 3 -13 6 -5 2 6 16 12 29 12 17 0 23 -4 18 -12
-4 -7 -3 -8 4 -4 23 14 12 26 -23 26 -27 0 -35 -4 -34 -17z"/>
<path d="M12032 10533 c-4 -10 -5 -36 -1 -58 l6 -40 2 38 c0 22 6 37 14 37 9
0 8 3 -2 9 -7 5 -10 14 -7 20 4 6 5 11 2 11 -3 0 -9 -8 -14 -17z"/>
<path d="M12307 10529 c4 -14 -4 -31 -28 -55 l-33 -34 40 1 c35 1 36 2 11 8
l-29 6 26 24 c26 25 34 55 17 65 -5 4 -7 -3 -4 -15z"/>
<path d="M12748 10515 c4 -30 1 -35 -17 -35 -14 0 -20 4 -15 12 4 7 3 8 -4 4
-20 -12 -13 -26 13 -26 17 0 25 -6 26 -17 0 -14 2 -15 6 -3 3 8 11 18 17 22 8
5 7 8 -1 8 -8 0 -13 14 -13 35 0 19 -4 35 -8 35 -4 0 -6 -16 -4 -35z"/>
<path d="M12873 10543 c9 -2 23 -2 30 0 6 3 -1 5 -18 5 -16 0 -22 -2 -12 -5z"/>
<path d="M13158 10515 c4 -30 1 -35 -17 -35 -14 0 -20 4 -15 12 4 7 3 8 -4 4
-20 -12 -13 -26 13 -26 17 0 25 -6 26 -17 0 -14 2 -15 6 -3 3 8 11 18 17 22 8
5 7 8 -1 8 -8 0 -13 14 -13 35 0 19 -4 35 -8 35 -4 0 -6 -16 -4 -35z"/>
<path d="M13653 10543 c9 -2 23 -2 30 0 6 3 -1 5 -18 5 -16 0 -22 -2 -12 -5z"/>
<path d="M13838 10525 c-22 -48 22 -109 55 -76 7 7 3 8 -13 4 -38 -10 -56 50
-24 81 8 9 11 16 4 16 -6 0 -16 -11 -22 -25z"/>
<path d="M13887 10540 c6 -8 13 -28 16 -45 l4 -30 2 31 c0 20 -6 37 -16 45
-16 12 -16 12 -6 -1z"/>
<path d="M14051 10533 c0 -11 3 -13 6 -5 2 6 16 12 29 12 17 0 23 -4 18 -12
-4 -7 -3 -8 4 -4 23 14 12 26 -23 26 -27 0 -35 -4 -34 -17z"/>
<path d="M14150 10531 c-12 -24 -13 -51 0 -71 6 -10 8 -4 4 21 -4 26 -1 40 11
52 9 9 12 17 6 17 -6 0 -15 -9 -21 -19z"/>
<path d="M14197 10540 c6 -8 13 -28 16 -45 l4 -30 2 31 c0 20 -6 37 -16 45
-16 12 -16 12 -6 -1z"/>
<path d="M14397 10529 c4 -14 -4 -31 -28 -55 l-33 -34 40 1 c35 1 36 2 11 8
l-29 6 26 24 c26 25 34 55 17 65 -5 4 -7 -3 -4 -15z"/>
<path d="M14431 10533 c0 -11 3 -13 6 -5 2 6 16 12 29 12 17 0 23 -4 18 -12
-4 -7 -3 -8 4 -4 23 14 12 26 -23 26 -27 0 -35 -4 -34 -17z"/>
<path d="M14525 10530 c-8 -24 10 -50 34 -49 11 0 9 3 -6 9 -25 10 -30 29 -11
48 9 9 9 12 1 12 -7 0 -15 -9 -18 -20z"/>
<path d="M14576 10537 c3 -10 9 -15 12 -12 3 3 0 11 -7 18 -10 9 -11 8 -5 -6z"/>
<path d="M14629 10534 c-16 -19 -1 -48 27 -51 15 -2 14 -1 -3 7 -25 10 -29 30
-11 48 7 7 9 12 6 12 -3 0 -11 -7 -19 -16z"/>
<path d="M14676 10537 c3 -10 9 -15 12 -12 3 3 0 11 -7 18 -10 9 -11 8 -5 -6z"/>
<path d="M14743 10543 c9 -2 23 -2 30 0 6 3 -1 5 -18 5 -16 0 -22 -2 -12 -5z"/>
<path d="M14867 10529 c4 -13 8 -18 11 -10 2 7 -1 18 -6 23 -8 8 -9 4 -5 -13z"/>
<path d="M14923 10543 c9 -2 23 -2 30 0 6 3 -1 5 -18 5 -16 0 -22 -2 -12 -5z"/>
<path d="M15012 10533 c-4 -10 -5 -36 -1 -58 l6 -40 2 38 c0 22 6 37 14 37 9
0 8 3 -2 9 -7 5 -10 14 -7 20 4 6 5 11 2 11 -3 0 -9 -8 -14 -17z"/>
<path d="M12800 10530 c-13 -8 -12 -10 3 -10 9 0 17 5 17 10 0 12 -1 12 -20 0z"/>
<path d="M14000 10530 c-13 -8 -12 -10 3 -10 9 0 17 5 17 10 0 12 -1 12 -20 0z"/>
<path d="M10002 10508 c-22 -22 -7 -69 23 -68 5 0 2 5 -7 11 -10 5 -18 19 -18
29 0 10 8 24 18 29 9 6 12 11 7 11 -6 0 -16 -5 -23 -12z"/>
<path d="M10100 10516 c0 -2 9 -6 20 -9 11 -3 18 -1 14 4 -5 9 -34 13 -34 5z"/>
<path d="M10260 10505 c-15 -18 -10 -45 12 -59 12 -7 21 -7 28 0 8 8 4 10 -12
10 -18 -1 -23 4 -23 24 0 19 5 25 22 24 12 0 20 3 17 8 -8 13 -30 9 -44 -7z"/>
<path d="M10350 10516 c0 -2 9 -6 20 -9 11 -3 18 -1 14 4 -5 9 -34 13 -34 5z"/>
<path d="M10670 10505 c-15 -18 -10 -45 12 -59 12 -7 21 -7 28 0 8 8 4 10 -12
10 -18 -1 -23 4 -23 24 0 19 5 25 22 24 12 0 20 3 17 8 -8 13 -30 9 -44 -7z"/>
<path d="M10771 10514 c10 -3 17 -16 17 -30 0 -14 4 -30 9 -35 7 -7 8 3 4 28
-5 28 -11 38 -26 40 -13 1 -15 0 -4 -3z"/>
<path d="M10842 10508 c-22 -22 -7 -69 23 -68 5 0 2 5 -7 11 -10 5 -18 19 -18
29 0 10 8 24 18 29 9 6 12 11 7 11 -6 0 -16 -5 -23 -12z"/>
<path d="M10930 10505 c-26 -31 13 -82 44 -56 19 16 21 42 4 59 -16 16 -33 15
-48 -3z m45 -25 c0 -29 -32 -41 -41 -16 -9 24 4 48 23 44 12 -2 18 -12 18 -28z"/>
<path d="M11052 10495 c0 -16 2 -22 5 -12 2 9 2 23 0 30 -3 6 -5 -1 -5 -18z"/>
<path d="M11152 10508 c-22 -22 -7 -69 23 -68 5 0 2 5 -7 11 -10 5 -18 19 -18
29 0 10 8 24 18 29 9 6 12 11 7 11 -6 0 -16 -5 -23 -12z"/>
<path d="M11250 10516 c0 -2 9 -6 20 -9 11 -3 18 -1 14 4 -5 9 -34 13 -34 5z"/>
<path d="M11398 10513 c6 -2 12 -12 12 -21 0 -15 2 -15 10 -2 9 15 -4 30 -25
29 -5 0 -4 -3 3 -6z"/>
<path d="M11447 10513 c6 -4 13 -24 16 -43 4 -34 4 -33 3 4 -1 26 -6 41 -16
43 -10 3 -11 2 -3 -4z"/>
<path d="M12090 10516 c0 -2 9 -6 20 -9 11 -3 18 -1 14 4 -5 9 -34 13 -34 5z"/>
<path d="M12341 10502 c-1 -13 4 -32 9 -43 11 -19 44 -26 54 -10 3 4 -5 6 -18
4 -28 -6 -43 22 -24 45 8 10 9 13 1 9 -6 -4 -14 -1 -16 5 -3 7 -6 3 -6 -10z"/>
<path d="M12441 10502 c-1 -13 4 -32 9 -43 11 -19 44 -26 54 -10 3 4 -5 6 -18
4 -28 -6 -43 22 -24 45 8 10 9 13 1 9 -6 -4 -14 -1 -16 5 -3 7 -6 3 -6 -10z"/>
<path d="M12594 10509 c-3 -6 2 -18 12 -27 17 -16 17 -16 5 0 -7 9 -10 22 -6
28 3 5 4 10 1 10 -3 0 -8 -5 -12 -11z"/>
<path d="M13004 10509 c-3 -6 2 -18 12 -27 17 -16 17 -16 5 0 -7 9 -10 22 -6
28 3 5 4 10 1 10 -3 0 -8 -5 -12 -11z"/>
<path d="M13220 10505 c-15 -18 -10 -45 12 -59 12 -7 21 -7 28 0 8 8 4 10 -12
10 -18 -1 -23 4 -23 24 0 19 5 25 22 24 12 0 20 3 17 8 -8 13 -30 9 -44 -7z"/>
<path d="M13310 10516 c0 -2 9 -6 20 -9 11 -3 18 -1 14 4 -5 9 -34 13 -34 5z"/>
<path d="M13594 10509 c-3 -6 2 -18 12 -27 17 -16 17 -16 5 0 -7 9 -10 22 -6
28 3 5 4 10 1 10 -3 0 -8 -5 -12 -11z"/>
<path d="M13784 10509 c-3 -6 2 -18 12 -27 17 -16 17 -16 5 0 -7 9 -10 22 -6
28 3 5 4 10 1 10 -3 0 -8 -5 -12 -11z"/>
<path d="M14294 10509 c-3 -6 2 -18 12 -27 17 -16 17 -16 5 0 -7 9 -10 22 -6
28 3 5 4 10 1 10 -3 0 -8 -5 -12 -11z"/>
<path d="M12222 10480 c0 -19 2 -27 5 -17 2 9 2 25 0 35 -3 9 -5 1 -5 -18z"/>
<path d="M12850 10499 c0 -5 5 -7 10 -4 6 3 10 8 10 11 0 2 -4 4 -10 4 -5 0
-10 -5 -10 -11z"/>
<path d="M12908 10483 c5 -21 7 -23 10 -9 2 10 0 22 -6 28 -6 6 -7 0 -4 -19z"/>
<path d="M13442 10480 c0 -19 2 -27 5 -17 2 9 2 25 0 35 -3 9 -5 1 -5 -18z"/>
<path d="M13630 10499 c0 -5 5 -7 10 -4 6 3 10 8 10 11 0 2 -4 4 -10 4 -5 0
-10 -5 -10 -11z"/>
<path d="M13688 10483 c5 -21 7 -23 10 -9 2 10 0 22 -6 28 -6 6 -7 0 -4 -19z"/>
<path d="M14720 10499 c0 -5 5 -7 10 -4 6 3 10 8 10 11 0 2 -4 4 -10 4 -5 0
-10 -5 -10 -11z"/>
<path d="M14778 10483 c5 -21 7 -23 10 -9 2 10 0 22 -6 28 -6 6 -7 0 -4 -19z"/>
<path d="M14900 10499 c0 -5 5 -7 10 -4 6 3 10 8 10 11 0 2 -4 4 -10 4 -5 0
-10 -5 -10 -11z"/>
<path d="M14958 10483 c5 -21 7 -23 10 -9 2 10 0 22 -6 28 -6 6 -7 0 -4 -19z"/>
<path d="M10081 10485 c-1 -25 17 -45 39 -44 10 0 9 3 -5 8 -11 4 -23 19 -26
32 -6 21 -7 21 -8 4z"/>
<path d="M10331 10485 c-1 -25 17 -45 39 -44 10 0 9 3 -5 8 -11 4 -23 19 -26
32 -6 21 -7 21 -8 4z"/>
<path d="M11231 10485 c-1 -25 17 -45 39 -44 10 0 9 3 -5 8 -11 4 -23 19 -26
32 -6 21 -7 21 -8 4z"/>
<path d="M12071 10485 c-1 -25 17 -45 39 -44 10 0 9 3 -5 8 -11 4 -23 19 -26
32 -6 21 -7 21 -8 4z"/>
<path d="M13291 10485 c-1 -25 17 -45 39 -44 10 0 9 3 -5 8 -11 4 -23 19 -26
32 -6 21 -7 21 -8 4z"/>
<path d="M14868 10473 c5 -21 7 -23 10 -9 2 10 0 22 -6 28 -6 6 -7 0 -4 -19z"/>
<path d="M11868 10483 c6 -2 18 -2 25 0 6 3 1 5 -13 5 -14 0 -19 -2 -12 -5z"/>
<path d="M11961 10483 c-1 -6 -4 -20 -7 -30 -5 -17 -5 -17 6 0 6 10 9 23 6 30
-3 9 -5 9 -5 0z"/>
<path d="M12648 10483 c6 -2 18 -2 25 0 6 3 1 5 -13 5 -14 0 -19 -2 -12 -5z"/>
<path d="M13058 10483 c6 -2 18 -2 25 0 6 3 1 5 -13 5 -14 0 -19 -2 -12 -5z"/>
<path d="M13478 10483 c6 -2 18 -2 25 0 6 3 1 5 -13 5 -14 0 -19 -2 -12 -5z"/>
<path d="M13938 10483 c6 -2 18 -2 25 0 6 3 1 5 -13 5 -14 0 -19 -2 -12 -5z"/>
<path d="M14081 10483 c-1 -6 -4 -20 -7 -30 -5 -17 -5 -17 6 0 6 10 9 23 6 30
-3 9 -5 9 -5 0z"/>
<path d="M14461 10483 c-1 -6 -4 -20 -7 -30 -5 -17 -5 -17 6 0 6 10 9 23 6 30
-3 9 -5 9 -5 0z"/>
<path d="M9761 10464 c0 -11 3 -14 6 -6 3 7 2 16 -1 19 -3 4 -6 -2 -5 -13z"/>
<path d="M10745 10470 c-9 -15 4 -30 23 -29 15 1 14 2 -1 6 -11 3 -16 11 -13
19 6 16 0 19 -9 4z"/>
<path d="M11651 10464 c0 -11 3 -14 6 -6 3 7 2 16 -1 19 -3 4 -6 -2 -5 -13z"/>
<path d="M12540 10474 c0 -26 51 -46 64 -25 4 5 -4 7 -15 4 -15 -4 -27 0 -35
12 -8 11 -14 14 -14 9z"/>
<path d="M12950 10474 c0 -26 51 -46 64 -25 4 5 -4 7 -15 4 -15 -4 -27 0 -35
12 -8 11 -14 14 -14 9z"/>
<path d="M13540 10474 c0 -26 51 -46 64 -25 4 5 -4 7 -15 4 -15 -4 -27 0 -35
12 -8 11 -14 14 -14 9z"/>
<path d="M13730 10474 c0 -26 51 -46 64 -25 4 5 -4 7 -15 4 -15 -4 -27 0 -35
12 -8 11 -14 14 -14 9z"/>
<path d="M14240 10474 c0 -26 51 -46 64 -25 4 5 -4 7 -15 4 -15 -4 -27 0 -35
12 -8 11 -14 14 -14 9z"/>
<path d="M12862 10454 c9 -9 21 -15 27 -13 6 2 -2 10 -17 17 -25 11 -25 11
-10 -4z"/>
<path d="M13642 10454 c9 -9 21 -15 27 -13 6 2 -2 10 -17 17 -25 11 -25 11
-10 -4z"/>
<path d="M14574 10459 c-3 -6 -15 -9 -25 -6 -11 3 -17 1 -13 -4 8 -14 30 -11
44 6 7 8 10 15 7 15 -3 0 -9 -5 -13 -11z"/>
<path d="M14674 10459 c-3 -6 -15 -9 -25 -6 -11 3 -17 1 -13 -4 8 -14 30 -11
44 6 7 8 10 15 7 15 -3 0 -9 -5 -13 -11z"/>
<path d="M14732 10454 c9 -9 21 -15 27 -13 6 2 -2 10 -17 17 -25 11 -25 11
-10 -4z"/>
<path d="M14822 10454 c9 -9 21 -15 27 -13 6 2 -2 10 -17 17 -25 11 -25 11
-10 -4z"/>
<path d="M14912 10454 c9 -9 21 -15 27 -13 6 2 -2 10 -17 17 -25 11 -25 11
-10 -4z"/>
<path d="M9800 10450 c-23 -7 -23 -8 -3 -9 12 -1 25 4 28 9 3 6 5 10 3 9 -2
-1 -14 -5 -28 -9z"/>
<path d="M11067 10449 c7 -7 15 -10 18 -7 3 3 -2 9 -12 12 -14 6 -15 5 -6 -5z"/>
<path d="M11510 10441 c0 -11 -5 -22 -10 -24 -6 -3 -5 -4 1 -3 15 3 32 46 19
46 -6 0 -10 -9 -10 -19z"/>
<path d="M11690 10450 c-23 -7 -23 -8 -3 -9 12 -1 25 4 28 9 3 6 5 10 3 9 -2
-1 -14 -5 -28 -9z"/>
<path d="M14185 10450 c-16 -7 -17 -9 -3 -9 9 -1 20 4 23 9 7 11 7 11 -20 0z"/>
<path d="M13030 10195 c0 -32 2 -56 4 -54 8 7 10 98 3 105 -4 4 -7 -19 -7 -51z"/>
<path d="M13101 10211 c-1 -39 -3 -42 -18 -30 -13 11 -13 8 3 -16 l19 -29 3
32 c2 18 1 45 -1 60 -3 18 -4 13 -6 -17z"/>
<path d="M13689 10233 c0 -10 -1 -33 -2 -51 -1 -19 1 -36 5 -39 5 -2 8 21 8
51 0 31 -2 56 -5 56 -3 0 -5 -8 -6 -17z"/>
<path d="M14002 10233 c-4 -10 -5 -36 -1 -58 l6 -40 2 38 c0 22 6 37 14 37 9
0 8 3 -2 9 -7 5 -10 14 -7 20 4 6 5 11 2 11 -3 0 -9 -8 -14 -17z"/>
<path d="M14660 10231 c-12 -24 -13 -51 0 -71 6 -10 8 -4 4 21 -4 26 -1 40 11
52 9 9 12 17 6 17 -6 0 -15 -9 -21 -19z"/>
<path d="M14707 10240 c6 -8 13 -28 16 -45 l4 -30 2 31 c0 20 -6 37 -16 45
-16 12 -16 12 -6 -1z"/>
<path d="M14760 10231 c-12 -24 -13 -51 0 -71 6 -10 8 -4 4 21 -4 26 -1 40 11
52 9 9 12 17 6 17 -6 0 -15 -9 -21 -19z"/>
<path d="M14807 10240 c6 -8 13 -28 16 -45 l4 -30 2 31 c0 20 -6 37 -16 45
-16 12 -16 12 -6 -1z"/>
<path d="M14860 10231 c-12 -24 -13 -51 0 -71 6 -10 8 -4 4 21 -4 26 -1 40 11
52 9 9 12 17 6 17 -6 0 -15 -9 -21 -19z"/>
<path d="M14907 10240 c6 -8 13 -28 16 -45 l4 -30 2 31 c0 20 -6 37 -16 45
-16 12 -16 12 -6 -1z"/>
<path d="M15008 10215 c4 -30 1 -35 -17 -35 -14 0 -20 4 -15 12 4 7 3 8 -4 4
-20 -12 -13 -26 13 -26 17 0 25 -6 26 -17 0 -14 2 -15 6 -3 3 8 11 18 17 22 8
5 7 8 -1 8 -8 0 -13 14 -13 35 0 19 -4 35 -8 35 -4 0 -6 -16 -4 -35z"/>
<path d="M13258 10213 c6 -2 12 -12 12 -21 0 -15 2 -15 10 -2 9 15 -4 30 -25
29 -5 0 -4 -3 3 -6z"/>
<path d="M13307 10213 c6 -4 13 -24 16 -43 4 -34 4 -33 3 4 -1 26 -6 41 -16
43 -10 3 -11 2 -3 -4z"/>
<path d="M13380 10216 c0 -2 9 -6 20 -9 11 -3 18 -1 14 4 -5 9 -34 13 -34 5z"/>
<path d="M13510 10205 c-26 -31 13 -82 44 -56 19 16 21 42 4 59 -16 16 -33 15
-48 -3z m45 -25 c0 -16 -6 -26 -18 -28 -19 -4 -32 20 -23 44 9 25 41 13 41
-16z"/>
<path d="M13642 10208 c-22 -22 -7 -69 23 -68 5 0 2 5 -7 11 -10 5 -18 19 -18
29 0 10 8 24 18 29 9 6 12 11 7 11 -6 0 -16 -5 -23 -12z"/>
<path d="M13740 10216 c0 -2 9 -6 20 -9 11 -3 18 -1 14 4 -5 9 -34 13 -34 5z"/>
<path d="M13930 10216 c0 -2 9 -6 20 -9 11 -3 18 -1 14 4 -5 9 -34 13 -34 5z"/>
<path d="M14070 10216 c0 -2 9 -6 20 -9 11 -3 18 -1 14 4 -5 9 -34 13 -34 5z"/>
<path d="M14210 10216 c0 -2 9 -6 20 -9 11 -3 18 -1 14 4 -5 9 -34 13 -34 5z"/>
<path d="M14310 10216 c0 -2 7 -7 16 -10 8 -3 12 -2 9 4 -6 10 -25 14 -25 6z"/>
<path d="M14380 10205 c-15 -18 -10 -45 12 -59 12 -7 21 -7 28 0 8 8 4 10 -12
10 -18 -1 -23 4 -23 24 0 19 5 25 22 24 12 0 20 3 17 8 -8 13 -30 9 -44 -7z"/>
<path d="M14521 10214 c10 -3 17 -16 17 -30 0 -14 4 -30 9 -35 7 -7 8 3 4 28
-5 28 -11 38 -26 40 -13 1 -15 0 -4 -3z"/>
<path d="M13361 10185 c-1 -25 17 -45 39 -44 10 0 9 3 -5 8 -11 4 -23 19 -26
32 -6 21 -7 21 -8 4z"/>
<path d="M13721 10185 c-1 -25 17 -45 39 -44 10 0 9 3 -5 8 -11 4 -23 19 -26
32 -6 21 -7 21 -8 4z"/>
<path d="M13911 10185 c-1 -25 17 -45 39 -44 10 0 9 3 -5 8 -11 4 -23 19 -26
32 -6 21 -7 21 -8 4z"/>
<path d="M14051 10185 c-1 -25 17 -45 39 -44 10 0 9 3 -5 8 -11 4 -23 19 -26
32 -6 21 -7 21 -8 4z"/>
<path d="M14191 10185 c-1 -25 17 -45 39 -44 10 0 9 3 -5 8 -11 4 -23 19 -26
32 -6 21 -7 21 -8 4z"/>
<path d="M14495 10170 c-9 -15 4 -30 23 -29 15 1 14 2 -1 6 -11 3 -16 11 -13
19 6 16 0 19 -9 4z"/>
<path d="M13157 10149 c7 -7 15 -10 18 -7 3 3 -2 9 -12 12 -14 6 -15 5 -6 -5z"/>
<path d="M14695 10150 c-16 -7 -17 -9 -3 -9 9 -1 20 4 23 9 7 11 7 11 -20 0z"/>
<path d="M14795 10150 c-16 -7 -17 -9 -3 -9 9 -1 20 4 23 9 7 11 7 11 -20 0z"/>
<path d="M14895 10150 c-16 -7 -17 -9 -3 -9 9 -1 20 4 23 9 7 11 7 11 -20 0z"/>
<path d="M5097 8843 c-12 -11 -8 -23 7 -23 8 0 16 7 20 15 5 15 -14 21 -27 8z"/>
<path d="M1003 8785 c-44 -31 -35 -131 12 -149 44 -17 113 10 89 34 -8 8 -14
9 -18 1 -4 -6 -21 -11 -37 -11 -22 0 -32 6 -39 26 -22 57 20 110 64 81 32 -21
56 -5 25 17 -29 20 -68 21 -96 1z"/>
<path d="M1170 8715 l0 -85 60 0 c47 0 60 3 60 15 0 11 -12 15 -45 15 -38 0
-45 3 -45 20 0 17 7 20 40 20 29 0 40 4 40 15 0 11 -11 15 -40 15 -33 0 -40 3
-40 20 0 17 7 20 40 20 29 0 40 4 40 15 0 12 -13 15 -55 15 l-55 0 0 -85z"/>
<path d="M1360 8716 c0 -68 3 -86 14 -86 9 0 16 12 18 32 4 44 24 46 49 4 13
-22 29 -36 41 -36 19 0 19 1 -2 31 -20 28 -21 31 -6 48 18 19 20 48 7 70 -5 8
-32 16 -65 19 l-56 4 0 -86z m95 29 c0 -15 -8 -21 -32 -23 -30 -3 -33 -1 -33
23 0 24 3 26 33 23 24 -2 32 -8 32 -23z"/>
<path d="M1540 8786 c0 -8 10 -16 23 -18 20 -3 22 -9 25 -70 2 -52 6 -68 17
-68 12 0 15 15 15 70 0 63 2 70 20 70 11 0 20 7 20 15 0 12 -13 15 -60 15 -45
0 -60 -3 -60 -14z"/>
<path d="M1720 8715 c0 -69 3 -85 15 -85 12 0 15 16 15 85 0 69 -3 85 -15 85
-12 0 -15 -16 -15 -85z"/>
<path d="M1820 8715 c0 -69 3 -85 15 -85 10 0 15 11 15 35 0 33 2 35 35 35 24
0 35 5 35 15 0 10 -11 15 -35 15 -28 0 -35 4 -35 20 0 17 7 20 40 20 29 0 40
4 40 15 0 12 -13 15 -55 15 l-55 0 0 -85z"/>
<path d="M1990 8715 c0 -69 3 -85 15 -85 12 0 15 16 15 85 0 69 -3 85 -15 85
-12 0 -15 -16 -15 -85z"/>
<path d="M2113 8785 c-44 -31 -35 -131 12 -149 44 -17 113 10 89 34 -8 8 -14
9 -18 1 -4 -6 -21 -11 -37 -11 -22 0 -32 6 -39 26 -22 57 20 110 64 81 32 -21
56 -5 25 17 -29 20 -68 21 -96 1z"/>
<path d="M2306 8723 c-14 -43 -26 -81 -26 -86 0 -16 28 -6 33 13 4 15 14 20
37 20 23 0 33 -5 37 -20 3 -11 13 -20 23 -20 17 0 17 6 -9 83 -22 64 -32 83
-48 85 -18 3 -25 -8 -47 -75z m58 15 c10 -38 7 -48 -14 -48 -11 0 -20 6 -20
13 0 23 12 57 20 57 4 0 10 -10 14 -22z"/>
<path d="M2480 8714 l0 -87 53 6 c63 8 87 32 87 87 0 51 -35 80 -96 80 l-44 0
0 -86z m94 40 c35 -34 9 -94 -40 -94 -22 0 -24 3 -24 55 0 52 2 55 24 55 14 0
32 -7 40 -16z"/>
<path d="M2700 8780 c-27 -27 -35 -65 -20 -101 34 -82 150 -54 150 36 0 70
-83 112 -130 65z m78 -16 c43 -30 22 -104 -29 -104 -23 0 -32 6 -39 26 -12 31
-3 71 19 84 21 13 23 12 49 -6z"/>
<path d="M2980 8714 l0 -87 53 6 c63 8 87 32 87 87 0 51 -35 80 -96 80 l-44 0
0 -86z m94 40 c35 -34 9 -94 -40 -94 -22 0 -24 3 -24 55 0 52 2 55 24 55 14 0
32 -7 40 -16z"/>
<path d="M3180 8715 l0 -85 60 0 c47 0 60 3 60 15 0 11 -12 15 -45 15 -38 0
-45 3 -45 20 0 17 7 20 40 20 29 0 40 4 40 15 0 11 -11 15 -40 15 -33 0 -40 3
-40 20 0 17 7 20 40 20 29 0 40 4 40 15 0 12 -13 15 -55 15 l-55 0 0 -85z"/>
<path d="M3440 8715 c0 -69 3 -85 15 -85 10 0 15 11 15 35 0 33 2 35 35 35 24
0 35 5 35 15 0 10 -11 15 -35 15 -28 0 -35 4 -35 20 0 17 7 20 40 20 29 0 40
4 40 15 0 12 -13 15 -55 15 l-55 0 0 -85z"/>
<path d="M3610 8715 c0 -69 3 -85 15 -85 12 0 15 16 15 85 0 69 -3 85 -15 85
-12 0 -15 -16 -15 -85z"/>
<path d="M3710 8715 c0 -68 3 -85 15 -85 10 0 15 15 17 58 l3 57 35 -57 c21
-36 42 -58 52 -58 16 0 18 10 18 85 0 69 -3 85 -15 85 -12 0 -15 -13 -15 -56
0 -64 -8 -63 -47 6 -17 30 -35 50 -45 50 -16 0 -18 -11 -18 -85z"/>
<path d="M3936 8723 c-14 -43 -26 -81 -26 -86 0 -16 28 -6 33 13 4 15 14 20
37 20 23 0 33 -5 37 -20 3 -11 13 -20 23 -20 17 0 17 6 -9 83 -22 64 -32 83
-48 85 -18 3 -25 -8 -47 -75z m58 15 c10 -38 7 -48 -14 -48 -11 0 -20 6 -20
13 0 23 12 57 20 57 4 0 10 -10 14 -22z"/>
<path d="M4110 8715 l0 -85 50 0 c38 0 50 4 50 15 0 10 -11 15 -35 15 l-35 0
0 70 c0 56 -3 70 -15 70 -12 0 -15 -16 -15 -85z"/>
<path d="M4270 8715 c0 -69 3 -85 15 -85 12 0 15 16 15 85 0 69 -3 85 -15 85
-12 0 -15 -16 -15 -85z"/>
<path d="M4360 8786 c0 -10 13 -16 41 -18 l40 -3 -40 -54 c-56 -75 -54 -81 24
-81 51 0 65 3 65 15 0 11 -11 15 -40 15 -22 0 -40 3 -40 6 0 4 16 28 35 54 51
70 48 80 -25 80 -46 0 -60 -3 -60 -14z"/>
<path d="M4566 8723 c-14 -43 -26 -81 -26 -86 0 -16 28 -6 33 13 4 15 14 20
37 20 23 0 33 -5 37 -20 3 -11 13 -20 23 -20 17 0 17 6 -9 83 -22 64 -32 83
-48 85 -18 3 -25 -8 -47 -75z m58 15 c10 -38 7 -48 -14 -48 -11 0 -20 6 -20
13 0 23 12 57 20 57 4 0 10 -10 14 -22z"/>
<path d="M4753 8785 c-44 -31 -35 -131 12 -149 44 -17 113 10 89 34 -8 8 -14
9 -18 1 -4 -6 -21 -11 -37 -11 -22 0 -32 6 -39 26 -22 57 20 110 64 81 32 -21
56 -5 25 17 -29 20 -68 21 -96 1z"/>
<path d="M4930 8715 c0 -69 3 -85 15 -85 12 0 15 16 15 85 0 69 -3 85 -15 85
-12 0 -15 -16 -15 -85z"/>
<path d="M5050 8780 c-27 -27 -35 -65 -20 -101 34 -82 150 -54 150 36 0 70
-83 112 -130 65z m78 -16 c43 -30 22 -104 -29 -104 -23 0 -32 6 -39 26 -12 31
-3 71 19 84 21 13 23 12 49 -6z"/>
<path d="M5250 8715 c0 -68 3 -85 15 -85 10 0 15 15 17 58 l3 57 35 -57 c21
-36 42 -58 52 -58 16 0 18 10 18 85 0 69 -3 85 -15 85 -12 0 -15 -13 -15 -56
0 -64 -8 -63 -47 6 -17 30 -35 50 -45 50 -16 0 -18 -11 -18 -85z"/>
<path d="M8949 8181 c-17 -18 -29 -40 -29 -56 0 -32 49 -85 80 -85 29 0 76 26
84 45 17 46 4 91 -35 110 -42 22 -67 18 -100 -14z"/>
<path d="M2091 8088 c-17 -39 -30 -73 -28 -75 4 -3 188 118 212 139 5 4 -27 8
-72 8 l-80 0 -32 -72z"/>
<path d="M7587 8125 c-61 -20 -123 -81 -133 -129 -18 -96 38 -172 178 -242 48
-24 103 -58 122 -75 31 -26 36 -37 36 -73 0 -119 -181 -143 -260 -34 -15 21
-36 65 -46 98 -10 33 -21 60 -26 60 -4 0 -8 -49 -8 -108 l0 -108 49 -18 c75
-27 186 -32 254 -12 112 33 185 137 158 227 -20 65 -71 112 -191 174 -60 30
-118 67 -129 81 -59 75 17 162 117 135 59 -16 87 -43 118 -116 16 -36 32 -65
36 -65 5 0 8 42 8 93 l0 94 -42 13 c-68 20 -186 22 -241 5z"/>
<path d="M990 8110 c0 -5 8 -10 18 -10 10 0 28 -7 40 -16 22 -15 22 -18 22
-283 0 -247 -1 -269 -18 -284 -10 -10 -28 -17 -40 -17 -12 0 -22 -4 -22 -10 0
-6 42 -10 105 -10 63 0 105 4 105 10 0 6 -11 10 -23 10 -13 0 -31 8 -40 18
-15 16 -17 50 -17 268 l1 249 103 -260 c138 -349 122 -348 249 -8 l96 258 0
-247 c1 -244 1 -247 -21 -262 -12 -9 -30 -16 -40 -16 -10 0 -18 -4 -18 -10 0
-6 60 -10 160 -10 100 0 160 4 160 10 0 6 -11 10 -23 10 -13 0 -31 8 -40 18
-15 16 -17 51 -17 280 0 249 1 263 20 282 11 11 29 20 40 20 11 0 20 5 20 10
0 7 -44 10 -126 8 l-126 -3 -71 -192 c-39 -106 -75 -189 -79 -185 -4 4 -36 84
-72 177 -35 94 -67 178 -71 188 -6 15 -23 17 -141 17 -83 0 -134 -4 -134 -10z"/>
<path d="M5590 8110 c0 -5 9 -10 20 -10 11 0 29 -9 40 -20 19 -19 20 -33 20
-269 0 -140 -4 -261 -10 -276 -21 -56 -67 -35 -118 57 -15 27 -30 48 -34 48
-5 0 -8 -35 -8 -79 l0 -78 31 -7 c88 -17 180 -1 230 41 57 48 62 75 67 326 4
218 5 228 25 242 12 8 29 15 39 15 10 0 18 5 18 10 0 6 -60 10 -160 10 -100 0
-160 -4 -160 -10z"/>
<path d="M2953 8057 c-47 -40 -62 -58 -62 -79 -1 -26 -4 -28 -41 -28 -33 0
-40 -3 -40 -19 0 -16 8 -20 38 -23 l37 -3 5 -188 5 -189 33 -29 c24 -22 42
-29 73 -29 50 0 103 24 129 58 28 35 25 43 -12 25 -28 -14 -35 -14 -57 -2
l-26 15 -3 172 -2 172 55 0 c48 0 55 2 55 20 0 18 -7 20 -55 20 l-55 0 0 80
c0 44 -3 80 -7 79 -5 0 -36 -23 -70 -52z"/>
<path d="M9863 8057 c-47 -40 -62 -58 -62 -79 -1 -26 -4 -28 -41 -28 -33 0
-40 -3 -40 -19 0 -16 8 -20 38 -23 l37 -3 5 -188 5 -189 33 -29 c24 -22 42
-29 73 -29 50 0 103 24 129 58 28 35 25 43 -12 25 -28 -14 -35 -14 -57 -2
l-26 15 -3 172 -2 172 55 0 c48 0 55 2 55 20 0 18 -7 20 -55 20 l-55 0 0 80
c0 44 -3 80 -7 79 -5 0 -36 -23 -70 -52z"/>
<path d="M1994 7937 c-52 -25 -97 -73 -107 -114 -5 -22 -2 -23 54 -23 l59 0 0
31 c0 32 15 69 34 81 6 4 25 8 43 8 43 0 63 -30 63 -95 l0 -50 -104 -49 c-58
-26 -117 -61 -132 -77 -49 -51 -29 -130 41 -163 61 -29 112 -19 167 32 15 14
29 24 30 21 2 -2 8 -13 14 -24 29 -53 106 -57 164 -9 31 27 32 51 1 35 -40
-22 -46 -1 -46 167 0 134 -3 162 -18 185 -29 44 -62 60 -140 64 -61 3 -80 0
-123 -20z m146 -281 c0 -63 -4 -87 -16 -96 -23 -20 -72 -16 -96 7 -24 24 -28
84 -8 108 13 16 96 64 113 65 4 0 7 -38 7 -84z"/>
<path d="M2480 7938 c-59 -30 -84 -74 -76 -131 9 -58 51 -106 128 -147 83 -43
108 -67 108 -101 0 -34 -24 -49 -77 -49 -56 0 -97 30 -124 89 -12 28 -26 51
-31 51 -4 0 -8 -34 -8 -75 0 -73 1 -76 28 -86 15 -6 59 -14 97 -16 152 -11
252 79 215 191 -14 43 -53 77 -134 118 -79 39 -106 65 -106 100 0 35 34 53 83
44 47 -9 85 -41 107 -90 l19 -41 0 76 1 76 -37 7 c-78 12 -148 7 -193 -16z"/>
<path d="M3362 7947 c-52 -19 -100 -64 -129 -120 -36 -70 -39 -181 -6 -243 28
-52 72 -90 121 -104 94 -26 174 0 243 78 41 47 40 66 -3 38 -13 -8 -40 -18
-61 -21 -103 -19 -183 41 -202 153 l-7 42 157 0 158 0 -6 40 c-15 111 -148
179 -265 137z m118 -59 c11 -18 20 -43 20 -55 0 -22 -3 -23 -86 -23 l-86 0 6
32 c10 49 42 78 88 78 32 0 41 -5 58 -32z"/>
<path d="M3775 7926 c-97 -32 -100 -35 -50 -51 13 -4 15 -30 13 -182 l-3 -178
-30 -15 c-30 -15 -29 -15 43 -18 112 -4 221 2 197 11 -52 21 -50 15 -53 190
-2 163 -2 166 20 178 20 11 25 8 54 -25 38 -44 73 -48 103 -10 12 15 21 40 21
56 0 34 -39 78 -70 78 -31 0 -74 -25 -103 -60 -14 -16 -28 -30 -31 -30 -3 0
-6 20 -8 44 l-3 45 -100 -33z"/>
<path d="M4452 7947 c-52 -19 -100 -64 -129 -120 -36 -70 -39 -181 -6 -243 28
-52 72 -90 121 -104 94 -26 174 0 243 78 41 47 40 66 -3 38 -13 -8 -40 -18
-61 -21 -103 -19 -183 41 -202 153 l-7 42 157 0 158 0 -6 40 c-15 111 -148
179 -265 137z m118 -59 c11 -18 20 -43 20 -55 0 -22 -3 -23 -86 -23 l-86 0 6
32 c10 49 42 78 88 78 32 0 41 -5 58 -32z"/>
<path d="M4863 7929 c-90 -29 -118 -49 -69 -49 13 0 27 -7 30 -16 10 -27 7
-324 -4 -345 -6 -10 -17 -19 -25 -19 -7 0 -17 -4 -20 -10 -4 -6 38 -10 119
-10 77 0 126 4 126 10 0 6 -7 10 -15 10 -29 0 -36 38 -33 197 l3 158 38 9 c34
9 40 7 65 -17 25 -26 27 -33 30 -137 5 -141 -3 -201 -29 -207 -51 -14 -7 -23
108 -23 125 0 134 2 91 24 -22 11 -23 18 -29 181 -3 94 -9 179 -14 190 -39 94
-157 113 -230 38 l-35 -36 0 41 c0 23 -3 42 -7 41 -5 0 -50 -14 -100 -30z"/>
<path d="M6074 7937 c-52 -25 -97 -73 -107 -114 -5 -22 -2 -23 54 -23 l59 0 0
31 c0 32 15 69 34 81 6 4 25 8 43 8 43 0 63 -30 63 -95 l0 -50 -104 -49 c-58
-26 -117 -61 -132 -77 -49 -51 -29 -130 41 -163 61 -29 112 -19 167 32 15 14
29 24 30 21 2 -2 8 -13 14 -24 29 -53 106 -57 164 -9 31 27 32 51 1 35 -40
-22 -46 -1 -46 167 0 134 -3 162 -18 185 -29 44 -62 60 -140 64 -61 3 -80 0
-123 -20z m146 -281 c0 -63 -4 -87 -16 -96 -23 -20 -72 -16 -96 7 -24 24 -28
84 -8 108 13 16 96 64 113 65 4 0 7 -38 7 -84z"/>
<path d="M7044 7937 c-52 -25 -97 -73 -107 -114 -5 -22 -2 -23 54 -23 l59 0 0
31 c0 32 15 69 34 81 6 4 25 8 43 8 43 0 63 -30 63 -95 l0 -50 -104 -49 c-58
-26 -117 -61 -132 -77 -49 -51 -29 -130 41 -163 61 -29 112 -19 167 32 15 14
29 24 30 21 2 -2 8 -13 14 -24 29 -53 106 -57 164 -9 31 27 32 51 1 35 -40
-22 -46 -1 -46 167 0 134 -3 162 -18 185 -29 44 -62 60 -140 64 -61 3 -80 0
-123 -20z m146 -281 c0 -63 -4 -87 -16 -96 -23 -20 -72 -16 -96 7 -24 24 -28
84 -8 108 13 16 96 64 113 65 4 0 7 -38 7 -84z"/>
<path d="M8162 7947 c-45 -14 -118 -81 -144 -131 -31 -58 -31 -175 -1 -231 11
-22 32 -50 45 -62 53 -50 145 -67 211 -39 41 17 140 126 114 126 -1 0 -20 -9
-42 -20 -106 -54 -214 13 -223 140 -6 80 4 123 35 160 38 46 70 38 102 -24 33
-63 49 -73 89 -57 38 16 48 42 32 81 -24 57 -131 85 -218 57z"/>
<path d="M8525 7926 c-97 -32 -100 -35 -50 -51 13 -4 15 -30 13 -182 l-3 -178
-30 -15 c-30 -15 -29 -15 43 -18 112 -4 221 2 197 11 -52 21 -50 15 -53 190
-2 163 -2 166 20 178 20 11 25 8 54 -25 38 -44 73 -48 103 -10 12 15 21 40 21
56 0 34 -39 78 -70 78 -31 0 -74 -25 -103 -60 -14 -16 -28 -30 -31 -30 -3 0
-6 20 -8 44 l-3 45 -100 -33z"/>
<path d="M8965 7926 c-97 -32 -100 -35 -50 -51 13 -4 15 -30 13 -182 -3 -173
-4 -178 -26 -189 -44 -22 -34 -24 102 -24 89 0 135 4 131 10 -3 6 -14 10 -25
10 -10 0 -21 7 -24 16 -3 9 -6 112 -6 230 0 118 -3 214 -7 213 -5 0 -53 -15
-108 -33z"/>
<path d="M9261 7929 c-104 -32 -112 -36 -87 -44 9 -3 23 -7 31 -10 13 -4 15
-41 13 -277 -3 -272 -3 -272 -26 -284 -44 -22 -34 -24 111 -24 91 0 147 4 147
10 0 6 -11 10 -24 10 -43 0 -56 24 -56 107 0 67 2 74 18 68 133 -51 275 54
289 215 19 211 -161 340 -287 205 l-25 -27 -5 40 -5 40 -94 -29z m211 -79 c51
-40 81 -174 58 -259 -21 -79 -83 -114 -138 -75 -21 15 -22 21 -22 179 0 121 3
165 13 168 27 12 66 6 89 -13z"/>
<path d="M10193 7950 c-77 -31 -46 -150 38 -150 83 0 111 108 38 145 -32 17
-44 18 -76 5z"/>
<path d="M6436 7923 c22 -21 48 -80 104 -235 l75 -208 46 0 46 0 68 183 c84
224 98 252 133 271 26 14 23 15 -58 15 -81 0 -84 -1 -57 -15 15 -8 27 -21 27
-29 0 -13 -61 -188 -90 -260 -12 -29 -13 -27 -56 100 -24 71 -44 140 -44 152
0 14 10 28 28 37 25 14 17 15 -112 16 l-138 0 28 -27z"/>
<path d="M10175 7605 c-16 -15 -25 -36 -25 -55 0 -19 9 -40 25 -55 49 -50 135
-15 135 55 0 41 -39 80 -80 80 -19 0 -40 -9 -55 -25z"/>
<path d="M5379 7081 c-17 -18 -29 -40 -29 -56 0 -32 49 -85 80 -85 29 0 76 26
84 45 17 46 4 91 -35 110 -42 22 -67 18 -100 -14z"/>
<path d="M9443 7072 c-94 -31 -105 -39 -70 -47 14 -4 28 -16 31 -28 10 -37 7
-544 -4 -571 -6 -16 -17 -26 -30 -26 -11 0 -20 -4 -20 -10 0 -6 51 -10 132
-10 130 0 140 2 96 24 l-23 12 -3 342 c-2 264 -5 342 -15 341 -6 -1 -49 -13
-94 -27z"/>
<path d="M3493 7027 l-42 -21 -97 -250 c-100 -258 -138 -346 -152 -346 -5 0
-17 -7 -28 -15 -17 -13 -8 -14 94 -15 73 0 111 4 107 10 -3 6 -15 10 -25 10
-36 0 -53 29 -47 84 2 28 9 63 15 79 l12 27 114 0 114 0 26 -65 c33 -84 34
-113 1 -125 -14 -5 -25 -12 -25 -15 0 -3 65 -5 145 -5 80 0 145 4 145 9 0 5
-9 11 -19 14 -10 2 -26 15 -35 29 -8 13 -68 158 -132 321 -64 163 -120 296
-123 295 -3 0 -25 -10 -48 -21z m1 -271 c25 -65 46 -120 46 -122 0 -2 -43 -4
-96 -4 -87 0 -96 2 -90 18 36 97 90 232 92 230 1 -2 23 -56 48 -122z"/>
<path d="M7293 7027 l-42 -21 -97 -250 c-100 -258 -138 -346 -152 -346 -5 0
-17 -7 -28 -15 -17 -13 -8 -14 94 -15 73 0 111 4 107 10 -3 6 -15 10 -25 10
-36 0 -53 29 -47 84 2 28 9 63 15 79 l12 27 114 0 114 0 26 -65 c33 -84 34
-113 1 -125 -14 -5 -25 -12 -25 -15 0 -3 65 -5 145 -5 80 0 145 4 145 9 0 5
-9 11 -19 14 -10 2 -26 15 -35 29 -8 13 -68 158 -132 321 -64 163 -120 296
-123 295 -3 0 -25 -10 -48 -21z m1 -271 c25 -65 46 -120 46 -122 0 -2 -43 -4
-96 -4 -87 0 -96 2 -90 18 36 97 90 232 92 230 1 -2 23 -56 48 -122z"/>
<path d="M4027 7025 c-61 -20 -123 -81 -133 -129 -18 -96 38 -172 178 -242 48
-24 103 -58 122 -75 31 -26 36 -37 36 -73 0 -119 -181 -143 -260 -34 -15 21
-36 65 -46 98 -10 33 -21 60 -26 60 -4 0 -8 -49 -8 -108 l0 -108 49 -18 c75
-27 186 -32 254 -12 112 33 185 137 158 227 -20 65 -71 112 -191 174 -60 30
-118 67 -129 81 -59 75 17 162 117 135 59 -16 87 -43 118 -116 16 -36 32 -65
36 -65 5 0 8 42 8 93 l0 94 -42 13 c-68 20 -186 22 -241 5z"/>
<path d="M1868 7007 c-86 -37 -133 -79 -170 -155 -30 -59 -33 -76 -33 -152 0
-76 3 -93 33 -152 51 -104 145 -166 268 -176 121 -9 217 34 274 125 33 52 36
63 18 63 -7 0 -25 -20 -40 -45 -14 -24 -46 -56 -69 -72 -37 -24 -52 -28 -118
-28 -63 0 -81 4 -108 23 -63 44 -100 169 -90 303 13 162 81 259 183 259 72 0
142 -60 190 -162 22 -47 38 -49 30 -5 -3 17 -8 62 -12 99 -6 63 -8 68 -38 79
-17 6 -83 13 -146 16 -104 3 -120 2 -172 -20z"/>
<path d="M10939 7017 c-155 -58 -209 -259 -100 -368 65 -66 151 -74 226 -24
l36 25 -6 -22 c-12 -41 -66 -118 -107 -152 -21 -19 -67 -48 -101 -66 -75 -40
-70 -36 -63 -49 8 -13 130 30 205 72 84 48 166 130 202 204 27 54 32 75 32
136 0 74 -24 149 -61 190 -49 55 -186 83 -263 54z m130 -43 c30 -38 44 -97 45
-192 1 -97 -10 -112 -79 -112 -46 0 -75 23 -94 73 -14 35 -14 131 -1 176 22
77 89 106 129 55z"/>
<path d="M990 7010 c0 -5 8 -10 18 -10 10 0 28 -7 40 -16 22 -15 22 -18 22
-283 0 -247 -1 -269 -18 -284 -10 -10 -28 -17 -40 -17 -12 0 -22 -4 -22 -10 0
-6 101 -10 284 -10 l283 0 7 77 c13 159 5 192 -27 103 -20 -57 -57 -104 -98
-126 -34 -17 -145 -30 -183 -20 l-26 6 0 135 0 135 65 0 c57 0 69 -3 90 -25
14 -13 25 -33 25 -44 0 -11 5 -23 10 -26 6 -4 10 37 10 115 0 78 -4 119 -10
115 -5 -3 -10 -15 -10 -26 0 -11 -11 -31 -25 -44 -21 -22 -33 -25 -90 -25
l-65 0 0 131 0 131 73 -7 c124 -12 182 -53 218 -157 22 -63 32 -45 26 45 -4
45 -7 97 -7 115 l0 32 -275 0 c-177 0 -275 -4 -275 -10z"/>
<path d="M2320 7010 c0 -5 8 -10 18 -10 10 0 28 -7 40 -16 22 -15 22 -18 22
-283 0 -247 -1 -269 -18 -284 -10 -10 -28 -17 -40 -17 -12 0 -22 -4 -22 -10 0
-6 42 -10 105 -10 63 0 105 4 105 10 0 6 -11 10 -23 10 -13 0 -31 8 -40 18
-15 16 -17 50 -17 268 l1 249 103 -260 c138 -349 122 -348 249 -8 l96 258 1
-247 c0 -244 0 -247 -22 -262 -12 -9 -30 -16 -40 -16 -10 0 -18 -4 -18 -10 0
-6 60 -10 160 -10 100 0 160 4 160 10 0 6 -11 10 -23 10 -13 0 -31 8 -40 18
-15 16 -17 51 -17 280 0 249 1 263 20 282 11 11 29 20 40 20 11 0 20 5 20 10
0 7 -44 10 -126 8 l-126 -3 -71 -192 c-39 -106 -75 -189 -79 -185 -4 4 -36 84
-72 177 -35 94 -67 178 -71 188 -6 15 -23 17 -141 17 -83 0 -134 -4 -134 -10z"/>
<path d="M6293 6957 c-47 -40 -62 -58 -62 -79 -1 -26 -4 -28 -41 -28 -33 0
-40 -3 -40 -19 0 -16 8 -20 38 -23 l37 -3 5 -188 5 -189 33 -29 c24 -22 42
-29 73 -29 50 0 103 24 129 58 28 35 25 43 -12 25 -28 -14 -35 -14 -57 -2
l-26 15 -3 172 -2 172 55 0 c48 0 55 2 55 20 0 18 -7 20 -55 20 l-55 0 0 80
c0 44 -3 80 -7 79 -5 0 -36 -23 -70 -52z"/>
<path d="M4592 6847 c-45 -14 -118 -81 -144 -131 -31 -58 -31 -175 -1 -231 11
-22 32 -50 45 -62 53 -50 145 -67 211 -39 41 17 140 126 114 126 -1 0 -20 -9
-42 -20 -106 -54 -214 13 -223 140 -6 80 4 123 35 160 38 46 70 38 102 -24 33
-63 49 -73 89 -57 38 16 48 42 32 81 -24 57 -131 85 -218 57z"/>
<path d="M4965 6826 c-97 -32 -100 -35 -50 -51 13 -4 15 -30 13 -182 l-3 -178
-30 -15 c-30 -15 -29 -15 43 -18 112 -4 221 2 197 11 -52 21 -50 15 -53 190
-2 163 -2 166 20 178 20 11 25 8 54 -25 38 -44 73 -48 103 -10 12 15 21 40 21
56 0 34 -39 78 -70 78 -31 0 -74 -25 -103 -60 -14 -16 -28 -30 -31 -30 -3 0
-6 20 -8 44 l-3 45 -100 -33z"/>
<path d="M5395 6826 c-97 -32 -100 -35 -50 -51 13 -4 15 -30 13 -182 -3 -173
-4 -178 -26 -189 -44 -22 -34 -24 102 -24 89 0 135 4 131 10 -3 6 -14 10 -25
10 -10 0 -21 7 -24 16 -3 9 -6 112 -6 230 0 118 -3 214 -7 213 -5 0 -53 -15
-108 -33z"/>
<path d="M5701 6829 c-104 -32 -112 -36 -87 -44 9 -3 23 -7 31 -10 13 -4 15
-41 13 -277 -3 -272 -3 -272 -26 -284 -44 -22 -34 -24 111 -24 91 0 147 4 147
10 0 6 -11 10 -24 10 -43 0 -56 24 -56 107 0 67 2 74 18 68 133 -51 275 54
289 215 19 211 -161 340 -287 205 l-25 -27 -5 40 -5 40 -94 -29z m211 -79 c51
-40 81 -174 58 -259 -21 -79 -83 -114 -138 -75 -21 15 -22 21 -22 179 0 121 3
165 13 168 27 12 66 6 89 -13z"/>
<path d="M7763 6829 c-90 -29 -118 -49 -69 -49 13 0 27 -7 30 -16 10 -27 7
-324 -4 -345 -6 -10 -17 -19 -25 -19 -7 0 -17 -4 -20 -10 -4 -6 38 -10 119
-10 77 0 126 4 126 10 0 6 -7 10 -15 10 -29 0 -36 38 -33 197 l3 158 38 9 c34
9 40 7 65 -17 25 -26 27 -33 30 -137 5 -141 -3 -201 -29 -207 -51 -14 -7 -23
108 -23 125 0 134 2 91 24 -22 11 -23 18 -29 181 -3 94 -9 179 -14 190 -39 94
-157 113 -230 38 l-35 -36 0 41 c0 23 -3 42 -7 41 -5 0 -50 -14 -100 -30z"/>
<path d="M8365 6841 c-61 -27 -95 -73 -95 -126 0 -62 14 -90 59 -123 l40 -29
-35 -34 c-69 -66 -78 -123 -27 -156 l24 -16 -37 -21 c-188 -107 135 -216 336
-113 74 38 109 112 79 169 -18 33 -91 58 -187 64 -164 9 -182 18 -143 72 19
27 24 29 69 24 73 -7 153 20 191 63 34 39 42 80 27 139 -6 24 -4 25 41 28 36
2 49 7 51 21 3 15 -5 17 -66 17 -48 0 -83 6 -113 20 -58 26 -159 26 -214 1z
m148 -49 c27 -47 35 -154 13 -187 -34 -52 -95 -21 -115 60 -26 103 -5 169 52
163 23 -2 36 -12 50 -36z m85 -459 c39 -6 58 -34 42 -62 -14 -27 -72 -44 -150
-43 -111 0 -162 34 -145 99 l6 25 107 -6 c59 -4 122 -10 140 -13z"/>
<path d="M9784 6837 c-52 -25 -97 -73 -107 -114 -5 -22 -2 -23 54 -23 l59 0 0
31 c0 32 15 69 34 81 6 4 25 8 43 8 43 0 63 -30 63 -95 l0 -50 -104 -49 c-58
-26 -117 -61 -132 -77 -49 -51 -29 -130 41 -163 61 -29 112 -19 167 32 15 14
29 24 30 21 2 -2 8 -13 14 -24 29 -53 106 -57 164 -9 31 27 32 51 1 35 -40
-22 -46 -1 -46 167 0 134 -3 162 -18 185 -29 44 -62 60 -140 64 -61 3 -80 0
-123 -20z m146 -281 c0 -63 -4 -87 -16 -96 -23 -20 -72 -16 -96 7 -24 24 -28
84 -8 108 13 16 96 64 113 65 4 0 7 -38 7 -84z"/>
<path d="M10265 6826 c-97 -32 -100 -35 -50 -51 13 -4 15 -30 13 -182 l-3
-178 -30 -15 c-30 -15 -29 -15 43 -18 112 -4 221 2 197 11 -52 21 -50 15 -53
190 -2 163 -2 166 20 178 20 11 25 8 54 -25 38 -44 73 -48 103 -10 12 15 21
40 21 56 0 34 -39 78 -70 78 -31 0 -74 -25 -103 -60 -14 -16 -28 -30 -31 -30
-3 0 -6 20 -8 44 l-3 45 -100 -33z"/>
<path d="M8853 6832 c-46 -8 -83 -19 -83 -23 0 -5 9 -9 20 -9 32 0 40 -33 40
-177 0 -113 4 -145 19 -179 31 -69 121 -95 188 -54 17 10 37 28 43 39 16 30
30 26 30 -8 0 -17 5 -33 10 -36 11 -7 180 45 180 56 0 4 -11 10 -25 13 -34 9
-37 29 -33 225 2 103 -1 171 -6 171 -33 0 -196 -35 -196 -42 0 -4 9 -8 20 -8
34 0 41 -32 38 -182 l-3 -143 -27 -12 c-40 -20 -74 -2 -88 44 -7 23 -10 97 -8
191 3 175 17 160 -119 134z"/>
<path d="M11560 6750 l0 -100 -100 0 -100 0 0 -30 0 -30 100 0 100 0 0 -105 0
-105 35 0 34 0 3 103 3 102 103 3 102 3 0 29 0 29 -102 3 -103 3 -3 98 -3 97
-34 0 -35 0 0 -100z"/>
<path d="M6595 6505 c-15 -14 -25 -36 -25 -52 0 -32 24 -73 43 -73 7 0 18 -4
25 -9 20 -12 -10 -77 -61 -128 -47 -49 -38 -56 19 -14 112 80 165 209 113 275
-28 35 -80 36 -114 1z"/>
<path d="M11985 6505 c-15 -14 -25 -36 -25 -52 0 -32 24 -73 43 -73 7 0 18 -4
25 -9 20 -12 -10 -77 -61 -128 -47 -49 -38 -56 19 -14 112 80 165 209 113 275
-28 35 -80 36 -114 1z"/>
<path d="M5570 5967 c-92 -29 -94 -31 -67 -42 41 -17 47 -31 47 -118 l0 -78
-30 16 c-98 51 -238 -31 -276 -161 -55 -191 87 -370 234 -295 23 12 46 30 52
41 14 27 30 16 30 -21 0 -36 6 -36 100 -4 79 27 109 45 74 45 -43 0 -44 9 -44
337 0 244 -3 313 -12 312 -7 -1 -56 -15 -108 -32z m-46 -258 l26 -20 0 -154
c0 -142 -2 -155 -19 -165 -97 -51 -182 105 -148 271 16 79 85 112 141 68z"/>
<path d="M6877 5925 c-61 -20 -123 -81 -133 -129 -18 -96 38 -172 178 -242 48
-24 103 -58 122 -75 31 -26 36 -37 36 -73 0 -119 -181 -143 -260 -34 -15 21
-36 65 -46 98 -10 33 -21 60 -26 60 -4 0 -8 -49 -8 -108 l0 -108 49 -18 c75
-27 186 -32 254 -12 112 33 185 137 158 227 -20 65 -71 112 -191 174 -60 30
-118 67 -129 81 -59 75 17 162 117 135 59 -16 87 -43 118 -116 16 -36 32 -65
36 -65 5 0 8 42 8 93 l0 94 -42 13 c-68 20 -186 22 -241 5z"/>
<path d="M990 5910 c0 -5 8 -10 18 -10 10 0 28 -7 40 -16 22 -15 22 -18 22
-283 0 -247 -1 -269 -18 -284 -10 -10 -28 -17 -40 -17 -12 0 -22 -4 -22 -10 0
-6 64 -10 171 -10 111 0 168 3 164 10 -3 6 -17 10 -31 10 -13 0 -33 9 -44 20
-18 18 -20 33 -20 145 0 106 2 125 15 125 15 0 108 -135 174 -252 l33 -58 114
0 c115 0 141 8 82 25 -28 8 -48 33 -126 149 -50 77 -89 143 -85 147 5 4 25 12
45 18 20 7 51 28 68 47 25 29 30 43 30 88 0 89 -57 137 -187 156 -91 13 -403
13 -403 0z m344 -34 c51 -21 76 -60 76 -118 0 -27 -7 -62 -15 -77 -18 -35 -70
-61 -124 -61 l-41 0 0 135 0 135 35 0 c20 0 50 -6 69 -14z"/>
<path d="M3990 5914 c0 -3 14 -17 30 -31 l30 -25 0 -262 c0 -242 -1 -264 -18
-279 -10 -10 -28 -17 -40 -17 -12 0 -22 -4 -22 -10 0 -6 42 -10 105 -10 63 0
105 4 105 10 0 6 -11 10 -23 10 -13 0 -31 8 -40 18 -15 16 -17 48 -17 238 l0
219 165 -248 165 -247 65 0 64 0 3 296 c3 279 4 296 22 310 11 8 30 14 43 14
13 0 23 5 23 10 0 6 -43 10 -110 10 -67 0 -110 -4 -110 -10 0 -5 10 -10 23
-10 13 0 32 -6 43 -14 18 -13 19 -30 22 -238 l3 -223 -166 248 -165 247 -100
0 c-55 0 -100 -3 -100 -6z"/>
<path d="M6360 5910 c0 -5 9 -10 20 -10 11 0 29 -9 40 -20 19 -19 20 -33 20
-269 0 -140 -4 -261 -10 -276 -21 -56 -67 -35 -118 57 -15 27 -30 48 -34 48
-5 0 -8 -35 -8 -79 l0 -78 31 -7 c88 -17 180 -1 230 41 57 48 62 75 67 326 4
218 5 228 25 242 12 8 29 15 39 15 10 0 18 5 18 10 0 6 -60 10 -160 10 -100 0
-160 -4 -160 -10z"/>
<path d="M3273 5857 c-47 -40 -62 -58 -62 -79 -1 -26 -4 -28 -41 -28 -33 0
-40 -3 -40 -19 0 -16 8 -20 38 -23 l37 -3 5 -188 5 -189 33 -29 c24 -22 42
-29 73 -29 50 0 103 24 129 58 28 35 25 43 -12 25 -28 -14 -35 -14 -57 -2
l-26 15 -3 172 -2 172 55 0 c48 0 55 2 55 20 0 18 -7 20 -55 20 l-55 0 0 80
c0 44 -3 80 -7 79 -5 0 -36 -23 -70 -52z"/>
<path d="M1832 5747 c-52 -19 -100 -64 -129 -120 -36 -70 -39 -181 -6 -243 28
-52 72 -90 121 -104 94 -26 174 0 243 78 41 47 40 66 -3 38 -13 -8 -40 -18
-61 -21 -103 -19 -183 41 -202 153 l-7 42 157 0 158 0 -6 40 c-15 111 -148
179 -265 137z m118 -59 c11 -18 20 -43 20 -55 0 -22 -3 -23 -86 -23 l-86 0 6
32 c10 49 42 78 88 78 32 0 41 -5 58 -32z"/>
<path d="M2294 5737 c-52 -25 -97 -73 -107 -114 -5 -22 -2 -23 54 -23 l59 0 0
31 c0 32 15 69 34 81 6 4 25 8 43 8 43 0 63 -30 63 -95 l0 -50 -104 -49 c-58
-26 -117 -61 -132 -77 -49 -51 -29 -130 41 -163 61 -29 112 -19 167 32 15 14
29 24 30 21 2 -2 8 -13 14 -24 29 -53 106 -57 164 -9 31 27 32 51 1 35 -40
-22 -46 -1 -46 167 0 134 -3 162 -18 185 -29 44 -62 60 -140 64 -61 3 -80 0
-123 -20z m146 -281 c0 -63 -4 -87 -16 -96 -23 -20 -72 -16 -96 7 -24 24 -28
84 -8 108 13 16 96 64 113 65 4 0 7 -38 7 -84z"/>
<path d="M2862 5747 c-45 -14 -118 -81 -144 -131 -31 -58 -31 -175 -1 -231 11
-22 32 -50 45 -62 53 -50 145 -67 211 -39 41 17 140 126 114 126 -1 0 -20 -9
-42 -20 -106 -54 -214 13 -223 140 -6 80 4 123 35 160 38 46 70 38 102 -24 33
-63 49 -73 89 -57 38 16 48 42 32 81 -24 57 -131 85 -218 57z"/>
<path d="M4851 5746 c-84 -30 -161 -136 -161 -222 0 -97 53 -189 132 -230 43
-22 129 -29 182 -14 94 26 176 133 176 231 0 172 -169 293 -329 235z m111 -27
c52 -28 88 -230 59 -337 -31 -113 -128 -106 -163 12 -14 46 -17 226 -5 269 16
57 62 81 109 56z"/>
<path d="M5962 5747 c-52 -19 -100 -64 -129 -120 -36 -70 -39 -181 -6 -243 28
-52 72 -90 121 -104 94 -26 174 0 243 78 41 47 40 66 -3 38 -13 -8 -40 -18
-60 -21 -104 -19 -184 41 -203 153 l-7 42 157 0 158 0 -6 40 c-15 111 -148
179 -265 137z m118 -59 c11 -18 20 -43 20 -55 0 -22 -3 -23 -86 -23 l-86 0 6
32 c10 49 42 78 88 78 32 0 41 -5 58 -32z"/>
<path d="M3565 5405 c-15 -14 -25 -36 -25 -52 0 -32 24 -73 43 -73 7 0 18 -4
25 -9 20 -12 -10 -77 -61 -128 -47 -49 -38 -56 19 -14 112 80 165 209 113 275
-28 35 -80 36 -114 1z"/>
<path d="M980 4645 c0 -50 4 -85 10 -85 6 0 10 35 10 85 0 50 -4 85 -10 85 -6
0 -10 -35 -10 -85z"/>
<path d="M1308 4724 c-5 -4 -8 -16 -8 -26 0 -10 -7 -18 -17 -18 -17 -1 -17 -1
-1 -13 10 -8 18 -31 20 -58 3 -39 6 -44 28 -47 22 -2 23 -1 8 8 -12 7 -18 23
-18 47 0 22 7 41 18 49 16 12 16 13 0 14 -10 0 -18 10 -20 26 -2 14 -6 22 -10
18z"/>
<path d="M1738 4724 c-5 -4 -8 -16 -8 -26 0 -10 -7 -18 -17 -18 -17 -1 -17 -1
-1 -13 10 -8 18 -31 20 -58 3 -39 6 -44 28 -47 22 -2 23 -1 8 8 -12 7 -18 23
-18 47 0 22 7 41 18 49 16 12 16 13 0 14 -10 0 -18 10 -20 26 -2 14 -6 22 -10
18z"/>
<path d="M2460 4664 c0 -57 -3 -67 -20 -71 -27 -7 -25 -33 3 -33 41 0 50 14
55 94 4 72 4 76 -17 76 -19 0 -21 -5 -21 -66z"/>
<path d="M3010 4645 c0 -78 2 -85 20 -85 16 0 20 7 20 35 0 33 2 35 35 35 24
0 35 5 35 15 0 10 -11 15 -35 15 -28 0 -35 4 -35 20 0 16 7 20 35 20 24 0 35
5 35 15 0 12 -13 15 -55 15 l-55 0 0 -85z"/>
<path d="M3880 4702 c0 -26 -3 -28 -28 -24 -36 5 -62 -19 -62 -58 0 -42 23
-59 80 -58 l50 0 0 84 c0 77 -2 84 -20 84 -15 0 -20 -7 -20 -28z m-2 -75 c5
-23 -15 -47 -34 -40 -8 3 -14 18 -14 35 0 25 4 29 22 26 13 -2 24 -11 26 -21z"/>
<path d="M4140 4661 c0 -79 13 -101 61 -101 60 0 69 13 69 95 0 60 -3 75 -15
75 -11 0 -15 -13 -15 -54 0 -66 -7 -86 -29 -86 -30 0 -41 22 -41 82 0 45 -3
58 -15 58 -12 0 -15 -14 -15 -69z"/>
<path d="M1040 4618 c0 -69 18 -78 22 -10 3 43 5 47 28 47 23 0 25 -4 28 -47
4 -58 22 -64 22 -7 0 62 -13 79 -60 77 l-40 -1 0 -59z"/>
<path d="M1181 4666 c-17 -20 -2 -46 30 -53 36 -7 43 -17 25 -33 -11 -9 -20
-9 -36 0 -25 13 -42 4 -20 -10 23 -15 66 -12 80 5 18 22 6 41 -34 55 -20 6
-36 15 -36 20 0 13 25 19 40 10 16 -10 33 -3 25 11 -9 14 -61 11 -74 -5z"/>
<path d="M1380 4618 c0 -32 4 -58 10 -58 6 0 10 21 10 46 0 37 4 47 20 51 30
8 24 22 -10 21 -30 -1 -30 -1 -30 -60z"/>
<path d="M1472 4623 l3 -58 43 -1 42 -2 0 59 c0 33 -4 59 -10 59 -5 0 -10 -22
-10 -49 0 -48 -10 -63 -37 -54 -8 3 -13 23 -13 54 0 28 -5 49 -10 49 -7 0 -10
-22 -8 -57z"/>
<path d="M1606 4658 c-21 -30 -20 -61 2 -81 21 -19 49 -22 72 -7 21 13 5 23
-18 11 -16 -9 -24 -7 -36 5 -34 33 -4 94 36 73 23 -12 39 -2 18 11 -26 16 -58
11 -74 -12z"/>
<path d="M1816 4658 c-33 -46 -7 -98 47 -98 29 0 47 24 47 64 0 53 -65 76 -94
34z m74 -38 c0 -38 -31 -57 -54 -34 -33 33 -4 94 35 74 12 -7 19 -21 19 -40z"/>
<path d="M1940 4618 c0 -32 4 -58 10 -58 6 0 10 21 10 46 0 37 4 47 20 51 30
8 24 22 -10 21 -30 -1 -30 -1 -30 -60z"/>
<path d="M2026 4658 c-21 -30 -20 -61 2 -81 23 -21 65 -22 82 -2 10 12 6 13
-25 8 -26 -4 -40 -2 -46 8 -15 25 -10 29 36 29 49 0 59 15 29 44 -22 23 -60
20 -78 -6z m62 0 c20 -20 14 -28 -23 -28 -38 0 -46 13 -17 29 22 13 26 13 40
-1z"/>
<path d="M2161 4666 c-17 -20 -2 -46 30 -53 36 -7 43 -17 25 -33 -11 -9 -20
-9 -36 0 -25 13 -42 4 -20 -10 23 -15 66 -12 80 5 18 22 6 41 -34 55 -20 6
-36 15 -36 20 0 13 25 19 40 10 16 -10 33 -3 25 11 -9 14 -61 11 -74 -5z"/>
<path d="M2521 4648 c2 -73 10 -83 67 -85 l52 -2 0 59 c0 53 -2 60 -19 60 -16
0 -20 -8 -23 -42 -2 -30 -8 -43 -18 -43 -10 0 -16 13 -18 43 -3 34 -7 42 -23
42 -15 0 -19 -7 -18 -32z"/>
<path d="M2680 4660 c-9 -17 -8 -20 10 -20 11 0 20 5 20 10 0 6 7 10 16 10 23
0 11 -24 -16 -30 -28 -7 -45 -32 -37 -53 5 -13 19 -16 57 -16 l50 2 0 46 c0
26 -5 52 -12 59 -20 20 -76 15 -88 -8z m60 -65 c0 -8 -6 -15 -14 -15 -17 0
-28 14 -19 24 12 12 33 6 33 -9z"/>
<path d="M2810 4619 c0 -45 3 -59 14 -59 10 0 16 14 18 42 2 31 8 44 21 46 14
3 17 -4 17 -42 0 -39 3 -46 20 -46 17 0 20 7 20 49 0 58 -12 70 -68 69 l-42 0
0 -59z"/>
<path d="M3147 4662 c-49 -53 21 -132 82 -93 21 14 5 28 -27 23 -16 -2 -33 1
-36 7 -5 7 8 11 38 11 50 0 57 10 30 48 -19 27 -64 29 -87 4z m61 -20 c2 -7
-6 -12 -17 -12 -21 0 -27 11 -14 24 9 9 26 2 31 -12z"/>
<path d="M3280 4619 c0 -46 3 -59 15 -59 10 0 15 10 15 29 0 39 9 61 26 61 8
0 14 6 14 14 0 9 -12 14 -35 14 l-35 0 0 -59z"/>
<path d="M3370 4619 c0 -45 3 -59 14 -59 10 0 16 14 18 42 2 31 8 44 21 46 14
3 17 -4 17 -42 0 -39 3 -46 20 -46 17 0 20 7 20 49 0 58 -12 70 -68 69 l-42 0
0 -59z"/>
<path d="M3520 4660 c-9 -17 -8 -20 10 -20 11 0 20 5 20 10 0 6 7 10 16 10 23
0 11 -24 -16 -30 -28 -7 -45 -32 -37 -53 5 -13 19 -16 57 -16 l50 2 0 46 c0
26 -5 52 -12 59 -20 20 -76 15 -88 -8z m60 -65 c0 -8 -6 -15 -14 -15 -17 0
-28 14 -19 24 12 12 33 6 33 -9z"/>
<path d="M3650 4619 c0 -45 3 -59 14 -59 10 0 16 14 18 42 2 31 8 44 21 46 14
3 17 -4 17 -42 0 -39 3 -46 20 -46 17 0 20 7 20 49 0 58 -12 70 -68 69 l-42 0
0 -59z"/>
<path d="M3957 4662 c-36 -39 -11 -102 39 -102 46 0 64 17 64 60 0 29 -5 42
-19 50 -30 15 -66 12 -84 -8z m71 -46 c-2 -13 -12 -22 -25 -24 -20 -3 -23 1
-23 26 0 17 6 32 13 35 19 7 38 -14 35 -37z"/>
<path d="M4310 4619 c0 -46 3 -59 15 -59 10 0 15 10 15 29 0 39 9 61 26 61 8
0 14 6 14 14 0 9 -12 14 -35 14 l-35 0 0 -59z"/>
<path d="M4410 4619 c0 -46 3 -59 15 -59 10 0 15 10 15 29 0 39 9 61 26 61 8
0 14 6 14 14 0 9 -12 14 -35 14 l-35 0 0 -59z"/>
<path d="M4507 4662 c-49 -53 21 -132 82 -93 21 14 5 28 -27 23 -16 -2 -33 1
-36 7 -5 7 8 11 38 11 50 0 57 10 30 48 -19 27 -64 29 -87 4z m61 -20 c2 -7
-6 -12 -17 -12 -21 0 -27 11 -14 24 9 9 26 2 31 -12z"/>
<path d="M4645 4664 c-8 -9 -15 -29 -15 -44 0 -35 38 -65 70 -55 12 4 20 2 20
-5 0 -17 -31 -24 -50 -12 -26 16 -46 -1 -25 -22 19 -18 57 -21 86 -6 16 9 19
22 19 84 l0 73 -45 1 c-27 1 -50 -5 -60 -14z m70 -44 c0 -38 -39 -35 -43 3 -3
25 0 28 20 25 17 -2 23 -9 23 -28z"/>
<path d="M4797 4662 c-36 -39 -11 -102 39 -102 46 0 64 17 64 60 0 29 -5 42
-19 50 -30 15 -66 12 -84 -8z m71 -46 c-2 -13 -12 -22 -25 -24 -20 -3 -23 1
-23 26 0 17 6 32 13 35 19 7 38 -14 35 -37z"/>
<path d="M1090 2112 c0 -202 -6 -217 -76 -209 l-44 5 0 -43 c0 -40 2 -44 30
-50 39 -8 108 2 138 22 44 27 52 68 52 263 l0 180 -50 0 -50 0 0 -168z"/>
<path d="M1357 2136 c-50 -19 -67 -34 -88 -81 -24 -51 -23 -99 1 -152 44 -98
186 -121 272 -44 l31 27 -34 21 c-32 21 -33 21 -57 2 -45 -35 -132 -15 -132
32 0 18 8 19 110 19 l110 0 0 35 c0 48 -34 111 -69 130 -44 22 -101 27 -144
11z m103 -76 c33 -33 24 -40 -45 -40 -71 0 -85 15 -43 44 31 22 64 20 88 -4z"/>
<path d="M1693 2139 c-70 -20 -97 -108 -47 -154 15 -14 52 -30 91 -39 73 -16
86 -25 73 -46 -13 -21 -74 -16 -117 10 l-36 21 -25 -24 c-29 -29 -24 -40 28
-67 116 -59 245 -17 245 81 0 53 -25 75 -110 95 -81 20 -93 27 -75 49 16 19
43 19 87 -2 34 -16 35 -16 60 9 l25 26 -26 17 c-48 31 -115 41 -173 24z"/>
<path d="M2413 2139 c-70 -20 -97 -108 -47 -154 15 -14 52 -30 91 -39 73 -16
86 -25 73 -46 -13 -21 -74 -16 -117 10 l-36 21 -25 -24 c-29 -29 -24 -40 28
-67 116 -59 245 -17 245 81 0 53 -25 75 -110 95 -81 20 -93 27 -75 49 16 19
43 19 87 -2 34 -16 35 -16 60 9 l25 26 -26 17 c-48 31 -115 41 -173 24z"/>
<path d="M1972 2006 c3 -126 5 -136 27 -160 34 -36 81 -43 131 -18 31 15 40
16 40 6 0 -10 14 -14 50 -14 l50 0 0 160 0 160 -50 0 -50 0 0 -103 c0 -121 -9
-140 -60 -135 l-35 3 -3 118 -3 117 -50 0 -51 0 4 -134z"/>
<path d="M980 1275 c0 -50 4 -85 10 -85 6 0 10 18 10 40 l0 40 40 0 c22 0 40
5 40 10 0 6 -18 10 -40 10 -36 0 -40 3 -40 25 0 23 4 25 45 25 25 0 45 5 45
10 0 6 -25 10 -55 10 l-55 0 0 -85z"/>
<path d="M1370 1275 c0 -90 17 -118 22 -37 3 43 5 47 28 47 23 0 25 -4 28 -47
4 -60 22 -63 22 -5 0 56 -18 82 -53 75 -24 -5 -27 -2 -27 23 0 16 -4 29 -10
29 -6 0 -10 -35 -10 -85z"/>
<path d="M1795 1344 c-20 -20 -16 -48 8 -52 12 -2 17 3 17 17 0 14 6 21 20 21
36 0 25 -45 -20 -81 -57 -46 -53 -59 20 -59 47 0 60 3 60 15 0 10 -10 15 -31
15 l-31 0 31 31 c33 32 41 75 19 97 -17 17 -74 15 -93 -4z"/>
<path d="M1956 1344 c-22 -21 -29 -57 -22 -98 8 -44 27 -58 68 -54 72 7 70
108 -3 108 -20 0 -29 4 -27 13 6 17 39 21 49 6 6 -11 11 -11 20 -2 9 9 9 16
-1 28 -16 20 -64 19 -84 -1z m62 -96 c-2 -15 -10 -23 -23 -23 -13 0 -21 8 -23
23 -3 18 1 22 23 22 22 0 26 -4 23 -22z"/>
<path d="M2220 1332 c0 -26 -3 -28 -28 -24 -36 5 -62 -19 -62 -58 0 -42 23
-59 80 -58 l50 0 0 84 c0 77 -2 84 -20 84 -15 0 -20 -7 -20 -28z m-2 -75 c5
-23 -15 -47 -34 -40 -8 3 -14 18 -14 35 0 25 4 29 22 26 13 -2 24 -11 26 -21z"/>
<path d="M2500 1294 c0 -57 -3 -67 -20 -71 -27 -7 -25 -33 3 -33 41 0 50 14
55 94 4 72 4 76 -17 76 -19 0 -21 -5 -21 -66z"/>
<path d="M2720 1275 c0 -69 3 -85 15 -85 12 0 15 16 15 85 0 69 -3 85 -15 85
-12 0 -15 -16 -15 -85z"/>
<path d="M2780 1345 c0 -8 7 -15 15 -15 8 0 15 7 15 15 0 8 -7 15 -15 15 -8 0
-15 -7 -15 -15z"/>
<path d="M3130 1332 c0 -26 -3 -28 -28 -24 -36 5 -62 -19 -62 -58 0 -42 23
-59 80 -58 l50 0 0 84 c0 77 -2 84 -20 84 -15 0 -20 -7 -20 -28z m-2 -75 c5
-23 -15 -47 -34 -40 -8 3 -14 18 -14 35 0 25 4 29 22 26 13 -2 24 -11 26 -21z"/>
<path d="M3395 1344 c-20 -20 -16 -48 8 -52 12 -2 17 3 17 17 0 14 6 21 20 21
36 0 25 -45 -20 -81 -57 -46 -53 -59 20 -59 47 0 60 3 60 15 0 10 -10 15 -31
15 l-31 0 31 31 c33 32 41 75 19 97 -17 17 -74 15 -93 -4z"/>
<path d="M3549 1343 c-8 -9 -14 -39 -14 -70 0 -43 4 -58 19 -69 26 -18 70 -18
86 1 21 25 24 89 6 123 -14 26 -23 32 -50 32 -19 0 -40 -7 -47 -17z m69 -58
c3 -47 -9 -70 -32 -62 -11 5 -16 19 -16 50 0 48 6 59 30 55 10 -2 16 -16 18
-43z"/>
<path d="M3695 1344 c-20 -20 -16 -48 8 -52 12 -2 17 3 17 17 0 14 6 21 20 21
36 0 25 -45 -20 -81 -57 -46 -53 -59 20 -59 47 0 60 3 60 15 0 10 -10 15 -31
15 l-31 0 31 31 c33 32 41 75 19 97 -17 17 -74 15 -93 -4z"/>
<path d="M3863 1347 c-4 -8 -16 -16 -25 -20 -24 -9 -23 -27 2 -27 18 0 20 -7
20 -55 0 -48 2 -55 20 -55 18 0 20 7 20 85 0 68 -3 85 -15 85 -7 0 -18 -6 -22
-13z"/>
<path d="M1126 1288 c-21 -30 -20 -61 2 -81 23 -21 65 -22 82 -2 10 12 6 13
-25 8 -26 -4 -40 -2 -46 8 -15 25 -10 29 36 29 49 0 59 15 29 44 -22 23 -60
20 -78 -6z m62 0 c20 -20 14 -28 -23 -28 -38 0 -46 13 -17 29 22 13 26 13 40
-1z"/>
<path d="M1256 1288 c-21 -30 -20 -61 2 -81 21 -19 49 -22 72 -7 21 13 5 23
-18 11 -16 -9 -24 -7 -36 5 -34 33 -4 94 36 73 23 -12 39 -2 18 11 -26 16 -58
11 -74 -12z"/>
<path d="M1517 1303 c-4 -3 -7 -13 -7 -21 0 -13 3 -12 19 2 10 9 25 14 35 10
25 -10 15 -25 -24 -38 -28 -9 -35 -16 -35 -36 0 -23 4 -25 50 -27 l50 -1 -4
46 c-2 26 -8 53 -13 60 -11 13 -60 17 -71 5z m61 -69 c-5 -26 -35 -41 -50 -26
-11 11 -9 16 6 28 26 19 48 18 44 -2z"/>
<path d="M2297 1292 c-49 -53 21 -132 82 -93 21 14 5 28 -27 23 -16 -2 -33 1
-36 7 -5 7 8 11 38 11 50 0 57 10 30 48 -19 27 -64 29 -87 4z m61 -20 c2 -7
-6 -12 -17 -12 -21 0 -27 11 -14 24 9 9 26 2 31 -12z"/>
<path d="M2561 1278 c2 -73 10 -83 67 -85 l52 -2 0 59 c0 53 -2 60 -19 60 -16
0 -20 -8 -23 -42 -2 -30 -8 -43 -18 -43 -10 0 -16 13 -18 43 -3 34 -7 42 -23
42 -15 0 -19 -7 -18 -32z"/>
<path d="M2780 1250 c0 -47 3 -60 15 -60 12 0 15 13 15 60 0 47 -3 60 -15 60
-12 0 -15 -13 -15 -60z"/>
<path d="M2857 1292 c-36 -39 -11 -102 39 -102 46 0 64 17 64 60 0 29 -5 42
-19 50 -30 15 -66 12 -84 -8z m71 -46 c-2 -13 -12 -22 -25 -24 -20 -3 -23 1
-23 26 0 17 6 32 13 35 19 7 38 -14 35 -37z"/>
<path d="M3207 1292 c-49 -53 21 -132 82 -93 21 14 5 28 -27 23 -16 -2 -33 1
-36 7 -5 7 8 11 38 11 50 0 57 10 30 48 -19 27 -64 29 -87 4z m61 -20 c2 -7
-6 -12 -17 -12 -21 0 -27 11 -14 24 9 9 26 2 31 -12z"/>
<path d="M980 905 l0 -85 55 0 c30 0 55 5 55 10 0 6 -20 10 -45 10 l-45 0 0
75 c0 43 -4 75 -10 75 -6 0 -10 -35 -10 -85z"/>
<path d="M1520 980 c0 -5 5 -10 10 -10 6 0 10 5 10 10 0 6 -4 10 -10 10 -5 0
-10 -4 -10 -10z"/>
<path d="M1598 984 c-5 -4 -8 -16 -8 -26 0 -10 -7 -18 -17 -18 -17 -1 -17 -1
-1 -13 10 -8 18 -31 20 -58 3 -39 6 -44 28 -47 22 -2 23 -1 8 8 -12 7 -18 23
-18 47 0 22 7 41 18 49 16 12 16 13 0 14 -10 0 -18 10 -20 26 -2 14 -6 22 -10
18z"/>
<path d="M1880 961 c0 -25 -3 -28 -25 -23 -33 6 -65 -23 -65 -59 0 -40 24 -59
71 -57 l39 1 0 84 c0 49 -4 83 -10 83 -5 0 -10 -13 -10 -29z m0 -81 c0 -38
-31 -57 -54 -34 -33 33 -4 94 35 74 12 -7 19 -21 19 -40z"/>
<path d="M2116 941 c-47 -63 -47 -81 -1 -81 28 0 35 -4 35 -20 0 -13 7 -20 20
-20 13 0 20 7 20 20 0 11 5 20 10 20 6 0 10 7 10 15 0 8 -4 15 -10 15 -5 0
-10 23 -10 50 0 43 -3 50 -19 50 -12 0 -34 -20 -55 -49z m34 -26 c0 -16 -6
-25 -15 -25 -18 0 -19 4 -3 30 16 26 18 25 18 -5z"/>
<path d="M2273 977 c-4 -8 -16 -16 -25 -20 -24 -9 -23 -27 2 -27 18 0 20 -7
20 -55 0 -48 2 -55 20 -55 18 0 20 7 20 85 0 68 -3 85 -15 85 -7 0 -18 -6 -22
-13z"/>
<path d="M2408 948 c-6 -52 5 -67 33 -50 25 16 39 8 39 -24 0 -26 -27 -33 -48
-12 -8 8 -15 9 -23 1 -16 -16 17 -43 51 -43 37 0 60 24 60 60 0 33 -39 66 -65
56 -9 -3 -15 0 -15 9 0 10 11 15 35 15 24 0 35 5 35 15 0 11 -12 15 -49 15
l-49 0 -4 -42z"/>
<path d="M2610 905 c0 -67 3 -85 14 -85 10 0 16 14 18 42 2 31 8 44 21 46 14
3 17 -4 17 -42 0 -39 3 -46 20 -46 17 0 20 7 20 49 0 55 -16 76 -55 69 -22 -5
-25 -2 -25 23 0 19 -5 29 -15 29 -12 0 -15 -16 -15 -85z"/>
<path d="M3653 983 c-7 -3 -13 -13 -13 -24 0 -10 -7 -19 -15 -19 -19 0 -19
-16 -1 -27 8 -4 16 -26 18 -48 3 -35 6 -40 31 -43 28 -3 38 15 12 24 -9 4 -15
19 -15 35 0 19 5 29 15 29 8 0 15 7 15 15 0 8 -6 15 -14 15 -8 0 -16 11 -18
23 -2 14 -8 22 -15 20z"/>
<path d="M3893 983 c-7 -3 -13 -13 -13 -24 0 -10 -7 -19 -15 -19 -19 0 -19
-16 -1 -27 8 -4 16 -26 18 -48 3 -35 6 -40 31 -43 28 -3 38 15 12 24 -9 4 -15
19 -15 35 0 19 5 29 15 29 8 0 15 7 15 15 0 8 -6 15 -14 15 -8 0 -16 11 -18
23 -2 14 -8 22 -15 20z"/>
<path d="M4100 905 c0 -69 3 -85 15 -85 12 0 15 16 15 85 0 69 -3 85 -15 85
-12 0 -15 -16 -15 -85z"/>
<path d="M1116 918 c-33 -46 -7 -98 47 -98 29 0 47 24 47 64 0 53 -65 76 -94
34z m74 -38 c0 -38 -31 -57 -54 -34 -33 33 -4 94 35 74 12 -7 19 -21 19 -40z"/>
<path d="M1240 878 c0 -69 18 -78 22 -10 3 43 5 47 28 47 23 0 25 -4 28 -47 4
-58 22 -64 22 -7 0 62 -13 79 -60 77 l-40 -1 0 -59z"/>
<path d="M1386 922 c-20 -23 -20 -51 0 -81 13 -18 23 -22 46 -17 24 5 29 3 26
-12 -4 -21 -48 -29 -59 -11 -4 8 -11 10 -15 6 -12 -11 17 -37 42 -37 40 0 54
25 54 99 l0 68 -39 1 c-26 1 -43 -4 -55 -16z m74 -43 c0 -33 -23 -48 -49 -32
-39 24 -11 94 30 73 12 -7 19 -21 19 -41z"/>
<path d="M1520 880 c0 -33 4 -60 10 -60 6 0 10 27 10 60 0 33 -4 60 -10 60 -6
0 -10 -27 -10 -60z"/>
<path d="M1662 883 l3 -58 43 -1 42 -2 0 59 c0 33 -4 59 -10 59 -5 0 -10 -22
-10 -49 0 -48 -10 -63 -37 -54 -8 3 -13 23 -13 54 0 28 -5 49 -10 49 -7 0 -10
-22 -8 -57z"/>
<path d="M2757 922 c-36 -39 -11 -102 39 -102 46 0 64 17 64 60 0 29 -5 42
-19 50 -30 15 -66 12 -84 -8z m71 -46 c-2 -13 -12 -22 -25 -24 -20 -3 -23 1
-23 26 0 17 6 32 13 35 19 7 38 -14 35 -37z"/>
<path d="M2890 879 c0 -46 3 -59 15 -59 10 0 15 10 15 29 0 39 9 61 26 61 8 0
14 6 14 14 0 9 -12 14 -35 14 l-35 0 0 -59z"/>
<path d="M2990 920 c-9 -17 -8 -20 10 -20 11 0 20 5 20 10 0 6 7 10 16 10 23
0 11 -24 -16 -30 -28 -7 -45 -32 -37 -53 5 -13 19 -16 57 -16 l50 2 0 46 c0
26 -5 52 -12 59 -20 20 -76 15 -88 -8z m60 -65 c0 -8 -6 -15 -14 -15 -17 0
-28 14 -19 24 12 12 33 6 33 -9z"/>
<path d="M3121 926 c-15 -18 -8 -44 14 -51 8 -3 22 -7 31 -10 8 -3 12 -9 9
-15 -4 -7 -13 -6 -27 1 -15 8 -23 8 -31 0 -16 -16 8 -31 49 -31 61 0 71 52 14
71 -40 14 -39 30 1 22 25 -5 31 -3 27 8 -7 20 -72 24 -87 5z"/>
<path d="M3307 922 c-49 -53 21 -132 82 -93 21 14 5 28 -27 23 -16 -2 -33 1
-36 7 -5 7 8 11 38 11 50 0 57 10 30 48 -19 27 -64 29 -87 4z m61 -20 c2 -7
-6 -12 -17 -12 -21 0 -27 11 -14 24 9 9 26 2 31 -12z"/>
<path d="M3440 879 c0 -45 3 -59 14 -59 10 0 16 14 18 42 2 31 8 44 21 46 14
3 17 -4 17 -42 0 -39 3 -46 20 -46 17 0 20 7 20 49 0 58 -12 70 -68 69 l-42 0
0 -59z"/>
<path d="M3737 922 c-36 -39 -11 -102 39 -102 46 0 64 17 64 60 0 29 -5 42
-19 50 -30 15 -66 12 -84 -8z m71 -46 c-2 -13 -12 -22 -25 -24 -20 -3 -23 1
-23 26 0 17 6 32 13 35 19 7 38 -14 35 -37z"/>
<path d="M3970 920 c-9 -17 -8 -20 10 -20 11 0 20 5 20 10 0 6 7 10 16 10 23
0 11 -24 -16 -30 -28 -7 -45 -32 -37 -53 5 -13 19 -16 57 -16 l50 2 0 46 c0
26 -5 52 -12 59 -20 20 -76 15 -88 -8z m60 -65 c0 -8 -6 -15 -14 -15 -17 0
-28 14 -19 24 12 12 33 6 33 -9z"/>
<path d="M2330 840 c0 -13 7 -20 20 -20 13 0 20 7 20 20 0 13 -7 20 -20 20
-13 0 -20 -7 -20 -20z"/>
</g>
</svg>
